{"filesize": "", "keyword": "", "list": [{"ID": "ed59438f34ae47e794f4c7ee5137c1f7", "EPS_NAME": "海南京润珍珠生物技术股份有限公司", "PRODUCT_SN": "琼妆20160001", "CITY_CODE": "311", "XK_COMPLETE_DATE": {"date": 25, "day": 0, "hours": 0, "minutes": 0, "month": 3, "nanos": 0, "seconds": 0, "time": 1619280000000, "timezoneOffset": -480, "year": 121}, "XK_DATE": "2026-04-25", "QF_MANAGER_NAME": "海南省药品监督管理局", "BUSINESS_LICENSE_NUMBER": "91460000294121210Y", "XC_DATE": "2021-04-25", "NUM_": 1}, {"ID": "5eb10afc74a2462c8e86652ec8d90a48", "EPS_NAME": "无锡邦士立生物科技有限公司", "PRODUCT_SN": "苏妆20160013", "CITY_CODE": "82", "XK_COMPLETE_DATE": {"date": 20, "day": 2, "hours": 0, "minutes": 0, "month": 3, "nanos": 0, "seconds": 0, "time": 1618848000000, "timezoneOffset": -480, "year": 121}, "XK_DATE": "2026-04-20", "QF_MANAGER_NAME": "江苏省药品监督管理局", "BUSINESS_LICENSE_NUMBER": "91320213355032183D", "XC_DATE": "2021-04-20", "NUM_": 2}, {"ID": "30015a586fd54a10bf5ff664ebe5ab35", "EPS_NAME": "云南西草资源开发有限公司", "PRODUCT_SN": "云妆20160011", "CITY_CODE": "204", "XK_COMPLETE_DATE": {"date": 13, "day": 2, "hours": 0, "minutes": 0, "month": 3, "nanos": 0, "seconds": 0, "time": 1618243200000, "timezoneOffset": -480, "year": 121}, "XK_DATE": "2021-09-20", "QF_MANAGER_NAME": "云南省食品药品监督管理局", "BUSINESS_LICENSE_NUMBER": "91530100668258976B", "XC_DATE": "2021-04-13", "NUM_": 3}, {"ID": "eaffb38cee8349d4a327191e29ab8be4", "EPS_NAME": "金平金岭生物瑶药开发有限责任公司", "PRODUCT_SN": "云妆20160005", "CITY_CODE": "209", "XK_COMPLETE_DATE": {"date": 12, "day": 1, "hours": 0, "minutes": 0, "month": 3, "nanos": 0, "seconds": 0, "time": 1618156800000, "timezoneOffset": -480, "year": 121}, "XK_DATE": "2021-06-28", "QF_MANAGER_NAME": "云南省食品药品监督管理局", "BUSINESS_LICENSE_NUMBER": "915325309181139730", "XC_DATE": "2021-04-12", "NUM_": 4}, {"ID": "b9b11c1839bf490eb4d798391d408966", "EPS_NAME": "广东汉熙生物科技有限公司", "PRODUCT_SN": "粤妆20210102", "CITY_CODE": null, "XK_COMPLETE_DATE": {"date": 12, "day": 1, "hours": 0, "minutes": 0, "month": 3, "nanos": 0, "seconds": 0, "time": 1618156800000, "timezoneOffset": -480, "year": 121}, "XK_DATE": "2026-04-11", "QF_MANAGER_NAME": "广东省药品监督管理局", "BUSINESS_LICENSE_NUMBER": "91441900MA552WM929", "XC_DATE": "2021-04-12", "NUM_": 5}, {"ID": "878ec3fe32b84ce0be8904bd8eca8fe4", "EPS_NAME": "汕头市盛美生物科技有限公司", "PRODUCT_SN": "粤妆20190019", "CITY_CODE": null, "XK_COMPLETE_DATE": {"date": 12, "day": 1, "hours": 0, "minutes": 0, "month": 3, "nanos": 0, "seconds": 0, "time": 1618156800000, "timezoneOffset": -480, "year": 121}, "XK_DATE": "2024-12-29", "QF_MANAGER_NAME": "广东省药品监督管理局", "BUSINESS_LICENSE_NUMBER": "91440514MA52PUPK9G", "XC_DATE": "2021-04-12", "NUM_": 6}, {"ID": "f3096243d6ab43cb9454133e342179e0", "EPS_NAME": "汕头市东兴酒店用品有限公司市区分公司", "PRODUCT_SN": "粤妆20160145", "CITY_CODE": null, "XK_COMPLETE_DATE": {"date": 12, "day": 1, "hours": 0, "minutes": 0, "month": 3, "nanos": 0, "seconds": 0, "time": 1618156800000, "timezoneOffset": -480, "year": 121}, "XK_DATE": "2026-04-11", "QF_MANAGER_NAME": "广东省药品监督管理局", "BUSINESS_LICENSE_NUMBER": "914405006886906786", "XC_DATE": "2021-04-12", "NUM_": 7}, {"ID": "2a9cdc38848d4a528718435fcc321426", "EPS_NAME": "江苏泰诚生物科技有限公司", "PRODUCT_SN": "苏妆20210007", "CITY_CODE": "92", "XK_COMPLETE_DATE": {"date": 12, "day": 1, "hours": 0, "minutes": 0, "month": 3, "nanos": 0, "seconds": 0, "time": 1618156800000, "timezoneOffset": -480, "year": 121}, "XK_DATE": "2026-01-24", "QF_MANAGER_NAME": "江苏省药品监督管理局", "BUSINESS_LICENSE_NUMBER": "91321291MA22CL3C26", "XC_DATE": "2021-04-12", "NUM_": 8}, {"ID": "81ad86417ea04d44ab357ed713aa70c7", "EPS_NAME": "欧瑞莲化妆品（中国）有限公司", "PRODUCT_SN": "苏妆20160048", "CITY_CODE": "84", "XK_COMPLETE_DATE": {"date": 12, "day": 1, "hours": 0, "minutes": 0, "month": 3, "nanos": 0, "seconds": 0, "time": 1618156800000, "timezoneOffset": -480, "year": 121}, "XK_DATE": "2026-03-28", "QF_MANAGER_NAME": "江苏省药品监督管理局", "BUSINESS_LICENSE_NUMBER": "91320583765135169H", "XC_DATE": "2021-04-12", "NUM_": 9}, {"ID": "56587ad675914e3a938bd4cce5e959ea", "EPS_NAME": "江苏更美科技有限公司", "PRODUCT_SN": "苏妆20190029", "CITY_CODE": "85", "XK_COMPLETE_DATE": {"date": 11, "day": 0, "hours": 0, "minutes": 0, "month": 3, "nanos": 0, "seconds": 0, "time": 1618070400000, "timezoneOffset": -480, "year": 121}, "XK_DATE": "2024-11-03", "QF_MANAGER_NAME": "江苏省药品监督管理局", "BUSINESS_LICENSE_NUMBER": "91320682MA1Y75TX6W", "XC_DATE": "2021-04-11", "NUM_": 10}, {"ID": "be76b514d896439dba33115f228a6ce9", "EPS_NAME": "上海西西艾尔启东日用化学品有限公司", "PRODUCT_SN": "苏妆20160003", "CITY_CODE": "85", "XK_COMPLETE_DATE": {"date": 11, "day": 0, "hours": 0, "minutes": 0, "month": 3, "nanos": 0, "seconds": 0, "time": 1618070400000, "timezoneOffset": -480, "year": 121}, "XK_DATE": "2024-04-19", "QF_MANAGER_NAME": "江苏省药品监督管理局", "BUSINESS_LICENSE_NUMBER": "91320681323949042K", "XC_DATE": "2021-04-11", "NUM_": 11}, {"ID": "3940e8d9ca3247659c4e8d86099c3b62", "EPS_NAME": "广州华人生物科技有限公司", "PRODUCT_SN": "粤妆20200188", "CITY_CODE": null, "XK_COMPLETE_DATE": {"date": 9, "day": 5, "hours": 0, "minutes": 0, "month": 3, "nanos": 0, "seconds": 0, "time": 1617897600000, "timezoneOffset": -480, "year": 121}, "XK_DATE": "2025-09-26", "QF_MANAGER_NAME": "广东省药品监督管理局", "BUSINESS_LICENSE_NUMBER": "91440101MA9UKGYXXU", "XC_DATE": "2021-04-09", "NUM_": 12}, {"ID": "bbfa198050ec475889223abe5c4b4fe5", "EPS_NAME": "广州发妍化妆品制造有限公司", "PRODUCT_SN": "粤妆20200062", "CITY_CODE": null, "XK_COMPLETE_DATE": {"date": 9, "day": 5, "hours": 0, "minutes": 0, "month": 3, "nanos": 0, "seconds": 0, "time": 1617897600000, "timezoneOffset": -480, "year": 121}, "XK_DATE": "2025-04-15", "QF_MANAGER_NAME": "广东省药品监督管理局", "BUSINESS_LICENSE_NUMBER": "91440101MA59NBD02M", "XC_DATE": "2021-04-09", "NUM_": 13}, {"ID": "324b5d64cb0149d5b8f4f4b6c49fa7e3", "EPS_NAME": "广州面具化妆品制造有限公司", "PRODUCT_SN": "粤妆20190273", "CITY_CODE": null, "XK_COMPLETE_DATE": {"date": 9, "day": 5, "hours": 0, "minutes": 0, "month": 3, "nanos": 0, "seconds": 0, "time": 1617897600000, "timezoneOffset": -480, "year": 121}, "XK_DATE": "2024-12-04", "QF_MANAGER_NAME": "广东省药品监督管理局", "BUSINESS_LICENSE_NUMBER": "91440101MA5CWR400P", "XC_DATE": "2021-04-09", "NUM_": 14}, {"ID": "3b9d6c1c5e2e4af6a007a4105c9d0a40", "EPS_NAME": "广州爱莉生物科技有限公司", "PRODUCT_SN": "粤妆20190270", "CITY_CODE": null, "XK_COMPLETE_DATE": {"date": 9, "day": 5, "hours": 0, "minutes": 0, "month": 3, "nanos": 0, "seconds": 0, "time": 1617897600000, "timezoneOffset": -480, "year": 121}, "XK_DATE": "2024-12-01", "QF_MANAGER_NAME": "广东省药品监督管理局", "BUSINESS_LICENSE_NUMBER": "91440101MA5CUJEA3R", "XC_DATE": "2021-04-09", "NUM_": 15}], "orderBy": "createDate", "orderType": "desc", "pageCount": 373, "pageNumber": 1, "pageSize": 15, "property": "", "totalCount": 5590}