{"filesize": "", "keyword": "", "list": [{"ID": "372e9307f1ea43479f6012591ddf693f", "EPS_NAME": "青蛙王子（福建）婴童护理用品有限公司", "PRODUCT_SN": "闽妆20180005", "CITY_CODE": "140", "XK_COMPLETE_DATE": {"date": 24, "day": 3, "hours": 0, "minutes": 0, "month": 2, "nanos": 0, "seconds": 0, "time": 1616515200000, "timezoneOffset": -480, "year": 121}, "XK_DATE": "2023-04-15", "QF_MANAGER_NAME": "福建省药品监督管理局", "BUSINESS_LICENSE_NUMBER": "91350603MA2YM6P4X2", "XC_DATE": "2021-03-24", "NUM_": 136}, {"ID": "e666537734d14bf5bd9040815c10dbc5", "EPS_NAME": "福建省梦娇兰日用化学品有限公司", "PRODUCT_SN": "闽妆20160005", "CITY_CODE": "140", "XK_COMPLETE_DATE": {"date": 24, "day": 3, "hours": 0, "minutes": 0, "month": 2, "nanos": 0, "seconds": 0, "time": 1616515200000, "timezoneOffset": -480, "year": 121}, "XK_DATE": "2021-08-17", "QF_MANAGER_NAME": "福建省药品监督管理局", "BUSINESS_LICENSE_NUMBER": "913506817356547697", "XC_DATE": "2021-03-24", "NUM_": 137}, {"ID": "6200c4063a7d4dc0b7710e9cc2cb004d", "EPS_NAME": "辽宁潍麟生物科技开发有限公司", "PRODUCT_SN": "辽妆20160001", "CITY_CODE": "289", "XK_COMPLETE_DATE": {"date": 24, "day": 3, "hours": 0, "minutes": 0, "month": 2, "nanos": 0, "seconds": 0, "time": 1616515200000, "timezoneOffset": -480, "year": 121}, "XK_DATE": "2026-03-23", "QF_MANAGER_NAME": "辽宁省药品监督管理局", "BUSINESS_LICENSE_NUMBER": "91210400587323692W", "XC_DATE": "2021-03-24", "NUM_": 138}, {"ID": "e37b7fc478ac4545a9bdc768164478ac", "EPS_NAME": "桂平华宝健康科技有限公司", "PRODUCT_SN": "桂妆20200003", "CITY_CODE": "515", "XK_COMPLETE_DATE": {"date": 24, "day": 3, "hours": 0, "minutes": 0, "month": 2, "nanos": 0, "seconds": 0, "time": 1616515200000, "timezoneOffset": -480, "year": 121}, "XK_DATE": "2025-05-14", "QF_MANAGER_NAME": "广西壮族自治区药品监督管理局", "BUSINESS_LICENSE_NUMBER": "91450881MA5MWLANXH", "XC_DATE": "2021-03-24", "NUM_": 139}, {"ID": "47994334ebb3448fba1b114be57b14d8", "EPS_NAME": "桂林华诺威生物技术有限公司", "PRODUCT_SN": "桂妆20180006", "CITY_CODE": "239", "XK_COMPLETE_DATE": {"date": 24, "day": 3, "hours": 0, "minutes": 0, "month": 2, "nanos": 0, "seconds": 0, "time": 1616515200000, "timezoneOffset": -480, "year": 121}, "XK_DATE": "2023-09-12", "QF_MANAGER_NAME": "广西壮族自治区食品药品监督管理局", "BUSINESS_LICENSE_NUMBER": "91450300MA5N0L6K66", "XC_DATE": "2021-03-24", "NUM_": 140}, {"ID": "43241fb7a4514698910626dbaae0340d", "EPS_NAME": "广东惠彩化妆品有限公司", "PRODUCT_SN": "粤妆20210086", "CITY_CODE": null, "XK_COMPLETE_DATE": {"date": 23, "day": 2, "hours": 0, "minutes": 0, "month": 2, "nanos": 0, "seconds": 0, "time": 1616428800000, "timezoneOffset": -480, "year": 121}, "XK_DATE": "2026-03-22", "QF_MANAGER_NAME": "广东省药品监督管理局", "BUSINESS_LICENSE_NUMBER": "91440607MA555EAT77", "XC_DATE": "2021-03-23", "NUM_": 141}, {"ID": "00336180f00e4113ae1a77386a8139d7", "EPS_NAME": "佛山菁亮日化用品有限公司", "PRODUCT_SN": "粤妆20210085", "CITY_CODE": null, "XK_COMPLETE_DATE": {"date": 23, "day": 2, "hours": 0, "minutes": 0, "month": 2, "nanos": 0, "seconds": 0, "time": 1616428800000, "timezoneOffset": -480, "year": 121}, "XK_DATE": "2026-03-22", "QF_MANAGER_NAME": "广东省药品监督管理局", "BUSINESS_LICENSE_NUMBER": "91440607MA52YF0A6U", "XC_DATE": "2021-03-23", "NUM_": 142}, {"ID": "0dac9e14b9c24f79addefc0ef4b9ac14", "EPS_NAME": "珠海市傲诗美化妆品有限公司", "PRODUCT_SN": "粤妆20200090", "CITY_CODE": null, "XK_COMPLETE_DATE": {"date": 23, "day": 2, "hours": 0, "minutes": 0, "month": 2, "nanos": 0, "seconds": 0, "time": 1616428800000, "timezoneOffset": -480, "year": 121}, "XK_DATE": "2025-06-11", "QF_MANAGER_NAME": "广东省药品监督管理局", "BUSINESS_LICENSE_NUMBER": "91440400MA4WN6CE6J", "XC_DATE": "2021-03-23", "NUM_": 143}, {"ID": "4e99942dd2ca47ec99d0b77366c8fd24", "EPS_NAME": "鹤壁市家和日用化工厂", "PRODUCT_SN": "豫妆20160001", "CITY_CODE": "25", "XK_COMPLETE_DATE": {"date": 23, "day": 2, "hours": 0, "minutes": 0, "month": 2, "nanos": 0, "seconds": 0, "time": 1616428800000, "timezoneOffset": -480, "year": 121}, "XK_DATE": "2026-03-22", "QF_MANAGER_NAME": "河南省药品监督管理局", "BUSINESS_LICENSE_NUMBER": "91410622786233198c", "XC_DATE": "2021-03-23", "NUM_": 144}, {"ID": "46832fc5f0694f7794f4e2e00821b8b8", "EPS_NAME": "桂林长发小寨生物科技有限公司", "PRODUCT_SN": "桂妆20210001", "CITY_CODE": "239", "XK_COMPLETE_DATE": {"date": 23, "day": 2, "hours": 0, "minutes": 0, "month": 2, "nanos": 0, "seconds": 0, "time": 1616428800000, "timezoneOffset": -480, "year": 121}, "XK_DATE": "2026-03-22", "QF_MANAGER_NAME": "广西壮族自治区药品监督管理局", "BUSINESS_LICENSE_NUMBER": "91450328MA5N45934M", "XC_DATE": "2021-03-23", "NUM_": 145}, {"ID": "e0ffc33ad6e94f75bf9e0793d2a76eda", "EPS_NAME": "广州樱娜诗生物科技有限公司", "PRODUCT_SN": "粤妆20170266", "CITY_CODE": null, "XK_COMPLETE_DATE": {"date": 22, "day": 1, "hours": 0, "minutes": 0, "month": 2, "nanos": 0, "seconds": 0, "time": 1616342400000, "timezoneOffset": -480, "year": 121}, "XK_DATE": "2022-02-16", "QF_MANAGER_NAME": "广东省药品监督管理局", "BUSINESS_LICENSE_NUMBER": "91440101MA59GM597T", "XC_DATE": "2021-03-22", "NUM_": 146}, {"ID": "2a3a7a79e9b6495bb42b66a957ae2463", "EPS_NAME": "广州双拾意化妆品有限公司", "PRODUCT_SN": "粤妆20161324", "CITY_CODE": null, "XK_COMPLETE_DATE": {"date": 22, "day": 1, "hours": 0, "minutes": 0, "month": 2, "nanos": 0, "seconds": 0, "time": 1616342400000, "timezoneOffset": -480, "year": 121}, "XK_DATE": "2026-03-21", "QF_MANAGER_NAME": "广东省药品监督管理局", "BUSINESS_LICENSE_NUMBER": "91440111058948072B", "XC_DATE": "2021-03-22", "NUM_": 147}, {"ID": "c20e3048e9e54e10a5b727d0678a33f6", "EPS_NAME": "中山卡丝生物科技有限公司", "PRODUCT_SN": "粤妆20161001", "CITY_CODE": null, "XK_COMPLETE_DATE": {"date": 22, "day": 1, "hours": 0, "minutes": 0, "month": 2, "nanos": 0, "seconds": 0, "time": 1616342400000, "timezoneOffset": -480, "year": 121}, "XK_DATE": "2026-03-21", "QF_MANAGER_NAME": "广东省药品监督管理局", "BUSINESS_LICENSE_NUMBER": "91442000325125450Y", "XC_DATE": "2021-03-22", "NUM_": 148}, {"ID": "436b7259c5f74a67aaddf8babd5eccd8", "EPS_NAME": "广州艾儿化妆品有限公司", "PRODUCT_SN": "粤妆20160215", "CITY_CODE": null, "XK_COMPLETE_DATE": {"date": 22, "day": 1, "hours": 0, "minutes": 0, "month": 2, "nanos": 0, "seconds": 0, "time": 1616342400000, "timezoneOffset": -480, "year": 121}, "XK_DATE": "2026-03-21", "QF_MANAGER_NAME": "广东省药品监督管理局", "BUSINESS_LICENSE_NUMBER": "91440111708241256H", "XC_DATE": "2021-03-22", "NUM_": 149}, {"ID": "035d2293b035457e8749a1c97f8d2cb8", "EPS_NAME": "广东康婴宝生物科技有限公司", "PRODUCT_SN": "粤妆20160149", "CITY_CODE": null, "XK_COMPLETE_DATE": {"date": 22, "day": 1, "hours": 0, "minutes": 0, "month": 2, "nanos": 0, "seconds": 0, "time": 1616342400000, "timezoneOffset": -480, "year": 121}, "XK_DATE": "2026-03-17", "QF_MANAGER_NAME": "广东省药品监督管理局", "BUSINESS_LICENSE_NUMBER": "914405135813737289", "XC_DATE": "2021-03-22", "NUM_": 150}], "orderBy": "createDate", "orderType": "desc", "pageCount": 373, "pageNumber": 10, "pageSize": 15, "property": "", "totalCount": 5590}