{"filesize": "", "keyword": "", "list": [{"ID": "0ec5af35fb9642de8ced827710837cc0", "EPS_NAME": "广州科颜氏生物科技有限公司", "PRODUCT_SN": "粤妆20160102", "CITY_CODE": null, "XK_COMPLETE_DATE": {"date": 22, "day": 1, "hours": 0, "minutes": 0, "month": 2, "nanos": 0, "seconds": 0, "time": 1616342400000, "timezoneOffset": -480, "year": 121}, "XK_DATE": "2026-03-21", "QF_MANAGER_NAME": "广东省药品监督管理局", "BUSINESS_LICENSE_NUMBER": "91440101085969741P", "XC_DATE": "2021-03-22", "NUM_": 151}, {"ID": "dbcd2bb1f1d14399b84fb7c68d06abf7", "EPS_NAME": "广州丸美生物科技有限公司", "PRODUCT_SN": "粤妆20160004", "CITY_CODE": null, "XK_COMPLETE_DATE": {"date": 22, "day": 1, "hours": 0, "minutes": 0, "month": 2, "nanos": 0, "seconds": 0, "time": 1616342400000, "timezoneOffset": -480, "year": 121}, "XK_DATE": "2023-03-13", "QF_MANAGER_NAME": "广东省药品监督管理局", "BUSINESS_LICENSE_NUMBER": "914401016852033015", "XC_DATE": "2021-03-22", "NUM_": 152}, {"ID": "2df75de4bcf74778b7badacaf712b357", "EPS_NAME": "苏州安特化妆品股份有限公司", "PRODUCT_SN": "苏妆20160032", "CITY_CODE": "84", "XK_COMPLETE_DATE": {"date": 22, "day": 1, "hours": 0, "minutes": 0, "month": 2, "nanos": 0, "seconds": 0, "time": 1616342400000, "timezoneOffset": -480, "year": 121}, "XK_DATE": "2026-03-21", "QF_MANAGER_NAME": "江苏省药品监督管理局", "BUSINESS_LICENSE_NUMBER": "91320505596935287E", "XC_DATE": "2021-03-22", "NUM_": 153}, {"ID": "e8eace5ce0674a3691a2f10bc617f4b6", "EPS_NAME": "多特瑞（上海）精油有限公司", "PRODUCT_SN": "沪妆20190005", "CITY_CODE": null, "XK_COMPLETE_DATE": {"date": 22, "day": 1, "hours": 0, "minutes": 0, "month": 2, "nanos": 0, "seconds": 0, "time": 1616342400000, "timezoneOffset": -480, "year": 121}, "XK_DATE": "2024-06-10", "QF_MANAGER_NAME": "上海市药品监督管理局", "BUSINESS_LICENSE_NUMBER": "91310120MA1HNDQ86G", "XC_DATE": "2021-03-22", "NUM_": 154}, {"ID": "fa1bd1968d4d404489b92a5aa3d1a6ec", "EPS_NAME": "上海梦源化妆品有限公司", "PRODUCT_SN": "沪妆20160150", "CITY_CODE": null, "XK_COMPLETE_DATE": {"date": 22, "day": 1, "hours": 0, "minutes": 0, "month": 2, "nanos": 0, "seconds": 0, "time": 1616342400000, "timezoneOffset": -480, "year": 121}, "XK_DATE": "2021-12-13", "QF_MANAGER_NAME": "上海市药品监督管理局", "BUSINESS_LICENSE_NUMBER": "91310120789502744B", "XC_DATE": "2021-03-22", "NUM_": 155}, {"ID": "ee9db25c0fb94eb690a905174e516a28", "EPS_NAME": "韵斐诗化妆品（上海）有限公司", "PRODUCT_SN": "沪妆20160040", "CITY_CODE": null, "XK_COMPLETE_DATE": {"date": 22, "day": 1, "hours": 0, "minutes": 0, "month": 2, "nanos": 0, "seconds": 0, "time": 1616342400000, "timezoneOffset": -480, "year": 121}, "XK_DATE": "2021-10-30", "QF_MANAGER_NAME": "上海市药品监督管理局", "BUSINESS_LICENSE_NUMBER": "91310000672746569M", "XC_DATE": "2021-03-22", "NUM_": 156}, {"ID": "99b86a2a99c24d3bb292ae85070007d4", "EPS_NAME": "哈尔滨北星药业有限公司", "PRODUCT_SN": "黑妆20180001", "CITY_CODE": "266", "XK_COMPLETE_DATE": {"date": 22, "day": 1, "hours": 0, "minutes": 0, "month": 2, "nanos": 0, "seconds": 0, "time": 1616342400000, "timezoneOffset": -480, "year": 121}, "XK_DATE": "2023-03-05", "QF_MANAGER_NAME": "哈尔滨新区管理委员会行政审批局", "BUSINESS_LICENSE_NUMBER": "91230109MA1CAW3J6T", "XC_DATE": "2021-03-22", "NUM_": 157}, {"ID": "fe3d4230627e4edb99316443b35b663f", "EPS_NAME": "赣州哈克生物科技有限公司", "PRODUCT_SN": "赣妆20200011", "CITY_CODE": "100", "XK_COMPLETE_DATE": {"date": 22, "day": 1, "hours": 0, "minutes": 0, "month": 2, "nanos": 0, "seconds": 0, "time": 1616342400000, "timezoneOffset": -480, "year": 121}, "XK_DATE": "2025-06-18", "QF_MANAGER_NAME": "江西省药品监督管理局", "BUSINESS_LICENSE_NUMBER": "91360702MA37RP4F2D", "XC_DATE": "2021-03-22", "NUM_": 158}, {"ID": "98c4006cb4ae48a98661261b692c6c2d", "EPS_NAME": "深圳市璐琥实业发展有限公司", "PRODUCT_SN": "粤妆20200139", "CITY_CODE": null, "XK_COMPLETE_DATE": {"date": 19, "day": 5, "hours": 0, "minutes": 0, "month": 2, "nanos": 0, "seconds": 0, "time": 1616083200000, "timezoneOffset": -480, "year": 121}, "XK_DATE": "2025-08-02", "QF_MANAGER_NAME": "广东省药品监督管理局", "BUSINESS_LICENSE_NUMBER": "91440300MA5DQCMR3W", "XC_DATE": "2021-03-19", "NUM_": 159}, {"ID": "fb682009b64940bcb7293eb346631696", "EPS_NAME": "广东超妍御杰生物技术有限公司", "PRODUCT_SN": "粤妆20200128", "CITY_CODE": null, "XK_COMPLETE_DATE": {"date": 19, "day": 5, "hours": 0, "minutes": 0, "month": 2, "nanos": 0, "seconds": 0, "time": 1616083200000, "timezoneOffset": -480, "year": 121}, "XK_DATE": "2025-07-26", "QF_MANAGER_NAME": "广东省药品监督管理局", "BUSINESS_LICENSE_NUMBER": "91440605MA54FFMH1Y", "XC_DATE": "2021-03-19", "NUM_": 160}, {"ID": "c02d86b62a7d4caab2a02751f529ab3a", "EPS_NAME": "广州爱莉化妆品有限公司", "PRODUCT_SN": "粤妆20160269", "CITY_CODE": null, "XK_COMPLETE_DATE": {"date": 19, "day": 5, "hours": 0, "minutes": 0, "month": 2, "nanos": 0, "seconds": 0, "time": 1616083200000, "timezoneOffset": -480, "year": 121}, "XK_DATE": "2026-03-18", "QF_MANAGER_NAME": "广东省药品监督管理局", "BUSINESS_LICENSE_NUMBER": "91440111668146026M", "XC_DATE": "2021-03-19", "NUM_": 161}, {"ID": "f383ceb1f8ff48c9985fee4d88ce103b", "EPS_NAME": "仙妮蕾德（中国）有限公司", "PRODUCT_SN": "粤妆20160252", "CITY_CODE": null, "XK_COMPLETE_DATE": {"date": 19, "day": 5, "hours": 0, "minutes": 0, "month": 2, "nanos": 0, "seconds": 0, "time": 1616083200000, "timezoneOffset": -480, "year": 121}, "XK_DATE": "2026-03-18", "QF_MANAGER_NAME": "广东省药品监督管理局", "BUSINESS_LICENSE_NUMBER": "91440101618422272B", "XC_DATE": "2021-03-19", "NUM_": 162}, {"ID": "c28487b1133f4d2da3acd6b22478af64", "EPS_NAME": "深圳绵俪日用化工有限公司绵俪日用化工厂", "PRODUCT_SN": "粤妆20160209", "CITY_CODE": null, "XK_COMPLETE_DATE": {"date": 19, "day": 5, "hours": 0, "minutes": 0, "month": 2, "nanos": 0, "seconds": 0, "time": 1616083200000, "timezoneOffset": -480, "year": 121}, "XK_DATE": "2026-03-18", "QF_MANAGER_NAME": "广东省药品监督管理局", "BUSINESS_LICENSE_NUMBER": "91440300763469181P", "XC_DATE": "2021-03-19", "NUM_": 163}, {"ID": "7d72c011475f4e68907eab8acee199e0", "EPS_NAME": "扬州司麦尔日化有限公司", "PRODUCT_SN": "苏妆20160017", "CITY_CODE": "86", "XK_COMPLETE_DATE": {"date": 19, "day": 5, "hours": 0, "minutes": 0, "month": 2, "nanos": 0, "seconds": 0, "time": 1616083200000, "timezoneOffset": -480, "year": 121}, "XK_DATE": "2023-12-26", "QF_MANAGER_NAME": "江苏省药品监督管理局", "BUSINESS_LICENSE_NUMBER": "91321016141271859D", "XC_DATE": "2021-03-19", "NUM_": 164}, {"ID": "a3af559d8cfa43d98008651f452dbaf4", "EPS_NAME": "佛山市绿泥生物科技有限公司", "PRODUCT_SN": "粤妆20210080", "CITY_CODE": null, "XK_COMPLETE_DATE": {"date": 18, "day": 4, "hours": 0, "minutes": 0, "month": 2, "nanos": 0, "seconds": 0, "time": 1615996800000, "timezoneOffset": -480, "year": 121}, "XK_DATE": "2026-03-17", "QF_MANAGER_NAME": "广东省药品监督管理局", "BUSINESS_LICENSE_NUMBER": "91440605MA54T49Y47", "XC_DATE": "2021-03-18", "NUM_": 165}], "orderBy": "createDate", "orderType": "desc", "pageCount": 373, "pageNumber": 11, "pageSize": 15, "property": "", "totalCount": 5590}