{"filesize": "", "keyword": "", "list": [{"ID": "81b3d460c2a34636b06409d621456be1", "EPS_NAME": "诗桦诺（广东）生物科技有限公司", "PRODUCT_SN": "粤妆20210079", "CITY_CODE": null, "XK_COMPLETE_DATE": {"date": 18, "day": 4, "hours": 0, "minutes": 0, "month": 2, "nanos": 0, "seconds": 0, "time": 1615996800000, "timezoneOffset": -480, "year": 121}, "XK_DATE": "2026-03-17", "QF_MANAGER_NAME": "广东省药品监督管理局", "BUSINESS_LICENSE_NUMBER": "91445321MA53PBPF7W", "XC_DATE": "2021-03-18", "NUM_": 166}, {"ID": "716c0fe80e7f484e93ecf51a13aca503", "EPS_NAME": "惠州市蓝桥生物科技有限公司", "PRODUCT_SN": "粤妆20210078", "CITY_CODE": null, "XK_COMPLETE_DATE": {"date": 18, "day": 4, "hours": 0, "minutes": 0, "month": 2, "nanos": 0, "seconds": 0, "time": 1615996800000, "timezoneOffset": -480, "year": 121}, "XK_DATE": "2026-03-17", "QF_MANAGER_NAME": "广东省药品监督管理局", "BUSINESS_LICENSE_NUMBER": "91441302MA51WM044D", "XC_DATE": "2021-03-18", "NUM_": 167}, {"ID": "091cdb11f4734b5fbad59bcabdef8a41", "EPS_NAME": "广州茗莎生物科技有限公司", "PRODUCT_SN": "粤妆20210077", "CITY_CODE": null, "XK_COMPLETE_DATE": {"date": 18, "day": 4, "hours": 0, "minutes": 0, "month": 2, "nanos": 0, "seconds": 0, "time": 1615996800000, "timezoneOffset": -480, "year": 121}, "XK_DATE": "2026-03-17", "QF_MANAGER_NAME": "广东省药品监督管理局", "BUSINESS_LICENSE_NUMBER": "91440101MA9W1QY64P", "XC_DATE": "2021-03-18", "NUM_": 168}, {"ID": "3746b156ade244d39a816b897c0c429c", "EPS_NAME": "广州柏纵生物科技有限公司", "PRODUCT_SN": "粤妆20161332", "CITY_CODE": null, "XK_COMPLETE_DATE": {"date": 18, "day": 4, "hours": 0, "minutes": 0, "month": 2, "nanos": 0, "seconds": 0, "time": 1615996800000, "timezoneOffset": -480, "year": 121}, "XK_DATE": "2026-03-17", "QF_MANAGER_NAME": "广东省药品监督管理局", "BUSINESS_LICENSE_NUMBER": "91440116698652915T", "XC_DATE": "2021-03-18", "NUM_": 169}, {"ID": "72cf694b44a34627b27f6174332b69b1", "EPS_NAME": "广州市雪蕾化妆品有限公司", "PRODUCT_SN": "粤妆20161034", "CITY_CODE": null, "XK_COMPLETE_DATE": {"date": 18, "day": 4, "hours": 0, "minutes": 0, "month": 2, "nanos": 0, "seconds": 0, "time": 1615996800000, "timezoneOffset": -480, "year": 121}, "XK_DATE": "2026-03-04", "QF_MANAGER_NAME": "广东省药品监督管理局", "BUSINESS_LICENSE_NUMBER": "9144011172681955XK", "XC_DATE": "2021-03-18", "NUM_": 170}, {"ID": "aee61c39831f4fb9abce730dff77bd7b", "EPS_NAME": "广州君研生物科技有限公司", "PRODUCT_SN": "粤妆20160636", "CITY_CODE": null, "XK_COMPLETE_DATE": {"date": 18, "day": 4, "hours": 0, "minutes": 0, "month": 2, "nanos": 0, "seconds": 0, "time": 1615996800000, "timezoneOffset": -480, "year": 121}, "XK_DATE": "2026-03-17", "QF_MANAGER_NAME": "广东省药品监督管理局", "BUSINESS_LICENSE_NUMBER": "914401110686988551", "XC_DATE": "2021-03-18", "NUM_": 171}, {"ID": "09c8df158b1e4b139a1bd0ae999a3cc5", "EPS_NAME": "科丝美诗（广州）化妆品有限公司", "PRODUCT_SN": "粤妆20160490", "CITY_CODE": null, "XK_COMPLETE_DATE": {"date": 18, "day": 4, "hours": 0, "minutes": 0, "month": 2, "nanos": 0, "seconds": 0, "time": 1615996800000, "timezoneOffset": -480, "year": 121}, "XK_DATE": "2022-02-03", "QF_MANAGER_NAME": "广东省药品监督管理局", "BUSINESS_LICENSE_NUMBER": "9144010166182965XF", "XC_DATE": "2021-03-18", "NUM_": 172}, {"ID": "dc319c82a30041c4a3f6d85a7550f680", "EPS_NAME": "佛山市八达日用化工用品有限公司", "PRODUCT_SN": "粤妆20160297", "CITY_CODE": null, "XK_COMPLETE_DATE": {"date": 18, "day": 4, "hours": 0, "minutes": 0, "month": 2, "nanos": 0, "seconds": 0, "time": 1615996800000, "timezoneOffset": -480, "year": 121}, "XK_DATE": "2026-03-17", "QF_MANAGER_NAME": "广东省药品监督管理局", "BUSINESS_LICENSE_NUMBER": "91440604X176385374", "XC_DATE": "2021-03-18", "NUM_": 173}, {"ID": "d5d8f2844a2047e78e3d7ee21df41566", "EPS_NAME": "广州欧亚气雾剂与日化用品制造有限公司", "PRODUCT_SN": "粤妆20160236", "CITY_CODE": null, "XK_COMPLETE_DATE": {"date": 18, "day": 4, "hours": 0, "minutes": 0, "month": 2, "nanos": 0, "seconds": 0, "time": 1615996800000, "timezoneOffset": -480, "year": 121}, "XK_DATE": "2026-03-17", "QF_MANAGER_NAME": "广东省药品监督管理局", "BUSINESS_LICENSE_NUMBER": "914401017860812270", "XC_DATE": "2021-03-18", "NUM_": 174}, {"ID": "06cecc7ccd0b4ba9b0a2280ca64575f4", "EPS_NAME": "珠海市博海韵妍化妆品有限公司", "PRODUCT_SN": "粤妆20160118", "CITY_CODE": null, "XK_COMPLETE_DATE": {"date": 18, "day": 4, "hours": 0, "minutes": 0, "month": 2, "nanos": 0, "seconds": 0, "time": 1615996800000, "timezoneOffset": -480, "year": 121}, "XK_DATE": "2026-03-17", "QF_MANAGER_NAME": "广东省药品监督管理局", "BUSINESS_LICENSE_NUMBER": "91440400MA4UJRH4XK", "XC_DATE": "2021-03-18", "NUM_": 175}, {"ID": "681d9a7310d845d49ecafb0ef6c918f0", "EPS_NAME": "苏州市恒宇日化有限公司", "PRODUCT_SN": "苏妆20160012", "CITY_CODE": "84", "XK_COMPLETE_DATE": {"date": 18, "day": 4, "hours": 0, "minutes": 0, "month": 2, "nanos": 0, "seconds": 0, "time": 1615996800000, "timezoneOffset": -480, "year": 121}, "XK_DATE": "2026-03-17", "QF_MANAGER_NAME": "江苏省药品监督管理局", "BUSINESS_LICENSE_NUMBER": "91320509722204048T", "XC_DATE": "2021-03-18", "NUM_": 176}, {"ID": "444feca8ee3c4b309547f5fcf5fe2232", "EPS_NAME": "山西振东健康生物科技股份有限公司", "PRODUCT_SN": "晋妆20210001", "CITY_CODE": "109", "XK_COMPLETE_DATE": {"date": 18, "day": 4, "hours": 0, "minutes": 0, "month": 2, "nanos": 0, "seconds": 0, "time": 1615996800000, "timezoneOffset": -480, "year": 121}, "XK_DATE": "2026-03-17", "QF_MANAGER_NAME": "山西省药品监督管理局", "BUSINESS_LICENSE_NUMBER": "91140400779588089X", "XC_DATE": "2021-03-18", "NUM_": 177}, {"ID": "acbcb2fc4f174ee0a28a1f09961b6c15", "EPS_NAME": "艾美力康（上海）生命科技有限公司", "PRODUCT_SN": "沪妆20160109", "CITY_CODE": null, "XK_COMPLETE_DATE": {"date": 18, "day": 4, "hours": 0, "minutes": 0, "month": 2, "nanos": 0, "seconds": 0, "time": 1615996800000, "timezoneOffset": -480, "year": 121}, "XK_DATE": "2021-11-29", "QF_MANAGER_NAME": "上海市药品监督管理局", "BUSINESS_LICENSE_NUMBER": "91310120596447697D", "XC_DATE": "2021-03-18", "NUM_": 178}, {"ID": "08a573fe63454ce2855df66ea41cf74a", "EPS_NAME": "美乐家（中国）日用品有限公司", "PRODUCT_SN": "沪妆20160085", "CITY_CODE": null, "XK_COMPLETE_DATE": {"date": 18, "day": 4, "hours": 0, "minutes": 0, "month": 2, "nanos": 0, "seconds": 0, "time": 1615996800000, "timezoneOffset": -480, "year": 121}, "XK_DATE": "2021-11-16", "QF_MANAGER_NAME": "上海市药品监督管理局", "BUSINESS_LICENSE_NUMBER": "913100007514586612", "XC_DATE": "2021-03-18", "NUM_": 179}, {"ID": "6bb507c70d02457ab5bfc588db268bf6", "EPS_NAME": "广西佳恒化妆品有限公司", "PRODUCT_SN": "桂妆20200005", "CITY_CODE": "241", "XK_COMPLETE_DATE": {"date": 18, "day": 4, "hours": 0, "minutes": 0, "month": 2, "nanos": 0, "seconds": 0, "time": 1615996800000, "timezoneOffset": -480, "year": 121}, "XK_DATE": "2025-06-16", "QF_MANAGER_NAME": "广西壮族自治区药品监督管理局", "BUSINESS_LICENSE_NUMBER": "91450900MA5NY7T9XX", "XC_DATE": "2021-03-18", "NUM_": 180}], "orderBy": "createDate", "orderType": "desc", "pageCount": 373, "pageNumber": 12, "pageSize": 15, "property": "", "totalCount": 5590}