{"filesize": "", "keyword": "", "list": [{"ID": "771365fb983f4ce9aab8de69d3f0b186", "EPS_NAME": "汕头市帕琪嫚生物科技有限公司", "PRODUCT_SN": "粤妆20210076", "CITY_CODE": null, "XK_COMPLETE_DATE": {"date": 17, "day": 3, "hours": 0, "minutes": 0, "month": 2, "nanos": 0, "seconds": 0, "time": 1615910400000, "timezoneOffset": -480, "year": 121}, "XK_DATE": "2026-03-16", "QF_MANAGER_NAME": "广东省药品监督管理局", "BUSINESS_LICENSE_NUMBER": "91440513MA55QCPA6J", "XC_DATE": "2021-03-17", "NUM_": 181}, {"ID": "6b41dcdc6b664e3bb079647b2178c6a0", "EPS_NAME": "广州市有趣生物医药研究院有限公司", "PRODUCT_SN": "粤妆20190292", "CITY_CODE": null, "XK_COMPLETE_DATE": {"date": 17, "day": 3, "hours": 0, "minutes": 0, "month": 2, "nanos": 0, "seconds": 0, "time": 1615910400000, "timezoneOffset": -480, "year": 121}, "XK_DATE": "2024-12-24", "QF_MANAGER_NAME": "广东省药品监督管理局", "BUSINESS_LICENSE_NUMBER": "91440101MA5CUQWW7K", "XC_DATE": "2021-03-17", "NUM_": 182}, {"ID": "6464a1fc709a4e6689e4a6ff056c56b2", "EPS_NAME": "粤美（广东）生物科技研究有限公司", "PRODUCT_SN": "粤妆20190276", "CITY_CODE": null, "XK_COMPLETE_DATE": {"date": 17, "day": 3, "hours": 0, "minutes": 0, "month": 2, "nanos": 0, "seconds": 0, "time": 1615910400000, "timezoneOffset": -480, "year": 121}, "XK_DATE": "2024-12-08", "QF_MANAGER_NAME": "广东省药品监督管理局", "BUSINESS_LICENSE_NUMBER": "91440101MA5CUG1X0U", "XC_DATE": "2021-03-17", "NUM_": 183}, {"ID": "e1a555de763f4f64834d917e4aa6ba9a", "EPS_NAME": "广东快女生物技术有限公司", "PRODUCT_SN": "粤妆20170306", "CITY_CODE": null, "XK_COMPLETE_DATE": {"date": 17, "day": 3, "hours": 0, "minutes": 0, "month": 2, "nanos": 0, "seconds": 0, "time": 1615910400000, "timezoneOffset": -480, "year": 121}, "XK_DATE": "2022-03-02", "QF_MANAGER_NAME": "广东省药品监督管理局", "BUSINESS_LICENSE_NUMBER": "914401013275857337", "XC_DATE": "2021-03-17", "NUM_": 184}, {"ID": "b9c8623c863c421ebe3d87383cf230cf", "EPS_NAME": "广州雷尔化妆品有限公司", "PRODUCT_SN": "粤妆20170305", "CITY_CODE": null, "XK_COMPLETE_DATE": {"date": 17, "day": 3, "hours": 0, "minutes": 0, "month": 2, "nanos": 0, "seconds": 0, "time": 1615910400000, "timezoneOffset": -480, "year": 121}, "XK_DATE": "2022-03-02", "QF_MANAGER_NAME": "广东省药品监督管理局", "BUSINESS_LICENSE_NUMBER": "91440111056560170R", "XC_DATE": "2021-03-17", "NUM_": 185}, {"ID": "425161d50731406e9b0f0ac06a904ea3", "EPS_NAME": "广州名妆化妆品制造有限公司", "PRODUCT_SN": "粤妆20160596", "CITY_CODE": null, "XK_COMPLETE_DATE": {"date": 17, "day": 3, "hours": 0, "minutes": 0, "month": 2, "nanos": 0, "seconds": 0, "time": 1615910400000, "timezoneOffset": -480, "year": 121}, "XK_DATE": "2023-09-20", "QF_MANAGER_NAME": "广东省药品监督管理局", "BUSINESS_LICENSE_NUMBER": "91440111321094394P", "XC_DATE": "2021-03-17", "NUM_": 186}, {"ID": "1c5752256ff34baf8fdd849f0e574d60", "EPS_NAME": "广州市姿蒂化妆品有限公司", "PRODUCT_SN": "粤妆20160484", "CITY_CODE": null, "XK_COMPLETE_DATE": {"date": 17, "day": 3, "hours": 0, "minutes": 0, "month": 2, "nanos": 0, "seconds": 0, "time": 1615910400000, "timezoneOffset": -480, "year": 121}, "XK_DATE": "2026-03-16", "QF_MANAGER_NAME": "广东省药品监督管理局", "BUSINESS_LICENSE_NUMBER": "914401117676955302", "XC_DATE": "2021-03-17", "NUM_": 187}, {"ID": "cdd03dc9fc6044918c830f1005cd2c60", "EPS_NAME": "广州市三崎美容美发用品有限公司", "PRODUCT_SN": "粤妆20160369", "CITY_CODE": null, "XK_COMPLETE_DATE": {"date": 17, "day": 3, "hours": 0, "minutes": 0, "month": 2, "nanos": 0, "seconds": 0, "time": 1615910400000, "timezoneOffset": -480, "year": 121}, "XK_DATE": "2026-03-16", "QF_MANAGER_NAME": "广东省药品监督管理局", "BUSINESS_LICENSE_NUMBER": "91440114741898671U", "XC_DATE": "2021-03-17", "NUM_": 188}, {"ID": "accc91feb0354910956c190a98e258e7", "EPS_NAME": "广州花出见生物科技有限公司", "PRODUCT_SN": "粤妆20160239", "CITY_CODE": null, "XK_COMPLETE_DATE": {"date": 17, "day": 3, "hours": 0, "minutes": 0, "month": 2, "nanos": 0, "seconds": 0, "time": 1615910400000, "timezoneOffset": -480, "year": 121}, "XK_DATE": "2026-03-16", "QF_MANAGER_NAME": "广东省药品监督管理局", "BUSINESS_LICENSE_NUMBER": "9144011166995392XW", "XC_DATE": "2021-03-17", "NUM_": 189}, {"ID": "28cd89a6481d43439780babd562e720f", "EPS_NAME": "广州微肽生物科技有限公司", "PRODUCT_SN": "粤妆20160036", "CITY_CODE": null, "XK_COMPLETE_DATE": {"date": 17, "day": 3, "hours": 0, "minutes": 0, "month": 2, "nanos": 0, "seconds": 0, "time": 1615910400000, "timezoneOffset": -480, "year": 121}, "XK_DATE": "2024-07-03", "QF_MANAGER_NAME": "广东省药品监督管理局", "BUSINESS_LICENSE_NUMBER": "91440111MA59AKEA48", "XC_DATE": "2021-03-17", "NUM_": 190}, {"ID": "6edce5edf711418ca6502867dd6d402f", "EPS_NAME": "科丝美诗（上海）化妆品有限公司", "PRODUCT_SN": "沪妆20160048", "CITY_CODE": null, "XK_COMPLETE_DATE": {"date": 17, "day": 3, "hours": 0, "minutes": 0, "month": 2, "nanos": 0, "seconds": 0, "time": 1615910400000, "timezoneOffset": -480, "year": 121}, "XK_DATE": "2021-11-01", "QF_MANAGER_NAME": "上海市药品监督管理局", "BUSINESS_LICENSE_NUMBER": "913101203326990148", "XC_DATE": "2021-03-17", "NUM_": 191}, {"ID": "001cd0559bda4aca858cfbc8bcaab5d6", "EPS_NAME": "江西展宏医疗器械有限公司", "PRODUCT_SN": "赣妆20210003", "CITY_CODE": "98", "XK_COMPLETE_DATE": {"date": 16, "day": 2, "hours": 0, "minutes": 0, "month": 2, "nanos": 0, "seconds": 0, "time": 1615824000000, "timezoneOffset": -480, "year": 121}, "XK_DATE": "2026-03-15", "QF_MANAGER_NAME": "江西省药品监督管理局", "BUSINESS_LICENSE_NUMBER": "91360982MA38Q5H542", "XC_DATE": "2021-03-16", "NUM_": 192}, {"ID": "f964540d084d4e5f8fe2bcfb400e3d2d", "EPS_NAME": "广东达成弘业生物科技有限公司", "PRODUCT_SN": "粤妆20210075", "CITY_CODE": null, "XK_COMPLETE_DATE": {"date": 15, "day": 1, "hours": 0, "minutes": 0, "month": 2, "nanos": 0, "seconds": 0, "time": 1615737600000, "timezoneOffset": -480, "year": 121}, "XK_DATE": "2026-03-14", "QF_MANAGER_NAME": "广东省药品监督管理局", "BUSINESS_LICENSE_NUMBER": "91440500661473294N", "XC_DATE": "2021-03-15", "NUM_": 193}, {"ID": "4aa286aff943445fbee29134af0a0cfe", "EPS_NAME": "珠海润泽生物科技有限公司", "PRODUCT_SN": "粤妆20200071", "CITY_CODE": null, "XK_COMPLETE_DATE": {"date": 15, "day": 1, "hours": 0, "minutes": 0, "month": 2, "nanos": 0, "seconds": 0, "time": 1615737600000, "timezoneOffset": -480, "year": 121}, "XK_DATE": "2025-05-06", "QF_MANAGER_NAME": "广东省药品监督管理局", "BUSINESS_LICENSE_NUMBER": "91440400MA4UYTXQ9J", "XC_DATE": "2021-03-15", "NUM_": 194}, {"ID": "6b75aa576b004d27a3fde4e86dc6dcc4", "EPS_NAME": "广东微研生物科技有限公司", "PRODUCT_SN": "粤妆20190296", "CITY_CODE": null, "XK_COMPLETE_DATE": {"date": 15, "day": 1, "hours": 0, "minutes": 0, "month": 2, "nanos": 0, "seconds": 0, "time": 1615737600000, "timezoneOffset": -480, "year": 121}, "XK_DATE": "2024-12-23", "QF_MANAGER_NAME": "广东省药品监督管理局", "BUSINESS_LICENSE_NUMBER": "91440606MA53LA8B1D", "XC_DATE": "2021-03-15", "NUM_": 195}], "orderBy": "createDate", "orderType": "desc", "pageCount": 373, "pageNumber": 13, "pageSize": 15, "property": "", "totalCount": 5590}