{"filesize": "", "keyword": "", "list": [{"ID": "b9da4c5135144b15942e8c4840deee5f", "EPS_NAME": "珠海世纪康美生物科技有限公司", "PRODUCT_SN": "粤妆20160120", "CITY_CODE": null, "XK_COMPLETE_DATE": {"date": 15, "day": 1, "hours": 0, "minutes": 0, "month": 2, "nanos": 0, "seconds": 0, "time": 1615737600000, "timezoneOffset": -480, "year": 121}, "XK_DATE": "2026-03-14", "QF_MANAGER_NAME": "广东省药品监督管理局", "BUSINESS_LICENSE_NUMBER": "91440400MA4UK2PG6C", "XC_DATE": "2021-03-15", "NUM_": 196}, {"ID": "0c28e0112717454589406ec71270a493", "EPS_NAME": "苏州华尔姿化妆品有限公司", "PRODUCT_SN": "苏妆20160047", "CITY_CODE": "84", "XK_COMPLETE_DATE": {"date": 15, "day": 1, "hours": 0, "minutes": 0, "month": 2, "nanos": 0, "seconds": 0, "time": 1615737600000, "timezoneOffset": -480, "year": 121}, "XK_DATE": "2021-07-10", "QF_MANAGER_NAME": "江苏省药品监督管理局", "BUSINESS_LICENSE_NUMBER": "91320509784370658J", "XC_DATE": "2021-03-15", "NUM_": 197}, {"ID": "0525eb0c1ca54eb2b1e9b89d5c7f8f3c", "EPS_NAME": "苏州博克企业集团有限公司", "PRODUCT_SN": "苏妆20160011", "CITY_CODE": "84", "XK_COMPLETE_DATE": {"date": 15, "day": 1, "hours": 0, "minutes": 0, "month": 2, "nanos": 0, "seconds": 0, "time": 1615737600000, "timezoneOffset": -480, "year": 121}, "XK_DATE": "2026-03-14", "QF_MANAGER_NAME": "江苏省药品监督管理局", "BUSINESS_LICENSE_NUMBER": "9132050678909121XB", "XC_DATE": "2021-03-15", "NUM_": 198}, {"ID": "a6ea743d15d546a099c941d10a88587a", "EPS_NAME": "上海美胭化妆品有限公司", "PRODUCT_SN": "沪妆20210003", "CITY_CODE": null, "XK_COMPLETE_DATE": {"date": 15, "day": 1, "hours": 0, "minutes": 0, "month": 2, "nanos": 0, "seconds": 0, "time": 1615737600000, "timezoneOffset": -480, "year": 121}, "XK_DATE": "2026-03-14", "QF_MANAGER_NAME": "上海市药品监督管理局", "BUSINESS_LICENSE_NUMBER": "913101140637565424", "XC_DATE": "2021-03-15", "NUM_": 199}, {"ID": "780514efc9cf43e5978c12f6c1f250a1", "EPS_NAME": "广东欧佩化妆品有限公司", "PRODUCT_SN": "粤妆20160201", "CITY_CODE": null, "XK_COMPLETE_DATE": {"date": 13, "day": 6, "hours": 0, "minutes": 0, "month": 2, "nanos": 0, "seconds": 0, "time": 1615564800000, "timezoneOffset": -480, "year": 121}, "XK_DATE": "2023-11-07", "QF_MANAGER_NAME": "广东省药品监督管理局", "BUSINESS_LICENSE_NUMBER": "91440111679747468M", "XC_DATE": "2021-03-13", "NUM_": 200}, {"ID": "19a04cb9716f4c71944edf4852170316", "EPS_NAME": "云南人羞花化妆品有限公司", "PRODUCT_SN": "云妆20160001", "CITY_CODE": "211", "XK_COMPLETE_DATE": {"date": 12, "day": 5, "hours": 0, "minutes": 0, "month": 2, "nanos": 0, "seconds": 0, "time": 1615478400000, "timezoneOffset": -480, "year": 121}, "XK_DATE": "2021-03-29", "QF_MANAGER_NAME": "云南省食品药品监督管理局", "BUSINESS_LICENSE_NUMBER": "915326002181734221", "XC_DATE": "2021-03-12", "NUM_": 201}, {"ID": "d037c729b55d402fb114b952c3e9f66c", "EPS_NAME": "广东娥佩兰生物科技有限公司", "PRODUCT_SN": "粤妆20210074", "CITY_CODE": null, "XK_COMPLETE_DATE": {"date": 12, "day": 5, "hours": 0, "minutes": 0, "month": 2, "nanos": 0, "seconds": 0, "time": 1615478400000, "timezoneOffset": -480, "year": 121}, "XK_DATE": "2026-03-11", "QF_MANAGER_NAME": "广东省药品监督管理局", "BUSINESS_LICENSE_NUMBER": "91440605MA55CC0928", "XC_DATE": "2021-03-12", "NUM_": 202}, {"ID": "d0128eb79a024b9b8c47ace47066ba96", "EPS_NAME": "广东欧美奇生物科技有限公司", "PRODUCT_SN": "粤妆20210073", "CITY_CODE": null, "XK_COMPLETE_DATE": {"date": 12, "day": 5, "hours": 0, "minutes": 0, "month": 2, "nanos": 0, "seconds": 0, "time": 1615478400000, "timezoneOffset": -480, "year": 121}, "XK_DATE": "2026-03-11", "QF_MANAGER_NAME": "广东省药品监督管理局", "BUSINESS_LICENSE_NUMBER": "91440605MA55DXND42", "XC_DATE": "2021-03-12", "NUM_": 203}, {"ID": "d057db9b9980487fb441236ba42d94e6", "EPS_NAME": "广州美富健康科技有限公司", "PRODUCT_SN": "粤妆20210065", "CITY_CODE": null, "XK_COMPLETE_DATE": {"date": 12, "day": 5, "hours": 0, "minutes": 0, "month": 2, "nanos": 0, "seconds": 0, "time": 1615478400000, "timezoneOffset": -480, "year": 121}, "XK_DATE": "2026-03-01", "QF_MANAGER_NAME": "广东省药品监督管理局", "BUSINESS_LICENSE_NUMBER": "91440101MA9UWB4G1M", "XC_DATE": "2021-03-12", "NUM_": 204}, {"ID": "a5ff467ab1b648d590b30aa3cc8a2d56", "EPS_NAME": "广州天然国度生物科技有限公司", "PRODUCT_SN": "粤妆20200236", "CITY_CODE": null, "XK_COMPLETE_DATE": {"date": 12, "day": 5, "hours": 0, "minutes": 0, "month": 2, "nanos": 0, "seconds": 0, "time": 1615478400000, "timezoneOffset": -480, "year": 121}, "XK_DATE": "2025-11-29", "QF_MANAGER_NAME": "广东省药品监督管理局", "BUSINESS_LICENSE_NUMBER": "91440101MA9ULP4U43", "XC_DATE": "2021-03-12", "NUM_": 205}, {"ID": "0d8156b626a74323bde9123b0dec5907", "EPS_NAME": "广州市追梦生物科技有限公司", "PRODUCT_SN": "粤妆20190146", "CITY_CODE": null, "XK_COMPLETE_DATE": {"date": 12, "day": 5, "hours": 0, "minutes": 0, "month": 2, "nanos": 0, "seconds": 0, "time": 1615478400000, "timezoneOffset": -480, "year": 121}, "XK_DATE": "2024-08-01", "QF_MANAGER_NAME": "广东省药品监督管理局", "BUSINESS_LICENSE_NUMBER": "91440101MA5CNA3N7K", "XC_DATE": "2021-03-12", "NUM_": 206}, {"ID": "941b44bacf2a44a290fd102800f81298", "EPS_NAME": "广州协和生物医药科技有限公司", "PRODUCT_SN": "粤妆20190044", "CITY_CODE": null, "XK_COMPLETE_DATE": {"date": 12, "day": 5, "hours": 0, "minutes": 0, "month": 2, "nanos": 0, "seconds": 0, "time": 1615478400000, "timezoneOffset": -480, "year": 121}, "XK_DATE": "2024-02-29", "QF_MANAGER_NAME": "广东省药品监督管理局", "BUSINESS_LICENSE_NUMBER": "91440111320963957H", "XC_DATE": "2021-03-12", "NUM_": 207}, {"ID": "5a16f68999f64c04943be5ef5f702bba", "EPS_NAME": "广州多美生物科技有限公司", "PRODUCT_SN": "粤妆20180067", "CITY_CODE": null, "XK_COMPLETE_DATE": {"date": 12, "day": 5, "hours": 0, "minutes": 0, "month": 2, "nanos": 0, "seconds": 0, "time": 1615478400000, "timezoneOffset": -480, "year": 121}, "XK_DATE": "2023-06-21", "QF_MANAGER_NAME": "广东省药品监督管理局", "BUSINESS_LICENSE_NUMBER": "91440101MA59N1EJ75", "XC_DATE": "2021-03-12", "NUM_": 208}, {"ID": "189fd33bc53b4290b6b834ab389ab544", "EPS_NAME": "广州家安化妆品有限公司", "PRODUCT_SN": "粤妆20170610", "CITY_CODE": null, "XK_COMPLETE_DATE": {"date": 12, "day": 5, "hours": 0, "minutes": 0, "month": 2, "nanos": 0, "seconds": 0, "time": 1615478400000, "timezoneOffset": -480, "year": 121}, "XK_DATE": "2022-12-21", "QF_MANAGER_NAME": "广东省药品监督管理局", "BUSINESS_LICENSE_NUMBER": "91440111552370640M", "XC_DATE": "2021-03-12", "NUM_": 209}, {"ID": "6cf37c0e049d4863b03584849f796be9", "EPS_NAME": "广州栋方生物科技股份有限公司", "PRODUCT_SN": "粤妆20160133", "CITY_CODE": null, "XK_COMPLETE_DATE": {"date": 12, "day": 5, "hours": 0, "minutes": 0, "month": 2, "nanos": 0, "seconds": 0, "time": 1615478400000, "timezoneOffset": -480, "year": 121}, "XK_DATE": "2026-03-11", "QF_MANAGER_NAME": "广东省药品监督管理局", "BUSINESS_LICENSE_NUMBER": "914401017534666495", "XC_DATE": "2021-03-12", "NUM_": 210}], "orderBy": "createDate", "orderType": "desc", "pageCount": 373, "pageNumber": 14, "pageSize": 15, "property": "", "totalCount": 5590}