{"filesize": "", "keyword": "", "list": [{"ID": "9314e62c7a22421fa2a03e0c20ed5870", "EPS_NAME": "佛山市安安美容保健品有限公司", "PRODUCT_SN": "粤妆20160020", "CITY_CODE": null, "XK_COMPLETE_DATE": {"date": 12, "day": 5, "hours": 0, "minutes": 0, "month": 2, "nanos": 0, "seconds": 0, "time": 1615478400000, "timezoneOffset": -480, "year": 121}, "XK_DATE": "2026-03-11", "QF_MANAGER_NAME": "广东省药品监督管理局", "BUSINESS_LICENSE_NUMBER": "91440604757870411J", "XC_DATE": "2021-03-12", "NUM_": 211}, {"ID": "7da3f19daa3243eab4b2c53f11b1bb4c", "EPS_NAME": "江苏创健医疗科技有限公司", "PRODUCT_SN": "苏妆20210004", "CITY_CODE": "91", "XK_COMPLETE_DATE": {"date": 12, "day": 5, "hours": 0, "minutes": 0, "month": 2, "nanos": 0, "seconds": 0, "time": 1615478400000, "timezoneOffset": -480, "year": 121}, "XK_DATE": "2026-01-13", "QF_MANAGER_NAME": "江苏省药品监督管理局", "BUSINESS_LICENSE_NUMBER": "91320412346102928F", "XC_DATE": "2021-03-12", "NUM_": 212}, {"ID": "2a13504ce49c411696942c5b2f247a42", "EPS_NAME": "威海安然纳米科技有限责任公司", "PRODUCT_SN": "鲁妆20160056", "CITY_CODE": null, "XK_COMPLETE_DATE": {"date": 12, "day": 5, "hours": 0, "minutes": 0, "month": 2, "nanos": 0, "seconds": 0, "time": 1615478400000, "timezoneOffset": -480, "year": 121}, "XK_DATE": "2021-11-13", "QF_MANAGER_NAME": "山东省药品监督管理局", "BUSINESS_LICENSE_NUMBER": "91371000062952138P", "XC_DATE": "2021-03-12", "NUM_": 213}, {"ID": "9ba5f227db7f4f5ca2c69128b022d2d6", "EPS_NAME": "沈阳美研化妆品有限公司", "PRODUCT_SN": "辽妆20210002", "CITY_CODE": "285", "XK_COMPLETE_DATE": {"date": 12, "day": 5, "hours": 0, "minutes": 0, "month": 2, "nanos": 0, "seconds": 0, "time": 1615478400000, "timezoneOffset": -480, "year": 121}, "XK_DATE": "2026-03-12", "QF_MANAGER_NAME": "辽宁省食品药品监督管理局", "BUSINESS_LICENSE_NUMBER": "91210113MA0YX5U7XL", "XC_DATE": "2021-03-12", "NUM_": 214}, {"ID": "1ebf64b58aa344d2a7809f4dad5a7e9d", "EPS_NAME": "山西纳安生物科技股份有限公司", "PRODUCT_SN": "晋妆20180001", "CITY_CODE": "105", "XK_COMPLETE_DATE": {"date": 12, "day": 5, "hours": 0, "minutes": 0, "month": 2, "nanos": 0, "seconds": 0, "time": 1615478400000, "timezoneOffset": -480, "year": 121}, "XK_DATE": "2023-04-12", "QF_MANAGER_NAME": "山西省药品监督管理局", "BUSINESS_LICENSE_NUMBER": "91140100MA0GU04784", "XC_DATE": "2021-03-12", "NUM_": 215}, {"ID": "d8d91017211c48488650d99ebaea5fa9", "EPS_NAME": "广州靖云生物科技有限公司", "PRODUCT_SN": "粤妆20190018", "CITY_CODE": null, "XK_COMPLETE_DATE": {"date": 11, "day": 4, "hours": 0, "minutes": 0, "month": 2, "nanos": 0, "seconds": 0, "time": 1615392000000, "timezoneOffset": -480, "year": 121}, "XK_DATE": "2024-01-22", "QF_MANAGER_NAME": "广东省药品监督管理局", "BUSINESS_LICENSE_NUMBER": "91440101MA59TAN30D", "XC_DATE": "2021-03-11", "NUM_": 216}, {"ID": "cf7b8ebd09784849970b934e1b2d0155", "EPS_NAME": "广州敏盈化妆品有限公司", "PRODUCT_SN": "粤妆20161334", "CITY_CODE": null, "XK_COMPLETE_DATE": {"date": 11, "day": 4, "hours": 0, "minutes": 0, "month": 2, "nanos": 0, "seconds": 0, "time": 1615392000000, "timezoneOffset": -480, "year": 121}, "XK_DATE": "2026-01-24", "QF_MANAGER_NAME": "广东省药品监督管理局", "BUSINESS_LICENSE_NUMBER": "914401130803696915", "XC_DATE": "2021-03-11", "NUM_": 217}, {"ID": "ff6898a95ddd4b84b2040d398694c0e6", "EPS_NAME": "珠海国佳新材股份有限公司", "PRODUCT_SN": "粤妆20160960", "CITY_CODE": null, "XK_COMPLETE_DATE": {"date": 11, "day": 4, "hours": 0, "minutes": 0, "month": 2, "nanos": 0, "seconds": 0, "time": 1615392000000, "timezoneOffset": -480, "year": 121}, "XK_DATE": "2021-10-27", "QF_MANAGER_NAME": "广东省药品监督管理局", "BUSINESS_LICENSE_NUMBER": "914404007578752392", "XC_DATE": "2021-03-11", "NUM_": 218}, {"ID": "f74de48b58d842bfba7265df93b28cf5", "EPS_NAME": "广州明辉化妆品有限公司", "PRODUCT_SN": "粤妆20160122", "CITY_CODE": null, "XK_COMPLETE_DATE": {"date": 11, "day": 4, "hours": 0, "minutes": 0, "month": 2, "nanos": 0, "seconds": 0, "time": 1615392000000, "timezoneOffset": -480, "year": 121}, "XK_DATE": "2026-03-10", "QF_MANAGER_NAME": "广东省药品监督管理局", "BUSINESS_LICENSE_NUMBER": "91440111088158354R", "XC_DATE": "2021-03-11", "NUM_": 219}, {"ID": "2c673eede7f9478d963c8dd5227db9b2", "EPS_NAME": "朋友化妆品（苏州）有限公司", "PRODUCT_SN": "苏妆20160134", "CITY_CODE": "84", "XK_COMPLETE_DATE": {"date": 11, "day": 4, "hours": 0, "minutes": 0, "month": 2, "nanos": 0, "seconds": 0, "time": 1615392000000, "timezoneOffset": -480, "year": 121}, "XK_DATE": "2021-11-14", "QF_MANAGER_NAME": "江苏省药品监督管理局", "BUSINESS_LICENSE_NUMBER": "91320505728014413W", "XC_DATE": "2021-03-11", "NUM_": 220}, {"ID": "0a8d81ba1ed84d9482a4aaf3083b9828", "EPS_NAME": "宁夏欣发宝养发有限公司", "PRODUCT_SN": "宁妆20170002", "CITY_CODE": "299", "XK_COMPLETE_DATE": {"date": 11, "day": 4, "hours": 0, "minutes": 0, "month": 2, "nanos": 0, "seconds": 0, "time": 1615392000000, "timezoneOffset": -480, "year": 121}, "XK_DATE": "2022-06-15", "QF_MANAGER_NAME": "宁夏回族自治区药品监督管理局", "BUSINESS_LICENSE_NUMBER": "9164010079993150X7", "XC_DATE": "2021-03-11", "NUM_": 221}, {"ID": "d5046c860bbb4e5198fa0dd99382b262", "EPS_NAME": "天津盛世永业科技发展有限公司", "PRODUCT_SN": "津妆20160001", "CITY_CODE": "419", "XK_COMPLETE_DATE": {"date": 11, "day": 4, "hours": 0, "minutes": 0, "month": 2, "nanos": 0, "seconds": 0, "time": 1615392000000, "timezoneOffset": -480, "year": 121}, "XK_DATE": "2026-03-11", "QF_MANAGER_NAME": "天津市药品监督管理局", "BUSINESS_LICENSE_NUMBER": "91120223668831162E", "XC_DATE": "2021-03-11", "NUM_": 222}, {"ID": "3710944273de4f24a8aa904484f3e94e", "EPS_NAME": "广州姬泉生物科技有限公司", "PRODUCT_SN": "粤妆20210072", "CITY_CODE": null, "XK_COMPLETE_DATE": {"date": 9, "day": 2, "hours": 0, "minutes": 0, "month": 2, "nanos": 0, "seconds": 0, "time": 1615219200000, "timezoneOffset": -480, "year": 121}, "XK_DATE": "2026-03-08", "QF_MANAGER_NAME": "广东省药品监督管理局", "BUSINESS_LICENSE_NUMBER": "91440101MA9UWTPN14", "XC_DATE": "2021-03-09", "NUM_": 223}, {"ID": "87a49c2b935541f888a7b83b03101f81", "EPS_NAME": "广州依美康生物科技有限公司", "PRODUCT_SN": "粤妆20210071", "CITY_CODE": null, "XK_COMPLETE_DATE": {"date": 9, "day": 2, "hours": 0, "minutes": 0, "month": 2, "nanos": 0, "seconds": 0, "time": 1615219200000, "timezoneOffset": -480, "year": 121}, "XK_DATE": "2026-03-08", "QF_MANAGER_NAME": "广东省药品监督管理局", "BUSINESS_LICENSE_NUMBER": "91440101MA9UTKPM24", "XC_DATE": "2021-03-09", "NUM_": 224}, {"ID": "df643e1a6dea43248cd91c4c8dda42d7", "EPS_NAME": "科本元田（广州）化妆品制造有限公司", "PRODUCT_SN": "粤妆20210070", "CITY_CODE": null, "XK_COMPLETE_DATE": {"date": 9, "day": 2, "hours": 0, "minutes": 0, "month": 2, "nanos": 0, "seconds": 0, "time": 1615219200000, "timezoneOffset": -480, "year": 121}, "XK_DATE": "2026-03-08", "QF_MANAGER_NAME": "广东省药品监督管理局", "BUSINESS_LICENSE_NUMBER": "91440101MA9UWDWY2X", "XC_DATE": "2021-03-09", "NUM_": 225}], "orderBy": "createDate", "orderType": "desc", "pageCount": 373, "pageNumber": 15, "pageSize": 15, "property": "", "totalCount": 5590}