{"filesize": "", "keyword": "", "list": [{"ID": "8bc468fcdb83488681c616d2f7c59149", "EPS_NAME": "广东艾琪生物科技有限公司", "PRODUCT_SN": "粤妆20200032", "CITY_CODE": null, "XK_COMPLETE_DATE": {"date": 9, "day": 2, "hours": 0, "minutes": 0, "month": 2, "nanos": 0, "seconds": 0, "time": 1615219200000, "timezoneOffset": -480, "year": 121}, "XK_DATE": "2025-01-20", "QF_MANAGER_NAME": "广东省药品监督管理局", "BUSINESS_LICENSE_NUMBER": "91441881MA526HHR6C", "XC_DATE": "2021-03-09", "NUM_": 226}, {"ID": "5e45595403cc4509a266666a8a513c46", "EPS_NAME": "惠州市喜象环保科技有限公司", "PRODUCT_SN": "粤妆20190062", "CITY_CODE": null, "XK_COMPLETE_DATE": {"date": 9, "day": 2, "hours": 0, "minutes": 0, "month": 2, "nanos": 0, "seconds": 0, "time": 1615219200000, "timezoneOffset": -480, "year": 121}, "XK_DATE": "2024-03-26", "QF_MANAGER_NAME": "广东省药品监督管理局", "BUSINESS_LICENSE_NUMBER": "91441323MA4UJTT33X", "XC_DATE": "2021-03-09", "NUM_": 227}, {"ID": "935074b0da4a4e23884ebd4364efce92", "EPS_NAME": "广东省安信药业有限公司", "PRODUCT_SN": "粤妆20161425", "CITY_CODE": null, "XK_COMPLETE_DATE": {"date": 9, "day": 2, "hours": 0, "minutes": 0, "month": 2, "nanos": 0, "seconds": 0, "time": 1615219200000, "timezoneOffset": -480, "year": 121}, "XK_DATE": "2023-05-31", "QF_MANAGER_NAME": "广东省药品监督管理局", "BUSINESS_LICENSE_NUMBER": "91440606052405018K", "XC_DATE": "2021-03-09", "NUM_": 228}, {"ID": "302cf961ae9b4af5b8c1a3f56ba75b3e", "EPS_NAME": "广州芭妍化妆品有限公司", "PRODUCT_SN": "粤妆20160089", "CITY_CODE": null, "XK_COMPLETE_DATE": {"date": 9, "day": 2, "hours": 0, "minutes": 0, "month": 2, "nanos": 0, "seconds": 0, "time": 1615219200000, "timezoneOffset": -480, "year": 121}, "XK_DATE": "2026-03-08", "QF_MANAGER_NAME": "广东省药品监督管理局", "BUSINESS_LICENSE_NUMBER": "914401117082540817", "XC_DATE": "2021-03-09", "NUM_": 229}, {"ID": "d4fb0d6ec82e47c28d381476e16aa1ae", "EPS_NAME": "广州市雅蝶化妆品制造有限公司", "PRODUCT_SN": "粤妆20160069", "CITY_CODE": null, "XK_COMPLETE_DATE": {"date": 9, "day": 2, "hours": 0, "minutes": 0, "month": 2, "nanos": 0, "seconds": 0, "time": 1615219200000, "timezoneOffset": -480, "year": 121}, "XK_DATE": "2026-03-08", "QF_MANAGER_NAME": "广东省药品监督管理局", "BUSINESS_LICENSE_NUMBER": "91440111755581325F", "XC_DATE": "2021-03-09", "NUM_": 230}, {"ID": "ddb10b5f59de4a3589b376fc20ad1cbf", "EPS_NAME": "霸王（广州）有限公司", "PRODUCT_SN": "粤妆20160039", "CITY_CODE": null, "XK_COMPLETE_DATE": {"date": 9, "day": 2, "hours": 0, "minutes": 0, "month": 2, "nanos": 0, "seconds": 0, "time": 1615219200000, "timezoneOffset": -480, "year": 121}, "XK_DATE": "2026-03-08", "QF_MANAGER_NAME": "广东省药品监督管理局", "BUSINESS_LICENSE_NUMBER": "91440115771198203N", "XC_DATE": "2021-03-09", "NUM_": 231}, {"ID": "951007465e01468cafc43da536d9c9a3", "EPS_NAME": "广州卡迪莲化妆品科技有限公司", "PRODUCT_SN": "粤妆20160009", "CITY_CODE": null, "XK_COMPLETE_DATE": {"date": 9, "day": 2, "hours": 0, "minutes": 0, "month": 2, "nanos": 0, "seconds": 0, "time": 1615219200000, "timezoneOffset": -480, "year": 121}, "XK_DATE": "2026-03-08", "QF_MANAGER_NAME": "广东省药品监督管理局", "BUSINESS_LICENSE_NUMBER": "9144011177565574XY", "XC_DATE": "2021-03-09", "NUM_": 232}, {"ID": "246c9e4e2ad64e3f9518908e97a826f7", "EPS_NAME": "领先（中国）生物科技有限公司", "PRODUCT_SN": "闽妆20170030", "CITY_CODE": "140", "XK_COMPLETE_DATE": {"date": 9, "day": 2, "hours": 0, "minutes": 0, "month": 2, "nanos": 0, "seconds": 0, "time": 1615219200000, "timezoneOffset": -480, "year": 121}, "XK_DATE": "2022-07-30", "QF_MANAGER_NAME": "福建省药品监督管理局", "BUSINESS_LICENSE_NUMBER": "91350625MA34531C6K", "XC_DATE": "2021-03-09", "NUM_": 233}, {"ID": "76ec5f5a9048457986029282d0f99551", "EPS_NAME": "天津济康药业有限公司", "PRODUCT_SN": "津妆20210005", "CITY_CODE": "412", "XK_COMPLETE_DATE": {"date": 9, "day": 2, "hours": 0, "minutes": 0, "month": 2, "nanos": 0, "seconds": 0, "time": 1615219200000, "timezoneOffset": -480, "year": 121}, "XK_DATE": "2026-02-05", "QF_MANAGER_NAME": "天津市药品监督管理局", "BUSINESS_LICENSE_NUMBER": "91120111MA072D0K35", "XC_DATE": "2021-03-09", "NUM_": 234}, {"ID": "6aab6520cc164b9c9a86d3b5a371152e", "EPS_NAME": "天津市芦荟屋生物技术有限公司", "PRODUCT_SN": "津妆20160012", "CITY_CODE": "406", "XK_COMPLETE_DATE": {"date": 9, "day": 2, "hours": 0, "minutes": 0, "month": 2, "nanos": 0, "seconds": 0, "time": 1615219200000, "timezoneOffset": -480, "year": 121}, "XK_DATE": "2021-09-28", "QF_MANAGER_NAME": "天津市药品监督管理局", "BUSINESS_LICENSE_NUMBER": "9112010278635829XG", "XC_DATE": "2021-03-09", "NUM_": 235}, {"ID": "36d4a0f8cc1b48cca148eb24d488b85c", "EPS_NAME": "上海创始医疗科技（集团）有限公司", "PRODUCT_SN": "沪妆20200004", "CITY_CODE": null, "XK_COMPLETE_DATE": {"date": 9, "day": 2, "hours": 0, "minutes": 0, "month": 2, "nanos": 0, "seconds": 0, "time": 1615219200000, "timezoneOffset": -480, "year": 121}, "XK_DATE": "2025-05-10", "QF_MANAGER_NAME": "上海市药品监督管理局", "BUSINESS_LICENSE_NUMBER": "91310000607498706F", "XC_DATE": "2021-03-09", "NUM_": 236}, {"ID": "d084f6f785504f03991038798e773305", "EPS_NAME": "上海兰美仪化妆品有限公司", "PRODUCT_SN": "沪妆20160146", "CITY_CODE": null, "XK_COMPLETE_DATE": {"date": 9, "day": 2, "hours": 0, "minutes": 0, "month": 2, "nanos": 0, "seconds": 0, "time": 1615219200000, "timezoneOffset": -480, "year": 121}, "XK_DATE": "2021-12-13", "QF_MANAGER_NAME": "上海市药品监督管理局", "BUSINESS_LICENSE_NUMBER": "91310117569579627G", "XC_DATE": "2021-03-09", "NUM_": 237}, {"ID": "e8d9c8e820f64c9b8b4c913bafdffecc", "EPS_NAME": "无锡市永宁日用化学品厂", "PRODUCT_SN": "苏妆20160241", "CITY_CODE": "82", "XK_COMPLETE_DATE": {"date": 8, "day": 1, "hours": 0, "minutes": 0, "month": 2, "nanos": 0, "seconds": 0, "time": 1615132800000, "timezoneOffset": -480, "year": 121}, "XK_DATE": "2021-12-28", "QF_MANAGER_NAME": "江苏省药品监督管理局", "BUSINESS_LICENSE_NUMBER": "91320206755880747X", "XC_DATE": "2021-03-08", "NUM_": 238}, {"ID": "f546d7d0b7a34944814291e2c0808500", "EPS_NAME": "汕头市半亩花田化妆品有限公司", "PRODUCT_SN": "粤妆20210069", "CITY_CODE": null, "XK_COMPLETE_DATE": {"date": 5, "day": 5, "hours": 0, "minutes": 0, "month": 2, "nanos": 0, "seconds": 0, "time": 1614873600000, "timezoneOffset": -480, "year": 121}, "XK_DATE": "2026-03-04", "QF_MANAGER_NAME": "广东省药品监督管理局", "BUSINESS_LICENSE_NUMBER": "91440514MA54XGQW0P", "XC_DATE": "2021-03-05", "NUM_": 239}, {"ID": "aa42d5a6f10349b98f2fea44867a792c", "EPS_NAME": "汕头市铭汇生物科技有限公司", "PRODUCT_SN": "粤妆20210068", "CITY_CODE": null, "XK_COMPLETE_DATE": {"date": 5, "day": 5, "hours": 0, "minutes": 0, "month": 2, "nanos": 0, "seconds": 0, "time": 1614873600000, "timezoneOffset": -480, "year": 121}, "XK_DATE": "2026-03-04", "QF_MANAGER_NAME": "广东省药品监督管理局", "BUSINESS_LICENSE_NUMBER": "91440513MA55QXXA49", "XC_DATE": "2021-03-05", "NUM_": 240}], "orderBy": "createDate", "orderType": "desc", "pageCount": 373, "pageNumber": 16, "pageSize": 15, "property": "", "totalCount": 5590}