{"filesize": "", "keyword": "", "list": [{"ID": "7b11ca443c804922815a9410e1fc6c3a", "EPS_NAME": "广州市奥迪丝化妆品有限公司", "PRODUCT_SN": "粤妆20161774", "CITY_CODE": null, "XK_COMPLETE_DATE": {"date": 5, "day": 5, "hours": 0, "minutes": 0, "month": 2, "nanos": 0, "seconds": 0, "time": 1614873600000, "timezoneOffset": -480, "year": 121}, "XK_DATE": "2021-12-28", "QF_MANAGER_NAME": "广东省药品监督管理局", "BUSINESS_LICENSE_NUMBER": "91440114562289336R", "XC_DATE": "2021-03-05", "NUM_": 241}, {"ID": "47cad475ffb6445da68a8eb83d89fd5f", "EPS_NAME": "广州市卓多姿化妆品有限公司", "PRODUCT_SN": "粤妆20160500", "CITY_CODE": null, "XK_COMPLETE_DATE": {"date": 5, "day": 5, "hours": 0, "minutes": 0, "month": 2, "nanos": 0, "seconds": 0, "time": 1614873600000, "timezoneOffset": -480, "year": 121}, "XK_DATE": "2026-03-04", "QF_MANAGER_NAME": "广东省药品监督管理局", "BUSINESS_LICENSE_NUMBER": "91440114773340592G", "XC_DATE": "2021-03-05", "NUM_": 242}, {"ID": "165b8a8d86314d5096ebe4e97ca0dd31", "EPS_NAME": "广州科玛生物科技股份有限公司", "PRODUCT_SN": "粤妆20160212", "CITY_CODE": null, "XK_COMPLETE_DATE": {"date": 5, "day": 5, "hours": 0, "minutes": 0, "month": 2, "nanos": 0, "seconds": 0, "time": 1614873600000, "timezoneOffset": -480, "year": 121}, "XK_DATE": "2026-03-04", "QF_MANAGER_NAME": "广东省药品监督管理局", "BUSINESS_LICENSE_NUMBER": "9144010156791599XC", "XC_DATE": "2021-03-05", "NUM_": 243}, {"ID": "93c81ebc86474769b873d5e222143d57", "EPS_NAME": "广州雅芳制造有限公司", "PRODUCT_SN": "粤妆20160127", "CITY_CODE": null, "XK_COMPLETE_DATE": {"date": 5, "day": 5, "hours": 0, "minutes": 0, "month": 2, "nanos": 0, "seconds": 0, "time": 1614873600000, "timezoneOffset": -480, "year": 121}, "XK_DATE": "2026-03-04", "QF_MANAGER_NAME": "广东省药品监督管理局", "BUSINESS_LICENSE_NUMBER": "91440101618440892G", "XC_DATE": "2021-03-05", "NUM_": 244}, {"ID": "58cd232cddb640eeb6d52b6da4a3f711", "EPS_NAME": "诺斯贝尔化妆品股份有限公司", "PRODUCT_SN": "粤妆20160081", "CITY_CODE": null, "XK_COMPLETE_DATE": {"date": 5, "day": 5, "hours": 0, "minutes": 0, "month": 2, "nanos": 0, "seconds": 0, "time": 1614873600000, "timezoneOffset": -480, "year": 121}, "XK_DATE": "2026-03-04", "QF_MANAGER_NAME": "广东省药品监督管理局", "BUSINESS_LICENSE_NUMBER": "91442000758332180E", "XC_DATE": "2021-03-05", "NUM_": 245}, {"ID": "a60f0bec538c4c8586d7ec255403cf97", "EPS_NAME": "广州诚予化妆品有限公司", "PRODUCT_SN": "粤妆20160055", "CITY_CODE": null, "XK_COMPLETE_DATE": {"date": 5, "day": 5, "hours": 0, "minutes": 0, "month": 2, "nanos": 0, "seconds": 0, "time": 1614873600000, "timezoneOffset": -480, "year": 121}, "XK_DATE": "2024-07-11", "QF_MANAGER_NAME": "广东省药品监督管理局", "BUSINESS_LICENSE_NUMBER": "914401110589185190", "XC_DATE": "2021-03-05", "NUM_": 246}, {"ID": "978557ed913a492c8e4a681bef073452", "EPS_NAME": "安徽创领化妆品科技有限公司", "PRODUCT_SN": "皖妆20180005", "CITY_CODE": "232", "XK_COMPLETE_DATE": {"date": 5, "day": 5, "hours": 0, "minutes": 0, "month": 2, "nanos": 0, "seconds": 0, "time": 1614873600000, "timezoneOffset": -480, "year": 121}, "XK_DATE": "2023-12-28", "QF_MANAGER_NAME": "安徽省药品监督管理局", "BUSINESS_LICENSE_NUMBER": "91341821MA2PTXGT0N", "XC_DATE": "2021-03-05", "NUM_": 247}, {"ID": "d638ec3c3db640b580b440bb002d256c", "EPS_NAME": "恩客斯（上海）化妆品有限公司", "PRODUCT_SN": "沪妆20190006", "CITY_CODE": null, "XK_COMPLETE_DATE": {"date": 5, "day": 5, "hours": 0, "minutes": 0, "month": 2, "nanos": 0, "seconds": 0, "time": 1614873600000, "timezoneOffset": -480, "year": 121}, "XK_DATE": "2024-07-15", "QF_MANAGER_NAME": "上海市药品监督管理局", "BUSINESS_LICENSE_NUMBER": "91310000MA1HNHGP2Y", "XC_DATE": "2021-03-05", "NUM_": 248}, {"ID": "2502f35aceaa465dba10155c4c34863c", "EPS_NAME": "上海嘉亨日用化学品有限公司", "PRODUCT_SN": "沪妆20160046", "CITY_CODE": null, "XK_COMPLETE_DATE": {"date": 5, "day": 5, "hours": 0, "minutes": 0, "month": 2, "nanos": 0, "seconds": 0, "time": 1614873600000, "timezoneOffset": -480, "year": 121}, "XK_DATE": "2021-11-01", "QF_MANAGER_NAME": "上海市药品监督管理局", "BUSINESS_LICENSE_NUMBER": "91310117664338696M", "XC_DATE": "2021-03-05", "NUM_": 249}, {"ID": "ca832f5a08864be389f75690318a5d47", "EPS_NAME": "汕头市唯尚化妆品有限公司", "PRODUCT_SN": "粤妆20210067", "CITY_CODE": null, "XK_COMPLETE_DATE": {"date": 4, "day": 4, "hours": 0, "minutes": 0, "month": 2, "nanos": 0, "seconds": 0, "time": 1614787200000, "timezoneOffset": -480, "year": 121}, "XK_DATE": "2026-03-03", "QF_MANAGER_NAME": "广东省药品监督管理局", "BUSINESS_LICENSE_NUMBER": "91440514MA55T9B97Q", "XC_DATE": "2021-03-04", "NUM_": 250}, {"ID": "b0d311b5836243fa863c75b589e4f8ab", "EPS_NAME": "高露洁棕榄（中国）有限公司", "PRODUCT_SN": "粤妆20160141", "CITY_CODE": null, "XK_COMPLETE_DATE": {"date": 4, "day": 4, "hours": 0, "minutes": 0, "month": 2, "nanos": 0, "seconds": 0, "time": 1614787200000, "timezoneOffset": -480, "year": 121}, "XK_DATE": "2026-03-03", "QF_MANAGER_NAME": "广东省药品监督管理局", "BUSINESS_LICENSE_NUMBER": "9144011661844173X7", "XC_DATE": "2021-03-04", "NUM_": 251}, {"ID": "dffd5f3ee8d24b4799d496fd0db4d78f", "EPS_NAME": "广东松泰兴化妆品有限公司", "PRODUCT_SN": "粤妆20160107", "CITY_CODE": null, "XK_COMPLETE_DATE": {"date": 4, "day": 4, "hours": 0, "minutes": 0, "month": 2, "nanos": 0, "seconds": 0, "time": 1614787200000, "timezoneOffset": -480, "year": 121}, "XK_DATE": "2026-03-03", "QF_MANAGER_NAME": "广东省药品监督管理局", "BUSINESS_LICENSE_NUMBER": "91440514617576843W", "XC_DATE": "2021-03-04", "NUM_": 252}, {"ID": "7a805feb124c4b0aa9c8e46550632eb4", "EPS_NAME": "江苏景奥科技发展有限公司", "PRODUCT_SN": "苏妆20190019", "CITY_CODE": "89", "XK_COMPLETE_DATE": {"date": 4, "day": 4, "hours": 0, "minutes": 0, "month": 2, "nanos": 0, "seconds": 0, "time": 1614787200000, "timezoneOffset": -480, "year": 121}, "XK_DATE": "2024-06-23", "QF_MANAGER_NAME": "江苏省药品监督管理局", "BUSINESS_LICENSE_NUMBER": "91320891MA1WK3FA23", "XC_DATE": "2021-03-04", "NUM_": 253}, {"ID": "2b06a7da84b54f5890d4183144f6caaf", "EPS_NAME": "淮安市嘉恒化妆品有限公司", "PRODUCT_SN": "苏妆20160139", "CITY_CODE": "89", "XK_COMPLETE_DATE": {"date": 4, "day": 4, "hours": 0, "minutes": 0, "month": 2, "nanos": 0, "seconds": 0, "time": 1614787200000, "timezoneOffset": -480, "year": 121}, "XK_DATE": "2021-11-30", "QF_MANAGER_NAME": "江苏省药品监督管理局", "BUSINESS_LICENSE_NUMBER": "91320804689604110J", "XC_DATE": "2021-03-04", "NUM_": 254}, {"ID": "a6674298a4ac474ba76a7bccbe0ebad5", "EPS_NAME": "淮安纵横生物科技有限公司淮阴分公司", "PRODUCT_SN": "苏妆20160095", "CITY_CODE": "89", "XK_COMPLETE_DATE": {"date": 4, "day": 4, "hours": 0, "minutes": 0, "month": 2, "nanos": 0, "seconds": 0, "time": 1614787200000, "timezoneOffset": -480, "year": 121}, "XK_DATE": "2022-04-14", "QF_MANAGER_NAME": "江苏省药品监督管理局", "BUSINESS_LICENSE_NUMBER": "91320804762415042U", "XC_DATE": "2021-03-04", "NUM_": 255}], "orderBy": "createDate", "orderType": "desc", "pageCount": 373, "pageNumber": 17, "pageSize": 15, "property": "", "totalCount": 5590}