{"filesize": "", "keyword": "", "list": [{"ID": "c415ff9bdac14d0990edb5ceda1ecfbd", "EPS_NAME": "珠海成美科技有限公司", "PRODUCT_SN": "粤妆20210066", "CITY_CODE": null, "XK_COMPLETE_DATE": {"date": 3, "day": 3, "hours": 0, "minutes": 0, "month": 2, "nanos": 0, "seconds": 0, "time": 1614700800000, "timezoneOffset": -480, "year": 121}, "XK_DATE": "2026-03-02", "QF_MANAGER_NAME": "广东省药品监督管理局", "BUSINESS_LICENSE_NUMBER": "91440400MA4WUMTD8A", "XC_DATE": "2021-03-03", "NUM_": 256}, {"ID": "ec5af3e91a4d4745ab3d5066659f011b", "EPS_NAME": "广东艾慕生物科技有限公司", "PRODUCT_SN": "粤妆20210038", "CITY_CODE": null, "XK_COMPLETE_DATE": {"date": 3, "day": 3, "hours": 0, "minutes": 0, "month": 2, "nanos": 0, "seconds": 0, "time": 1614700800000, "timezoneOffset": -480, "year": 121}, "XK_DATE": "2026-02-02", "QF_MANAGER_NAME": "广东省药品监督管理局", "BUSINESS_LICENSE_NUMBER": "91440607MA549HYA3X", "XC_DATE": "2021-03-03", "NUM_": 257}, {"ID": "2fae0ef4396f4a108fe2208caac0e64b", "EPS_NAME": "广东圣雪颜生物科技有限公司", "PRODUCT_SN": "粤妆20200232", "CITY_CODE": null, "XK_COMPLETE_DATE": {"date": 3, "day": 3, "hours": 0, "minutes": 0, "month": 2, "nanos": 0, "seconds": 0, "time": 1614700800000, "timezoneOffset": -480, "year": 121}, "XK_DATE": "2025-11-22", "QF_MANAGER_NAME": "广东省药品监督管理局", "BUSINESS_LICENSE_NUMBER": "91440607MA53J6YD1E", "XC_DATE": "2021-03-03", "NUM_": 258}, {"ID": "7daabf7144af46efa07e5fa1aa2f9918", "EPS_NAME": "广东微肽生物科技有限公司", "PRODUCT_SN": "粤妆20190293", "CITY_CODE": null, "XK_COMPLETE_DATE": {"date": 3, "day": 3, "hours": 0, "minutes": 0, "month": 2, "nanos": 0, "seconds": 0, "time": 1614700800000, "timezoneOffset": -480, "year": 121}, "XK_DATE": "2024-12-26", "QF_MANAGER_NAME": "广东省药品监督管理局", "BUSINESS_LICENSE_NUMBER": "91440605MA53EH1G99", "XC_DATE": "2021-03-03", "NUM_": 259}, {"ID": "aeebf9a95ff746c1a763f1e5e1623c68", "EPS_NAME": "汕头市雅露化妆品有限公司", "PRODUCT_SN": "粤妆20160565", "CITY_CODE": null, "XK_COMPLETE_DATE": {"date": 3, "day": 3, "hours": 0, "minutes": 0, "month": 2, "nanos": 0, "seconds": 0, "time": 1614700800000, "timezoneOffset": -480, "year": 121}, "XK_DATE": "2026-03-02", "QF_MANAGER_NAME": "广东省药品监督管理局", "BUSINESS_LICENSE_NUMBER": "91440514MA4ULB6E9A", "XC_DATE": "2021-03-03", "NUM_": 260}, {"ID": "b01c25f0dea14feeaba8394a193924bb", "EPS_NAME": "广东同德药业有限公司", "PRODUCT_SN": "粤妆20160348", "CITY_CODE": null, "XK_COMPLETE_DATE": {"date": 3, "day": 3, "hours": 0, "minutes": 0, "month": 2, "nanos": 0, "seconds": 0, "time": 1614700800000, "timezoneOffset": -480, "year": 121}, "XK_DATE": "2022-06-15", "QF_MANAGER_NAME": "广东省药品监督管理局", "BUSINESS_LICENSE_NUMBER": "91440800754510808M", "XC_DATE": "2021-03-03", "NUM_": 261}, {"ID": "57520e9518f84e3bbbfd7a65d5ee48f2", "EPS_NAME": "江苏蒂姬尔生物材料有限公司", "PRODUCT_SN": "苏妆20170013", "CITY_CODE": "92", "XK_COMPLETE_DATE": {"date": 3, "day": 3, "hours": 0, "minutes": 0, "month": 2, "nanos": 0, "seconds": 0, "time": 1614700800000, "timezoneOffset": -480, "year": 121}, "XK_DATE": "2022-06-01", "QF_MANAGER_NAME": "江苏省药品监督管理局", "BUSINESS_LICENSE_NUMBER": "91321291346484487R", "XC_DATE": "2021-03-03", "NUM_": 262}, {"ID": "a6e70ba772744611b8bd71f70b03362e", "EPS_NAME": "山东一美生物科技有限公司", "PRODUCT_SN": "鲁妆20210006", "CITY_CODE": null, "XK_COMPLETE_DATE": {"date": 3, "day": 3, "hours": 0, "minutes": 0, "month": 2, "nanos": 0, "seconds": 0, "time": 1614700800000, "timezoneOffset": -480, "year": 121}, "XK_DATE": "2026-03-02", "QF_MANAGER_NAME": "山东省药品监督管理局", "BUSINESS_LICENSE_NUMBER": "91370322MA3T51M84J", "XC_DATE": "2021-03-03", "NUM_": 263}, {"ID": "9c7ae156f59141bbaf69949473596048", "EPS_NAME": "泰尔美（杭州）生物科技有限公司", "PRODUCT_SN": "浙妆20170018", "CITY_CODE": null, "XK_COMPLETE_DATE": {"date": 2, "day": 2, "hours": 0, "minutes": 0, "month": 2, "nanos": 0, "seconds": 0, "time": 1614614400000, "timezoneOffset": -480, "year": 121}, "XK_DATE": "2022-04-04", "QF_MANAGER_NAME": "浙江省药品监督管理局", "BUSINESS_LICENSE_NUMBER": "91330110747151202X", "XC_DATE": "2021-03-02", "NUM_": 264}, {"ID": "74805ece3e5f433f932c5dfef243c189", "EPS_NAME": "海瀚健康产业（广州）有限公司", "PRODUCT_SN": "粤妆20210063", "CITY_CODE": null, "XK_COMPLETE_DATE": {"date": 2, "day": 2, "hours": 0, "minutes": 0, "month": 2, "nanos": 0, "seconds": 0, "time": 1614614400000, "timezoneOffset": -480, "year": 121}, "XK_DATE": "2026-03-01", "QF_MANAGER_NAME": "广东省药品监督管理局", "BUSINESS_LICENSE_NUMBER": "91440101MA5D1B8Y20", "XC_DATE": "2021-03-02", "NUM_": 265}, {"ID": "8e211f606254410682c7d6887a9dfab0", "EPS_NAME": "广东奥宝斯化妆品有限公司", "PRODUCT_SN": "粤妆20200134", "CITY_CODE": null, "XK_COMPLETE_DATE": {"date": 2, "day": 2, "hours": 0, "minutes": 0, "month": 2, "nanos": 0, "seconds": 0, "time": 1614614400000, "timezoneOffset": -480, "year": 121}, "XK_DATE": "2025-07-28", "QF_MANAGER_NAME": "广东省药品监督管理局", "BUSINESS_LICENSE_NUMBER": "91441881MA53R8Y20G", "XC_DATE": "2021-03-02", "NUM_": 266}, {"ID": "b78a85931683423db9533dd324eb6cf4", "EPS_NAME": "广州市众德生物科技有限公司", "PRODUCT_SN": "粤妆20190055", "CITY_CODE": null, "XK_COMPLETE_DATE": {"date": 2, "day": 2, "hours": 0, "minutes": 0, "month": 2, "nanos": 0, "seconds": 0, "time": 1614614400000, "timezoneOffset": -480, "year": 121}, "XK_DATE": "2024-03-12", "QF_MANAGER_NAME": "广东省药品监督管理局", "BUSINESS_LICENSE_NUMBER": "91440101MA5CKGJ51Q", "XC_DATE": "2021-03-02", "NUM_": 267}, {"ID": "27c4277cd86a4e3abb3e9a2333093bf4", "EPS_NAME": "广州芮姿生物科技有限公司", "PRODUCT_SN": "粤妆20160801", "CITY_CODE": null, "XK_COMPLETE_DATE": {"date": 2, "day": 2, "hours": 0, "minutes": 0, "month": 2, "nanos": 0, "seconds": 0, "time": 1614614400000, "timezoneOffset": -480, "year": 121}, "XK_DATE": "2026-03-01", "QF_MANAGER_NAME": "广东省药品监督管理局", "BUSINESS_LICENSE_NUMBER": "91440111MA59D6FW99", "XC_DATE": "2021-03-02", "NUM_": 268}, {"ID": "f9aab6e0bcf74cbf9ecd712f3dad47be", "EPS_NAME": "中山佳丽日用化妆品有限公司", "PRODUCT_SN": "粤妆20160298", "CITY_CODE": null, "XK_COMPLETE_DATE": {"date": 2, "day": 2, "hours": 0, "minutes": 0, "month": 2, "nanos": 0, "seconds": 0, "time": 1614614400000, "timezoneOffset": -480, "year": 121}, "XK_DATE": "2026-03-01", "QF_MANAGER_NAME": "广东省药品监督管理局", "BUSINESS_LICENSE_NUMBER": "914420007265078552", "XC_DATE": "2021-03-02", "NUM_": 269}, {"ID": "b5d94ec855e44be7ad58aaaad243c6ed", "EPS_NAME": "广州无添加主义化妆品有限公司", "PRODUCT_SN": "粤妆20160021", "CITY_CODE": null, "XK_COMPLETE_DATE": {"date": 2, "day": 2, "hours": 0, "minutes": 0, "month": 2, "nanos": 0, "seconds": 0, "time": 1614614400000, "timezoneOffset": -480, "year": 121}, "XK_DATE": "2026-03-01", "QF_MANAGER_NAME": "广东省药品监督管理局", "BUSINESS_LICENSE_NUMBER": "91440106MA59B6JJ73", "XC_DATE": "2021-03-02", "NUM_": 270}], "orderBy": "createDate", "orderType": "desc", "pageCount": 373, "pageNumber": 18, "pageSize": 15, "property": "", "totalCount": 5590}