{"filesize": "", "keyword": "", "list": [{"ID": "2dc5c168921044fa8fe69a381e766f51", "EPS_NAME": "广东欣堤采生物科技有限公司", "PRODUCT_SN": "粤妆20210064", "CITY_CODE": null, "XK_COMPLETE_DATE": {"date": 1, "day": 1, "hours": 0, "minutes": 0, "month": 2, "nanos": 0, "seconds": 0, "time": 1614528000000, "timezoneOffset": -480, "year": 121}, "XK_DATE": "2026-02-28", "QF_MANAGER_NAME": "广东省药品监督管理局", "BUSINESS_LICENSE_NUMBER": "91440101MA9W0U9B1A", "XC_DATE": "2021-03-01", "NUM_": 271}, {"ID": "6ff9b86054d0458c9a2543f6cab8782c", "EPS_NAME": "名臣健康用品股份有限公司", "PRODUCT_SN": "粤妆20160148", "CITY_CODE": null, "XK_COMPLETE_DATE": {"date": 1, "day": 1, "hours": 0, "minutes": 0, "month": 2, "nanos": 0, "seconds": 0, "time": 1614528000000, "timezoneOffset": -480, "year": 121}, "XK_DATE": "2026-02-28", "QF_MANAGER_NAME": "广东省药品监督管理局", "BUSINESS_LICENSE_NUMBER": "91440500193161133K", "XC_DATE": "2021-03-01", "NUM_": 272}, {"ID": "4364c2e426744a3eb29931b7aeaa5676", "EPS_NAME": "广州立白企业集团有限公司", "PRODUCT_SN": "粤妆20160031", "CITY_CODE": null, "XK_COMPLETE_DATE": {"date": 1, "day": 1, "hours": 0, "minutes": 0, "month": 2, "nanos": 0, "seconds": 0, "time": 1614528000000, "timezoneOffset": -480, "year": 121}, "XK_DATE": "2026-02-28", "QF_MANAGER_NAME": "广东省药品监督管理局", "BUSINESS_LICENSE_NUMBER": "914401017082696461", "XC_DATE": "2021-03-01", "NUM_": 273}, {"ID": "95ce6608b46a4ef993ffd7bf8b68a06d", "EPS_NAME": "南京汉瑞生物科技有限公司", "PRODUCT_SN": "苏妆20160121", "CITY_CODE": "81", "XK_COMPLETE_DATE": {"date": 1, "day": 1, "hours": 0, "minutes": 0, "month": 2, "nanos": 0, "seconds": 0, "time": 1614528000000, "timezoneOffset": -480, "year": 121}, "XK_DATE": "2021-11-14", "QF_MANAGER_NAME": "江苏省药品监督管理局", "BUSINESS_LICENSE_NUMBER": "91320115MA1MF3Y643", "XC_DATE": "2021-03-01", "NUM_": 274}, {"ID": "86ebcc54b888461eaa3863439bc8051e", "EPS_NAME": "上海乐宝日化股份有限公司", "PRODUCT_SN": "沪妆20160173", "CITY_CODE": null, "XK_COMPLETE_DATE": {"date": 1, "day": 1, "hours": 0, "minutes": 0, "month": 2, "nanos": 0, "seconds": 0, "time": 1614528000000, "timezoneOffset": -480, "year": 121}, "XK_DATE": "2021-12-26", "QF_MANAGER_NAME": "上海市药品监督管理局", "BUSINESS_LICENSE_NUMBER": "91310000757583535G", "XC_DATE": "2021-03-01", "NUM_": 275}, {"ID": "1e7eca7eddc54f8cb56b1b8bbe177ca9", "EPS_NAME": "赣州澳丽尔化妆品有限公司", "PRODUCT_SN": "赣妆20170001", "CITY_CODE": "100", "XK_COMPLETE_DATE": {"date": 1, "day": 1, "hours": 0, "minutes": 0, "month": 2, "nanos": 0, "seconds": 0, "time": 1614528000000, "timezoneOffset": -480, "year": 121}, "XK_DATE": "2022-01-03", "QF_MANAGER_NAME": "江西省药品监督管理局", "BUSINESS_LICENSE_NUMBER": "91360721568680934Q", "XC_DATE": "2021-03-01", "NUM_": 276}, {"ID": "7d105d77d0f042caac8780376ca6aa5f", "EPS_NAME": "广州福森医药科技有限公司", "PRODUCT_SN": "粤妆20210051", "CITY_CODE": null, "XK_COMPLETE_DATE": {"date": 26, "day": 5, "hours": 0, "minutes": 0, "month": 1, "nanos": 0, "seconds": 0, "time": 1614268800000, "timezoneOffset": -480, "year": 121}, "XK_DATE": "2026-02-06", "QF_MANAGER_NAME": "广东省药品监督管理局", "BUSINESS_LICENSE_NUMBER": "91440101MA9UWGHFX9", "XC_DATE": "2021-02-26", "NUM_": 277}, {"ID": "2595b04cf1ee4563899e47ead398e4ae", "EPS_NAME": "广州萝薇化妆品有限公司", "PRODUCT_SN": "粤妆20180227", "CITY_CODE": null, "XK_COMPLETE_DATE": {"date": 26, "day": 5, "hours": 0, "minutes": 0, "month": 1, "nanos": 0, "seconds": 0, "time": 1614268800000, "timezoneOffset": -480, "year": 121}, "XK_DATE": "2026-02-25", "QF_MANAGER_NAME": "广东省药品监督管理局", "BUSINESS_LICENSE_NUMBER": "91440111304379945J", "XC_DATE": "2021-02-26", "NUM_": 278}, {"ID": "e9eae55a50c8431b8df007a8eb0324e0", "EPS_NAME": "广州秀妆生物科技有限公司", "PRODUCT_SN": "粤妆20170516", "CITY_CODE": null, "XK_COMPLETE_DATE": {"date": 26, "day": 5, "hours": 0, "minutes": 0, "month": 1, "nanos": 0, "seconds": 0, "time": 1614268800000, "timezoneOffset": -480, "year": 121}, "XK_DATE": "2022-09-18", "QF_MANAGER_NAME": "广东省药品监督管理局", "BUSINESS_LICENSE_NUMBER": "91440101MA59MYTE6U", "XC_DATE": "2021-02-26", "NUM_": 279}, {"ID": "9002157a12c043d3992939326752efd1", "EPS_NAME": "广州市高维化妆品有限公司", "PRODUCT_SN": "粤妆20170036", "CITY_CODE": null, "XK_COMPLETE_DATE": {"date": 26, "day": 5, "hours": 0, "minutes": 0, "month": 1, "nanos": 0, "seconds": 0, "time": 1614268800000, "timezoneOffset": -480, "year": 121}, "XK_DATE": "2022-01-05", "QF_MANAGER_NAME": "广东省药品监督管理局", "BUSINESS_LICENSE_NUMBER": "914401147397027480", "XC_DATE": "2021-02-26", "NUM_": 280}, {"ID": "bb23282c55d84a0a849b563f0b570165", "EPS_NAME": "广州市采奴化妆品有限公司", "PRODUCT_SN": "粤妆20160924", "CITY_CODE": null, "XK_COMPLETE_DATE": {"date": 26, "day": 5, "hours": 0, "minutes": 0, "month": 1, "nanos": 0, "seconds": 0, "time": 1614268800000, "timezoneOffset": -480, "year": 121}, "XK_DATE": "2021-10-16", "QF_MANAGER_NAME": "广东省药品监督管理局", "BUSINESS_LICENSE_NUMBER": "91440111737181088U", "XC_DATE": "2021-02-26", "NUM_": 281}, {"ID": "306a12233fad40d8880d1b7ac75e3d5b", "EPS_NAME": "广州市巧迪精细化工有限公司", "PRODUCT_SN": "粤妆20160591", "CITY_CODE": null, "XK_COMPLETE_DATE": {"date": 26, "day": 5, "hours": 0, "minutes": 0, "month": 1, "nanos": 0, "seconds": 0, "time": 1614268800000, "timezoneOffset": -480, "year": 121}, "XK_DATE": "2021-08-18", "QF_MANAGER_NAME": "广东省药品监督管理局", "BUSINESS_LICENSE_NUMBER": "91440111786058393B", "XC_DATE": "2021-02-26", "NUM_": 282}, {"ID": "c0403540d68546ddb8f6e380b5f3aef6", "EPS_NAME": "中山中研化妆品有限公司", "PRODUCT_SN": "粤妆20160510", "CITY_CODE": null, "XK_COMPLETE_DATE": {"date": 26, "day": 5, "hours": 0, "minutes": 0, "month": 1, "nanos": 0, "seconds": 0, "time": 1614268800000, "timezoneOffset": -480, "year": 121}, "XK_DATE": "2026-02-25", "QF_MANAGER_NAME": "广东省药品监督管理局", "BUSINESS_LICENSE_NUMBER": "91442000576488838F", "XC_DATE": "2021-02-26", "NUM_": 283}, {"ID": "9e48abb7896744b995b387915f8ed7dc", "EPS_NAME": "广州天新生物科技有限公司", "PRODUCT_SN": "粤妆20160270", "CITY_CODE": null, "XK_COMPLETE_DATE": {"date": 26, "day": 5, "hours": 0, "minutes": 0, "month": 1, "nanos": 0, "seconds": 0, "time": 1614268800000, "timezoneOffset": -480, "year": 121}, "XK_DATE": "2024-04-25", "QF_MANAGER_NAME": "广东省药品监督管理局", "BUSINESS_LICENSE_NUMBER": "91440111331503067Y", "XC_DATE": "2021-02-26", "NUM_": 284}, {"ID": "039eb4f8ecec4045b69cfe8a5ac12216", "EPS_NAME": "上海新高姿化妆品有限公司广州分公司", "PRODUCT_SN": "粤妆20160112", "CITY_CODE": null, "XK_COMPLETE_DATE": {"date": 26, "day": 5, "hours": 0, "minutes": 0, "month": 1, "nanos": 0, "seconds": 0, "time": 1614268800000, "timezoneOffset": -480, "year": 121}, "XK_DATE": "2026-02-25", "QF_MANAGER_NAME": "广东省药品监督管理局", "BUSINESS_LICENSE_NUMBER": "91440115556694060C", "XC_DATE": "2021-02-26", "NUM_": 285}], "orderBy": "createDate", "orderType": "desc", "pageCount": 373, "pageNumber": 19, "pageSize": 15, "property": "", "totalCount": 5590}