{"filesize": "", "keyword": "", "list": [{"ID": "51db0e4a8a6b4a84a659264fc55f5fd2", "EPS_NAME": "广州瑞妆国际生物科技有限公司", "PRODUCT_SN": "粤妆20190211", "CITY_CODE": null, "XK_COMPLETE_DATE": {"date": 9, "day": 5, "hours": 0, "minutes": 0, "month": 3, "nanos": 0, "seconds": 0, "time": 1617897600000, "timezoneOffset": -480, "year": 121}, "XK_DATE": "2024-09-26", "QF_MANAGER_NAME": "广东省药品监督管理局", "BUSINESS_LICENSE_NUMBER": "91440101MA5CQ4KK0R", "XC_DATE": "2021-04-09", "NUM_": 16}, {"ID": "d2d5d9babae04b11b685c0203c1f9185", "EPS_NAME": "帆艳华（广州）生物科技有限公司", "PRODUCT_SN": "粤妆20190185", "CITY_CODE": null, "XK_COMPLETE_DATE": {"date": 9, "day": 5, "hours": 0, "minutes": 0, "month": 3, "nanos": 0, "seconds": 0, "time": 1617897600000, "timezoneOffset": -480, "year": 121}, "XK_DATE": "2024-09-02", "QF_MANAGER_NAME": "广东省药品监督管理局", "BUSINESS_LICENSE_NUMBER": "91440101MA5CL56546", "XC_DATE": "2021-04-09", "NUM_": 17}, {"ID": "06a5b207dd804e85886b215c8bcdb7bb", "EPS_NAME": "广州美集生物科技有限公司", "PRODUCT_SN": "粤妆20190042", "CITY_CODE": null, "XK_COMPLETE_DATE": {"date": 9, "day": 5, "hours": 0, "minutes": 0, "month": 3, "nanos": 0, "seconds": 0, "time": 1617897600000, "timezoneOffset": -480, "year": 121}, "XK_DATE": "2024-02-29", "QF_MANAGER_NAME": "广东省药品监督管理局", "BUSINESS_LICENSE_NUMBER": "91440101MA59N35D68", "XC_DATE": "2021-04-09", "NUM_": 18}, {"ID": "19c6156e06ba44da951350a9f54bce80", "EPS_NAME": "广州苔丝化妆品有限公司", "PRODUCT_SN": "粤妆20170264", "CITY_CODE": null, "XK_COMPLETE_DATE": {"date": 9, "day": 5, "hours": 0, "minutes": 0, "month": 3, "nanos": 0, "seconds": 0, "time": 1617897600000, "timezoneOffset": -480, "year": 121}, "XK_DATE": "2022-02-16", "QF_MANAGER_NAME": "广东省药品监督管理局", "BUSINESS_LICENSE_NUMBER": "91440101681348095N", "XC_DATE": "2021-04-09", "NUM_": 19}, {"ID": "6eb1368db4df443f8d9c06d819728385", "EPS_NAME": "广州市妆典美容用品发展有限公司", "PRODUCT_SN": "粤妆20170238", "CITY_CODE": null, "XK_COMPLETE_DATE": {"date": 9, "day": 5, "hours": 0, "minutes": 0, "month": 3, "nanos": 0, "seconds": 0, "time": 1617897600000, "timezoneOffset": -480, "year": 121}, "XK_DATE": "2022-02-08", "QF_MANAGER_NAME": "广东省药品监督管理局", "BUSINESS_LICENSE_NUMBER": "91440111231244512R", "XC_DATE": "2021-04-09", "NUM_": 20}, {"ID": "4ee4c008d0284645ab72d64749640d4b", "EPS_NAME": "广州千瑶化妆品有限公司", "PRODUCT_SN": "粤妆20161203", "CITY_CODE": null, "XK_COMPLETE_DATE": {"date": 9, "day": 5, "hours": 0, "minutes": 0, "month": 3, "nanos": 0, "seconds": 0, "time": 1617897600000, "timezoneOffset": -480, "year": 121}, "XK_DATE": "2021-11-10", "QF_MANAGER_NAME": "广东省药品监督管理局", "BUSINESS_LICENSE_NUMBER": "91440111MA59CMPB9R", "XC_DATE": "2021-04-09", "NUM_": 21}, {"ID": "f76fc81d6e7b47f68aeb557e352ff709", "EPS_NAME": "广州御妆化妆品有限公司", "PRODUCT_SN": "粤妆20161052", "CITY_CODE": null, "XK_COMPLETE_DATE": {"date": 9, "day": 5, "hours": 0, "minutes": 0, "month": 3, "nanos": 0, "seconds": 0, "time": 1617897600000, "timezoneOffset": -480, "year": 121}, "XK_DATE": "2021-10-30", "QF_MANAGER_NAME": "广东省药品监督管理局", "BUSINESS_LICENSE_NUMBER": "91440111696941158Y", "XC_DATE": "2021-04-09", "NUM_": 22}, {"ID": "ac9e6e54b4504fcf8f0ba70a89766437", "EPS_NAME": "广州睿晞生化科技有限公司", "PRODUCT_SN": "粤妆20160627", "CITY_CODE": null, "XK_COMPLETE_DATE": {"date": 9, "day": 5, "hours": 0, "minutes": 0, "month": 3, "nanos": 0, "seconds": 0, "time": 1617897600000, "timezoneOffset": -480, "year": 121}, "XK_DATE": "2023-08-30", "QF_MANAGER_NAME": "广东省药品监督管理局", "BUSINESS_LICENSE_NUMBER": "91440101304633421M", "XC_DATE": "2021-04-09", "NUM_": 23}, {"ID": "6e53bce0d88f41a7a98034954404a5f7", "EPS_NAME": "斯美（广东）化妆品有限公司", "PRODUCT_SN": "粤妆20160574", "CITY_CODE": null, "XK_COMPLETE_DATE": {"date": 9, "day": 5, "hours": 0, "minutes": 0, "month": 3, "nanos": 0, "seconds": 0, "time": 1617897600000, "timezoneOffset": -480, "year": 121}, "XK_DATE": "2026-04-08", "QF_MANAGER_NAME": "广东省药品监督管理局", "BUSINESS_LICENSE_NUMBER": "91440700749189941E", "XC_DATE": "2021-04-09", "NUM_": 24}, {"ID": "66805c06e4d6401eb56ef0cc9d6f121c", "EPS_NAME": "广州东森医药科技有限公司", "PRODUCT_SN": "粤妆20160552", "CITY_CODE": null, "XK_COMPLETE_DATE": {"date": 9, "day": 5, "hours": 0, "minutes": 0, "month": 3, "nanos": 0, "seconds": 0, "time": 1617897600000, "timezoneOffset": -480, "year": 121}, "XK_DATE": "2026-04-08", "QF_MANAGER_NAME": "广东省药品监督管理局", "BUSINESS_LICENSE_NUMBER": "9144011168328788XE", "XC_DATE": "2021-04-09", "NUM_": 25}, {"ID": "8e7c07046ce044d5a87e9e1e91f022cd", "EPS_NAME": "深圳市玛雅化妆品有限公司", "PRODUCT_SN": "粤妆20160332", "CITY_CODE": null, "XK_COMPLETE_DATE": {"date": 9, "day": 5, "hours": 0, "minutes": 0, "month": 3, "nanos": 0, "seconds": 0, "time": 1617897600000, "timezoneOffset": -480, "year": 121}, "XK_DATE": "2026-04-08", "QF_MANAGER_NAME": "广东省药品监督管理局", "BUSINESS_LICENSE_NUMBER": "91440300076915776N", "XC_DATE": "2021-04-09", "NUM_": 26}, {"ID": "13ce63ef75c944bcac2a5e5706c209cd", "EPS_NAME": "昆山聚宝化妆礼品有限公司", "PRODUCT_SN": "苏妆20160064", "CITY_CODE": "84", "XK_COMPLETE_DATE": {"date": 9, "day": 5, "hours": 0, "minutes": 0, "month": 3, "nanos": 0, "seconds": 0, "time": 1617897600000, "timezoneOffset": -480, "year": 121}, "XK_DATE": "2021-08-04", "QF_MANAGER_NAME": "江苏省药品监督管理局", "BUSINESS_LICENSE_NUMBER": "9132058375967254X1", "XC_DATE": "2021-04-09", "NUM_": 27}, {"ID": "bfdbca255c5a4643993f6a89c17985a3", "EPS_NAME": "黑龙江乐泰药业有限公司", "PRODUCT_SN": "黑妆20210001", "CITY_CODE": "270", "XK_COMPLETE_DATE": {"date": 9, "day": 5, "hours": 0, "minutes": 0, "month": 3, "nanos": 0, "seconds": 0, "time": 1617897600000, "timezoneOffset": -480, "year": 121}, "XK_DATE": "2026-04-08", "QF_MANAGER_NAME": "黑龙江省药品监督管理局", "BUSINESS_LICENSE_NUMBER": "91231222MA1BKG8H1E", "XC_DATE": "2021-04-09", "NUM_": 28}, {"ID": "419db2783bf4482da453e6077d84094f", "EPS_NAME": "广东益孝堂医药科技有限公司", "PRODUCT_SN": "粤妆20210101", "CITY_CODE": null, "XK_COMPLETE_DATE": {"date": 8, "day": 4, "hours": 0, "minutes": 0, "month": 3, "nanos": 0, "seconds": 0, "time": 1617811200000, "timezoneOffset": -480, "year": 121}, "XK_DATE": "2026-04-07", "QF_MANAGER_NAME": "广东省药品监督管理局", "BUSINESS_LICENSE_NUMBER": "91445321MA53L0660N", "XC_DATE": "2021-04-08", "NUM_": 29}, {"ID": "a6ab5025bcff4b318843d58f128baed1", "EPS_NAME": "佛山市梦莎美容化妆品有限公司", "PRODUCT_SN": "粤妆20210100", "CITY_CODE": null, "XK_COMPLETE_DATE": {"date": 8, "day": 4, "hours": 0, "minutes": 0, "month": 3, "nanos": 0, "seconds": 0, "time": 1617811200000, "timezoneOffset": -480, "year": 121}, "XK_DATE": "2026-04-07", "QF_MANAGER_NAME": "广东省药品监督管理局", "BUSINESS_LICENSE_NUMBER": "914406087292172712", "XC_DATE": "2021-04-08", "NUM_": 30}], "orderBy": "createDate", "orderType": "desc", "pageCount": 373, "pageNumber": 2, "pageSize": 15, "property": "", "totalCount": 5590}