{"filesize": "", "keyword": "", "list": [{"ID": "4424b7975f3b410e821da093619a4f64", "EPS_NAME": "广州欣蔓化妆品有限公司", "PRODUCT_SN": "粤妆20160006", "CITY_CODE": null, "XK_COMPLETE_DATE": {"date": 26, "day": 5, "hours": 0, "minutes": 0, "month": 1, "nanos": 0, "seconds": 0, "time": 1614268800000, "timezoneOffset": -480, "year": 121}, "XK_DATE": "2022-11-02", "QF_MANAGER_NAME": "广东省药品监督管理局", "BUSINESS_LICENSE_NUMBER": "91440116080364049X", "XC_DATE": "2021-02-26", "NUM_": 286}, {"ID": "f84f851e27b24ed9866fec8ffed98139", "EPS_NAME": "扬州鸿和达塑胶日化有限公司", "PRODUCT_SN": "苏妆20170001", "CITY_CODE": "86", "XK_COMPLETE_DATE": {"date": 26, "day": 5, "hours": 0, "minutes": 0, "month": 1, "nanos": 0, "seconds": 0, "time": 1614268800000, "timezoneOffset": -480, "year": 121}, "XK_DATE": "2022-01-24", "QF_MANAGER_NAME": "江苏省药品监督管理局", "BUSINESS_LICENSE_NUMBER": "91321016302219067T", "XC_DATE": "2021-02-26", "NUM_": 287}, {"ID": "7519e2b2dbb34744b6b3dba7b8f8c8e7", "EPS_NAME": "扬州扬大联环药业基因工程有限公司", "PRODUCT_SN": "苏妆20160156", "CITY_CODE": "86", "XK_COMPLETE_DATE": {"date": 26, "day": 5, "hours": 0, "minutes": 0, "month": 1, "nanos": 0, "seconds": 0, "time": 1614268800000, "timezoneOffset": -480, "year": 121}, "XK_DATE": "2021-12-22", "QF_MANAGER_NAME": "江苏省药品监督管理局", "BUSINESS_LICENSE_NUMBER": "913210917252172822", "XC_DATE": "2021-02-26", "NUM_": 288}, {"ID": "5392b3628bbe45149397a95b56635dbe", "EPS_NAME": "士齐生物研发中心(苏州工业园区)有限公司", "PRODUCT_SN": "苏妆20160052", "CITY_CODE": "84", "XK_COMPLETE_DATE": {"date": 26, "day": 5, "hours": 0, "minutes": 0, "month": 1, "nanos": 0, "seconds": 0, "time": 1614268800000, "timezoneOffset": -480, "year": 121}, "XK_DATE": "2023-05-10", "QF_MANAGER_NAME": "江苏省药品监督管理局", "BUSINESS_LICENSE_NUMBER": "91320594567805045U", "XC_DATE": "2021-02-26", "NUM_": 289}, {"ID": "2f63a7976f6d4ffe9d14bd440d7d7b51", "EPS_NAME": "厦门军大生物科技有限公司", "PRODUCT_SN": "闽妆20180011", "CITY_CODE": "136", "XK_COMPLETE_DATE": {"date": 26, "day": 5, "hours": 0, "minutes": 0, "month": 1, "nanos": 0, "seconds": 0, "time": 1614268800000, "timezoneOffset": -480, "year": 121}, "XK_DATE": "2023-12-27", "QF_MANAGER_NAME": "福建省药品监督管理局", "BUSINESS_LICENSE_NUMBER": "91350205MA346XN56K", "XC_DATE": "2021-02-26", "NUM_": 290}, {"ID": "5b4771e2e1d34b6f8ccd7509af84d9f9", "EPS_NAME": "琦雅日化（上海）有限公司", "PRODUCT_SN": "沪妆20160187", "CITY_CODE": null, "XK_COMPLETE_DATE": {"date": 26, "day": 5, "hours": 0, "minutes": 0, "month": 1, "nanos": 0, "seconds": 0, "time": 1614268800000, "timezoneOffset": -480, "year": 121}, "XK_DATE": "2021-12-26", "QF_MANAGER_NAME": "上海市药品监督管理局", "BUSINESS_LICENSE_NUMBER": "9131000074805624XG", "XC_DATE": "2021-02-26", "NUM_": 291}, {"ID": "2eaa004c50834f2fba9725f9e078d386", "EPS_NAME": "广州御春堂生物科技有限公司", "PRODUCT_SN": "粤妆20210062", "CITY_CODE": null, "XK_COMPLETE_DATE": {"date": 25, "day": 4, "hours": 0, "minutes": 0, "month": 1, "nanos": 0, "seconds": 0, "time": 1614182400000, "timezoneOffset": -480, "year": 121}, "XK_DATE": "2026-02-24", "QF_MANAGER_NAME": "广东省药品监督管理局", "BUSINESS_LICENSE_NUMBER": "91440101MA5ARX6431", "XC_DATE": "2021-02-25", "NUM_": 292}, {"ID": "0e69a12745534601a7e27edc95547492", "EPS_NAME": "广州虹美生物科技有限公司", "PRODUCT_SN": "粤妆20190078", "CITY_CODE": null, "XK_COMPLETE_DATE": {"date": 25, "day": 4, "hours": 0, "minutes": 0, "month": 1, "nanos": 0, "seconds": 0, "time": 1614182400000, "timezoneOffset": -480, "year": 121}, "XK_DATE": "2024-04-11", "QF_MANAGER_NAME": "广东省药品监督管理局", "BUSINESS_LICENSE_NUMBER": "91440101MA5CJY4K28", "XC_DATE": "2021-02-25", "NUM_": 293}, {"ID": "7deb0ff377b14ac98404f28eeecb6cee", "EPS_NAME": "广州市养玉堂植物研究有限公司", "PRODUCT_SN": "粤妆20170363", "CITY_CODE": null, "XK_COMPLETE_DATE": {"date": 25, "day": 4, "hours": 0, "minutes": 0, "month": 1, "nanos": 0, "seconds": 0, "time": 1614182400000, "timezoneOffset": -480, "year": 121}, "XK_DATE": "2022-03-30", "QF_MANAGER_NAME": "广东省药品监督管理局", "BUSINESS_LICENSE_NUMBER": "91440111618536325U", "XC_DATE": "2021-02-25", "NUM_": 294}, {"ID": "69bfc98148a648cdaab863379eeb6b06", "EPS_NAME": "科思美碧优蒂化妆品（南通）有限公司", "PRODUCT_SN": "苏妆20160008", "CITY_CODE": "85", "XK_COMPLETE_DATE": {"date": 25, "day": 4, "hours": 0, "minutes": 0, "month": 1, "nanos": 0, "seconds": 0, "time": 1614182400000, "timezoneOffset": -480, "year": 121}, "XK_DATE": "2026-02-24", "QF_MANAGER_NAME": "江苏省药品监督管理局", "BUSINESS_LICENSE_NUMBER": "91320691581031955E", "XC_DATE": "2021-02-25", "NUM_": 295}, {"ID": "9144273bdcea4f6f9780c90b506d1b64", "EPS_NAME": "山东九鑫日用化工有限公司", "PRODUCT_SN": "鲁妆20160080", "CITY_CODE": null, "XK_COMPLETE_DATE": {"date": 25, "day": 4, "hours": 0, "minutes": 0, "month": 1, "nanos": 0, "seconds": 0, "time": 1614182400000, "timezoneOffset": -480, "year": 121}, "XK_DATE": "2021-12-25", "QF_MANAGER_NAME": "山东省药品监督管理局", "BUSINESS_LICENSE_NUMBER": "9137090074242331XJ", "XC_DATE": "2021-02-25", "NUM_": 296}, {"ID": "17c462e9e9df429ebb14ccb5e403bec8", "EPS_NAME": "上海遇鑫生物科技有限公司", "PRODUCT_SN": "沪妆20190001", "CITY_CODE": null, "XK_COMPLETE_DATE": {"date": 25, "day": 4, "hours": 0, "minutes": 0, "month": 1, "nanos": 0, "seconds": 0, "time": 1614182400000, "timezoneOffset": -480, "year": 121}, "XK_DATE": "2024-02-01", "QF_MANAGER_NAME": "上海市药品监督管理局", "BUSINESS_LICENSE_NUMBER": "91310120MA1HNMYL8Y", "XC_DATE": "2021-02-25", "NUM_": 297}, {"ID": "de1efb60d81142a080be80991e0b76ff", "EPS_NAME": "广东海露生物科技有限公司", "PRODUCT_SN": "粤妆20210061", "CITY_CODE": null, "XK_COMPLETE_DATE": {"date": 24, "day": 3, "hours": 0, "minutes": 0, "month": 1, "nanos": 0, "seconds": 0, "time": 1614096000000, "timezoneOffset": -480, "year": 121}, "XK_DATE": "2026-02-23", "QF_MANAGER_NAME": "广东省药品监督管理局", "BUSINESS_LICENSE_NUMBER": "91445321MA53UX3G2X", "XC_DATE": "2021-02-24", "NUM_": 298}, {"ID": "9b11907e1bd24b3d83c6cb2d90197b51", "EPS_NAME": "卡玫妮生物科技（上海）有限公司", "PRODUCT_SN": "沪妆20160092", "CITY_CODE": null, "XK_COMPLETE_DATE": {"date": 24, "day": 3, "hours": 0, "minutes": 0, "month": 1, "nanos": 0, "seconds": 0, "time": 1614096000000, "timezoneOffset": -480, "year": 121}, "XK_DATE": "2021-11-22", "QF_MANAGER_NAME": "上海市药品监督管理局", "BUSINESS_LICENSE_NUMBER": "91310118324527896B", "XC_DATE": "2021-02-24", "NUM_": 299}, {"ID": "35c3fbcab27846c89047647071d0efe3", "EPS_NAME": "英德市东顺精细化工实业有限公司", "PRODUCT_SN": "粤妆20170574", "CITY_CODE": null, "XK_COMPLETE_DATE": {"date": 23, "day": 2, "hours": 0, "minutes": 0, "month": 1, "nanos": 0, "seconds": 0, "time": 1614009600000, "timezoneOffset": -480, "year": 121}, "XK_DATE": "2022-11-09", "QF_MANAGER_NAME": "广东省药品监督管理局", "BUSINESS_LICENSE_NUMBER": "91441881562625029H", "XC_DATE": "2021-02-23", "NUM_": 300}], "orderBy": "createDate", "orderType": "desc", "pageCount": 373, "pageNumber": 20, "pageSize": 15, "property": "", "totalCount": 5590}