{"filesize": "", "keyword": "", "list": [{"ID": "7669cf74c81242aeb73a0053d02a8947", "EPS_NAME": "完美（广东）日用品有限公司", "PRODUCT_SN": "粤妆20170546", "CITY_CODE": null, "XK_COMPLETE_DATE": {"date": 23, "day": 2, "hours": 0, "minutes": 0, "month": 1, "nanos": 0, "seconds": 0, "time": 1614009600000, "timezoneOffset": -480, "year": 121}, "XK_DATE": "2022-10-23", "QF_MANAGER_NAME": "广东省药品监督管理局", "BUSINESS_LICENSE_NUMBER": "91442000562583439F", "XC_DATE": "2021-02-23", "NUM_": 301}, {"ID": "f055847a9c824fb6950c3938f4d94163", "EPS_NAME": "中山市天图精细化工有限公司", "PRODUCT_SN": "粤妆20160409", "CITY_CODE": null, "XK_COMPLETE_DATE": {"date": 23, "day": 2, "hours": 0, "minutes": 0, "month": 1, "nanos": 0, "seconds": 0, "time": 1614009600000, "timezoneOffset": -480, "year": 121}, "XK_DATE": "2026-02-22", "QF_MANAGER_NAME": "广东省药品监督管理局", "BUSINESS_LICENSE_NUMBER": "91442000799322632J", "XC_DATE": "2021-02-23", "NUM_": 302}, {"ID": "87235ba0bb8743898f15c7427225300f", "EPS_NAME": "好来化工（中山）有限公司", "PRODUCT_SN": "粤妆20160115", "CITY_CODE": null, "XK_COMPLETE_DATE": {"date": 23, "day": 2, "hours": 0, "minutes": 0, "month": 1, "nanos": 0, "seconds": 0, "time": 1614009600000, "timezoneOffset": -480, "year": 121}, "XK_DATE": "2026-02-22", "QF_MANAGER_NAME": "广东省药品监督管理局", "BUSINESS_LICENSE_NUMBER": "91442000617592878P", "XC_DATE": "2021-02-23", "NUM_": 303}, {"ID": "5dc2e4e2f79744ac8bed7a0f4665cad1", "EPS_NAME": "上海倩菲儿化妆品有限公司", "PRODUCT_SN": "沪妆20160073", "CITY_CODE": null, "XK_COMPLETE_DATE": {"date": 23, "day": 2, "hours": 0, "minutes": 0, "month": 1, "nanos": 0, "seconds": 0, "time": 1614009600000, "timezoneOffset": -480, "year": 121}, "XK_DATE": "2021-11-10", "QF_MANAGER_NAME": "上海市药品监督管理局", "BUSINESS_LICENSE_NUMBER": "91310120682285997A", "XC_DATE": "2021-02-23", "NUM_": 304}, {"ID": "3185548fc3d545d68b3eb85a1a57c2dd", "EPS_NAME": "浙江奥莉力化妆品有限公司", "PRODUCT_SN": "浙妆20160105", "CITY_CODE": null, "XK_COMPLETE_DATE": {"date": 22, "day": 1, "hours": 0, "minutes": 0, "month": 1, "nanos": 0, "seconds": 0, "time": 1613923200000, "timezoneOffset": -480, "year": 121}, "XK_DATE": "2021-10-24", "QF_MANAGER_NAME": "浙江省药品监督管理局", "BUSINESS_LICENSE_NUMBER": "91330782147653364F", "XC_DATE": "2021-02-22", "NUM_": 305}, {"ID": "c575a79d227742c9814499265545792b", "EPS_NAME": "广东弘丽化妆品有限公司", "PRODUCT_SN": "粤妆20210060", "CITY_CODE": null, "XK_COMPLETE_DATE": {"date": 22, "day": 1, "hours": 0, "minutes": 0, "month": 1, "nanos": 0, "seconds": 0, "time": 1613923200000, "timezoneOffset": -480, "year": 121}, "XK_DATE": "2026-02-21", "QF_MANAGER_NAME": "广东省药品监督管理局", "BUSINESS_LICENSE_NUMBER": "91441322MA55BWX40X", "XC_DATE": "2021-02-22", "NUM_": 306}, {"ID": "a3277ea564a14657ab1a7c14041cd17c", "EPS_NAME": "澳思美科技（广州）有限公司", "PRODUCT_SN": "粤妆20210023", "CITY_CODE": null, "XK_COMPLETE_DATE": {"date": 22, "day": 1, "hours": 0, "minutes": 0, "month": 1, "nanos": 0, "seconds": 0, "time": 1613923200000, "timezoneOffset": -480, "year": 121}, "XK_DATE": "2026-01-18", "QF_MANAGER_NAME": "广东省药品监督管理局", "BUSINESS_LICENSE_NUMBER": "91440101MA9UKBNM6T", "XC_DATE": "2021-02-22", "NUM_": 307}, {"ID": "fdc4ac2d375947d2b3168a20a61f21e0", "EPS_NAME": "广州市禾慕生物科技有限公司", "PRODUCT_SN": "粤妆20200211", "CITY_CODE": null, "XK_COMPLETE_DATE": {"date": 22, "day": 1, "hours": 0, "minutes": 0, "month": 1, "nanos": 0, "seconds": 0, "time": 1613923200000, "timezoneOffset": -480, "year": 121}, "XK_DATE": "2025-11-03", "QF_MANAGER_NAME": "广东省药品监督管理局", "BUSINESS_LICENSE_NUMBER": "91440101MA5D6JY76T", "XC_DATE": "2021-02-22", "NUM_": 308}, {"ID": "a3fb1ee2e5c84da4b62ef1633ba57605", "EPS_NAME": "美卡素大健康产业（广东）有限公司", "PRODUCT_SN": "粤妆20200024", "CITY_CODE": null, "XK_COMPLETE_DATE": {"date": 22, "day": 1, "hours": 0, "minutes": 0, "month": 1, "nanos": 0, "seconds": 0, "time": 1613923200000, "timezoneOffset": -480, "year": 121}, "XK_DATE": "2025-01-16", "QF_MANAGER_NAME": "广东省药品监督管理局", "BUSINESS_LICENSE_NUMBER": "91440101MA5CWRPE9X", "XC_DATE": "2021-02-22", "NUM_": 309}, {"ID": "acdc62b4159b4ebc847d2e82838e6cec", "EPS_NAME": "赛曼娜（广东）智能生物科技有限公司", "PRODUCT_SN": "粤妆20190238", "CITY_CODE": null, "XK_COMPLETE_DATE": {"date": 22, "day": 1, "hours": 0, "minutes": 0, "month": 1, "nanos": 0, "seconds": 0, "time": 1613923200000, "timezoneOffset": -480, "year": 121}, "XK_DATE": "2024-10-24", "QF_MANAGER_NAME": "广东省药品监督管理局", "BUSINESS_LICENSE_NUMBER": "91440101MA5CPW8H0Y", "XC_DATE": "2021-02-22", "NUM_": 310}, {"ID": "649e85b1c5db4a62a13173d8f65e9efc", "EPS_NAME": "广东富美康化妆品有限公司", "PRODUCT_SN": "粤妆20180242", "CITY_CODE": null, "XK_COMPLETE_DATE": {"date": 22, "day": 1, "hours": 0, "minutes": 0, "month": 1, "nanos": 0, "seconds": 0, "time": 1613923200000, "timezoneOffset": -480, "year": 121}, "XK_DATE": "2023-11-20", "QF_MANAGER_NAME": "广东省药品监督管理局", "BUSINESS_LICENSE_NUMBER": "91440101MA59CR0F6F", "XC_DATE": "2021-02-22", "NUM_": 311}, {"ID": "a9f7de45fbca4d8392e65de29980eb99", "EPS_NAME": "广州海露生物科技有限公司", "PRODUCT_SN": "粤妆20180214", "CITY_CODE": null, "XK_COMPLETE_DATE": {"date": 22, "day": 1, "hours": 0, "minutes": 0, "month": 1, "nanos": 0, "seconds": 0, "time": 1613923200000, "timezoneOffset": -480, "year": 121}, "XK_DATE": "2023-10-22", "QF_MANAGER_NAME": "广东省药品监督管理局", "BUSINESS_LICENSE_NUMBER": "91440101MA5APNE54G", "XC_DATE": "2021-02-22", "NUM_": 312}, {"ID": "defdd917f9fa4e9ab88c024fd9efc3de", "EPS_NAME": "广州科雅生物科技有限公司", "PRODUCT_SN": "粤妆20170420", "CITY_CODE": null, "XK_COMPLETE_DATE": {"date": 22, "day": 1, "hours": 0, "minutes": 0, "month": 1, "nanos": 0, "seconds": 0, "time": 1613923200000, "timezoneOffset": -480, "year": 121}, "XK_DATE": "2022-06-25", "QF_MANAGER_NAME": "广东省药品监督管理局", "BUSINESS_LICENSE_NUMBER": "91440111581856332J", "XC_DATE": "2021-02-22", "NUM_": 313}, {"ID": "d99a473291564f85bf01605aeaf72955", "EPS_NAME": "广州市白云区宝诗莱精细化工厂", "PRODUCT_SN": "粤妆20161786", "CITY_CODE": null, "XK_COMPLETE_DATE": {"date": 22, "day": 1, "hours": 0, "minutes": 0, "month": 1, "nanos": 0, "seconds": 0, "time": 1613923200000, "timezoneOffset": -480, "year": 121}, "XK_DATE": "2026-02-21", "QF_MANAGER_NAME": "广东省药品监督管理局", "BUSINESS_LICENSE_NUMBER": "91440111791004429U", "XC_DATE": "2021-02-22", "NUM_": 314}, {"ID": "648303be3d944dd388d94502b63ff199", "EPS_NAME": "广州智尚生物科技有限公司", "PRODUCT_SN": "粤妆20161525", "CITY_CODE": null, "XK_COMPLETE_DATE": {"date": 22, "day": 1, "hours": 0, "minutes": 0, "month": 1, "nanos": 0, "seconds": 0, "time": 1613923200000, "timezoneOffset": -480, "year": 121}, "XK_DATE": "2021-12-07", "QF_MANAGER_NAME": "广东省药品监督管理局", "BUSINESS_LICENSE_NUMBER": "91440111088162783W", "XC_DATE": "2021-02-22", "NUM_": 315}], "orderBy": "createDate", "orderType": "desc", "pageCount": 373, "pageNumber": 21, "pageSize": 15, "property": "", "totalCount": 5590}