{"filesize": "", "keyword": "", "list": [{"ID": "189193de54df4c888d9a22e6a75bdabe", "EPS_NAME": "广州阿蔓尼生物科技有限公司", "PRODUCT_SN": "粤妆20161125", "CITY_CODE": null, "XK_COMPLETE_DATE": {"date": 22, "day": 1, "hours": 0, "minutes": 0, "month": 1, "nanos": 0, "seconds": 0, "time": 1613923200000, "timezoneOffset": -480, "year": 121}, "XK_DATE": "2021-11-10", "QF_MANAGER_NAME": "广东省药品监督管理局", "BUSINESS_LICENSE_NUMBER": "91440111MA59DAUDXQ", "XC_DATE": "2021-02-22", "NUM_": 316}, {"ID": "e61297c1c49c43b191442190c20e0530", "EPS_NAME": "广东芭薇生物科技股份有限公司", "PRODUCT_SN": "粤妆20160687", "CITY_CODE": null, "XK_COMPLETE_DATE": {"date": 22, "day": 1, "hours": 0, "minutes": 0, "month": 1, "nanos": 0, "seconds": 0, "time": 1613923200000, "timezoneOffset": -480, "year": 121}, "XK_DATE": "2023-02-08", "QF_MANAGER_NAME": "广东省药品监督管理局", "BUSINESS_LICENSE_NUMBER": "91440101786096533H", "XC_DATE": "2021-02-22", "NUM_": 317}, {"ID": "94c8b4aa8cc04ed4a33d77de5ab6f7a0", "EPS_NAME": "广州市腾宇化妆品有限公司", "PRODUCT_SN": "粤妆20160535", "CITY_CODE": null, "XK_COMPLETE_DATE": {"date": 22, "day": 1, "hours": 0, "minutes": 0, "month": 1, "nanos": 0, "seconds": 0, "time": 1613923200000, "timezoneOffset": -480, "year": 121}, "XK_DATE": "2026-01-24", "QF_MANAGER_NAME": "广东省药品监督管理局", "BUSINESS_LICENSE_NUMBER": "9144011159153584X7", "XC_DATE": "2021-02-22", "NUM_": 318}, {"ID": "f724ed9911ae413f9b2f91bc67d859dc", "EPS_NAME": "广州市丹莹化妆品有限公司", "PRODUCT_SN": "粤妆20160225", "CITY_CODE": null, "XK_COMPLETE_DATE": {"date": 22, "day": 1, "hours": 0, "minutes": 0, "month": 1, "nanos": 0, "seconds": 0, "time": 1613923200000, "timezoneOffset": -480, "year": 121}, "XK_DATE": "2024-04-16", "QF_MANAGER_NAME": "广东省药品监督管理局", "BUSINESS_LICENSE_NUMBER": "914401117163687089", "XC_DATE": "2021-02-22", "NUM_": 319}, {"ID": "6783d3ddc2ba4a5ca2325d05eeaed2de", "EPS_NAME": "广州真如化妆品有限公司", "PRODUCT_SN": "粤妆20160048", "CITY_CODE": null, "XK_COMPLETE_DATE": {"date": 22, "day": 1, "hours": 0, "minutes": 0, "month": 1, "nanos": 0, "seconds": 0, "time": 1613923200000, "timezoneOffset": -480, "year": 121}, "XK_DATE": "2024-09-15", "QF_MANAGER_NAME": "广东省药品监督管理局", "BUSINESS_LICENSE_NUMBER": "91440111MA59A5NP3T", "XC_DATE": "2021-02-22", "NUM_": 320}, {"ID": "1ef90bee0a6e454a93a531fc2413b2b1", "EPS_NAME": "蓝佳堂生物医药（福建）有限公司", "PRODUCT_SN": "闽妆20210001", "CITY_CODE": "135", "XK_COMPLETE_DATE": {"date": 22, "day": 1, "hours": 0, "minutes": 0, "month": 1, "nanos": 0, "seconds": 0, "time": 1613923200000, "timezoneOffset": -480, "year": 121}, "XK_DATE": "2026-02-21", "QF_MANAGER_NAME": "福建省药品监督管理局", "BUSINESS_LICENSE_NUMBER": "913501040708957780", "XC_DATE": "2021-02-22", "NUM_": 321}, {"ID": "4b6a263ea37b4cfd90031f8bfaf573d8", "EPS_NAME": "惠州市润安美生物科技有限公司", "PRODUCT_SN": "粤妆20210059", "CITY_CODE": null, "XK_COMPLETE_DATE": {"date": 20, "day": 6, "hours": 0, "minutes": 0, "month": 1, "nanos": 0, "seconds": 0, "time": 1613750400000, "timezoneOffset": -480, "year": 121}, "XK_DATE": "2026-02-19", "QF_MANAGER_NAME": "广东省药品监督管理局", "BUSINESS_LICENSE_NUMBER": "91441303MA54PYMW0H", "XC_DATE": "2021-02-20", "NUM_": 322}, {"ID": "d250d089d13a49c5945debb8c900c8a8", "EPS_NAME": "汕头市美宝源化妆品有限公司", "PRODUCT_SN": "粤妆20190010", "CITY_CODE": null, "XK_COMPLETE_DATE": {"date": 20, "day": 6, "hours": 0, "minutes": 0, "month": 1, "nanos": 0, "seconds": 0, "time": 1613750400000, "timezoneOffset": -480, "year": 121}, "XK_DATE": "2024-01-08", "QF_MANAGER_NAME": "广东省药品监督管理局", "BUSINESS_LICENSE_NUMBER": "914405120867583566", "XC_DATE": "2021-02-20", "NUM_": 323}, {"ID": "aa4823310333400a96ce9dc99c48fe4f", "EPS_NAME": "威海艾玫凯化妆品有限公司", "PRODUCT_SN": "鲁妆20160045", "CITY_CODE": null, "XK_COMPLETE_DATE": {"date": 20, "day": 6, "hours": 0, "minutes": 0, "month": 1, "nanos": 0, "seconds": 0, "time": 1613750400000, "timezoneOffset": -480, "year": 121}, "XK_DATE": "2021-10-27", "QF_MANAGER_NAME": "山东省药品监督管理局", "BUSINESS_LICENSE_NUMBER": "913710825578684991", "XC_DATE": "2021-02-20", "NUM_": 324}, {"ID": "1a7c3b68d8404db8b7048149367eeaf0", "EPS_NAME": "吉林省蓝浦浩业科技有限公司", "PRODUCT_SN": "吉妆20190008", "CITY_CODE": "275", "XK_COMPLETE_DATE": {"date": 20, "day": 6, "hours": 0, "minutes": 0, "month": 1, "nanos": 0, "seconds": 0, "time": 1613750400000, "timezoneOffset": -480, "year": 121}, "XK_DATE": "2024-10-13", "QF_MANAGER_NAME": "吉林省药品监督管理局", "BUSINESS_LICENSE_NUMBER": "91220101MA158XEQ9N", "XC_DATE": "2021-02-20", "NUM_": 325}, {"ID": "83b14f57d3a640e4bea5980f94742ce3", "EPS_NAME": "上海凯威工业精制气体开发有限公司", "PRODUCT_SN": "沪妆20210002", "CITY_CODE": null, "XK_COMPLETE_DATE": {"date": 20, "day": 6, "hours": 0, "minutes": 0, "month": 1, "nanos": 0, "seconds": 0, "time": 1613750400000, "timezoneOffset": -480, "year": 121}, "XK_DATE": "2026-02-19", "QF_MANAGER_NAME": "上海市药品监督管理局", "BUSINESS_LICENSE_NUMBER": "91310113631371676D", "XC_DATE": "2021-02-20", "NUM_": 326}, {"ID": "9be8485451d44b3a8eb659ab6d3ae9c2", "EPS_NAME": "广东万妆化妆品有限公司", "PRODUCT_SN": "粤妆20210058", "CITY_CODE": null, "XK_COMPLETE_DATE": {"date": 19, "day": 5, "hours": 0, "minutes": 0, "month": 1, "nanos": 0, "seconds": 0, "time": 1613664000000, "timezoneOffset": -480, "year": 121}, "XK_DATE": "2026-02-18", "QF_MANAGER_NAME": "广东省药品监督管理局", "BUSINESS_LICENSE_NUMBER": "91440513MA55ULG46M", "XC_DATE": "2021-02-19", "NUM_": 327}, {"ID": "c81df6d78b3f4cc093c6178b4c6d4c63", "EPS_NAME": "广州本色丽人美容生物科技有限公司", "PRODUCT_SN": "粤妆20210057", "CITY_CODE": null, "XK_COMPLETE_DATE": {"date": 19, "day": 5, "hours": 0, "minutes": 0, "month": 1, "nanos": 0, "seconds": 0, "time": 1613664000000, "timezoneOffset": -480, "year": 121}, "XK_DATE": "2026-02-18", "QF_MANAGER_NAME": "广东省药品监督管理局", "BUSINESS_LICENSE_NUMBER": "91440101MA9UYAAY5T", "XC_DATE": "2021-02-19", "NUM_": 328}, {"ID": "641dafb0a1814dffbdec618b134a5815", "EPS_NAME": "广东金山百草健康产业有限公司", "PRODUCT_SN": "粤妆20170394", "CITY_CODE": null, "XK_COMPLETE_DATE": {"date": 19, "day": 5, "hours": 0, "minutes": 0, "month": 1, "nanos": 0, "seconds": 0, "time": 1613664000000, "timezoneOffset": -480, "year": 121}, "XK_DATE": "2022-05-11", "QF_MANAGER_NAME": "广东省药品监督管理局", "BUSINESS_LICENSE_NUMBER": "91440783MA4UXUMN1G", "XC_DATE": "2021-02-19", "NUM_": 329}, {"ID": "ae395a8adfef4fb39a38cd5ffd6a1097", "EPS_NAME": "广州市蒲金精细化工有限公司", "PRODUCT_SN": "粤妆20160787", "CITY_CODE": null, "XK_COMPLETE_DATE": {"date": 19, "day": 5, "hours": 0, "minutes": 0, "month": 1, "nanos": 0, "seconds": 0, "time": 1613664000000, "timezoneOffset": -480, "year": 121}, "XK_DATE": "2026-02-18", "QF_MANAGER_NAME": "广东省药品监督管理局", "BUSINESS_LICENSE_NUMBER": "91440111304727372F", "XC_DATE": "2021-02-19", "NUM_": 330}], "orderBy": "createDate", "orderType": "desc", "pageCount": 373, "pageNumber": 22, "pageSize": 15, "property": "", "totalCount": 5590}