{"filesize": "", "keyword": "", "list": [{"ID": "b16897fc97704e8289245cce22822bc8", "EPS_NAME": "广东纤佰俪医药生物化妆品有限公司", "PRODUCT_SN": "粤妆20180222", "CITY_CODE": null, "XK_COMPLETE_DATE": {"date": 18, "day": 4, "hours": 0, "minutes": 0, "month": 1, "nanos": 0, "seconds": 0, "time": 1613577600000, "timezoneOffset": -480, "year": 121}, "XK_DATE": "2023-10-30", "QF_MANAGER_NAME": "广东省药品监督管理局", "BUSINESS_LICENSE_NUMBER": "91441625MA4UKH5E35", "XC_DATE": "2021-02-18", "NUM_": 331}, {"ID": "a810f850c54f4cf7a002057cfb4ec279", "EPS_NAME": "滁州向日葵药业有限公司", "PRODUCT_SN": "皖妆20210005", "CITY_CODE": "220", "XK_COMPLETE_DATE": {"date": 18, "day": 4, "hours": 0, "minutes": 0, "month": 1, "nanos": 0, "seconds": 0, "time": 1613577600000, "timezoneOffset": -480, "year": 121}, "XK_DATE": "2026-02-17", "QF_MANAGER_NAME": "安徽省药品监督管理局", "BUSINESS_LICENSE_NUMBER": "91341171MA2UE0W596", "XC_DATE": "2021-02-18", "NUM_": 332}, {"ID": "73bb06d774f44c2b9d7c006be3711718", "EPS_NAME": "扬州倍加洁日化有限公司", "PRODUCT_SN": "苏妆20210011", "CITY_CODE": "86", "XK_COMPLETE_DATE": {"date": 18, "day": 4, "hours": 0, "minutes": 0, "month": 1, "nanos": 0, "seconds": 0, "time": 1613577600000, "timezoneOffset": -480, "year": 121}, "XK_DATE": "2026-02-17", "QF_MANAGER_NAME": "江苏省药品监督管理局", "BUSINESS_LICENSE_NUMBER": "91321000760545492E", "XC_DATE": "2021-02-18", "NUM_": 333}, {"ID": "d51920e18414449fa2bda604a2a6b93f", "EPS_NAME": "克劳丽化妆品（南通）有限公司", "PRODUCT_SN": "苏妆20210010", "CITY_CODE": "85", "XK_COMPLETE_DATE": {"date": 18, "day": 4, "hours": 0, "minutes": 0, "month": 1, "nanos": 0, "seconds": 0, "time": 1613577600000, "timezoneOffset": -480, "year": 121}, "XK_DATE": "2026-02-17", "QF_MANAGER_NAME": "江苏省药品监督管理局", "BUSINESS_LICENSE_NUMBER": "91320623MA24WAKU9P", "XC_DATE": "2021-02-18", "NUM_": 334}, {"ID": "6321fa3a8cad4edba7b5597c3fdea52e", "EPS_NAME": "广东永佳日化实业有限公司", "PRODUCT_SN": "粤妆20210050", "CITY_CODE": null, "XK_COMPLETE_DATE": {"date": 10, "day": 3, "hours": 0, "minutes": 0, "month": 1, "nanos": 0, "seconds": 0, "time": 1612886400000, "timezoneOffset": -480, "year": 121}, "XK_DATE": "2026-02-09", "QF_MANAGER_NAME": "广东省药品监督管理局", "BUSINESS_LICENSE_NUMBER": "91440514071881319E", "XC_DATE": "2021-02-10", "NUM_": 335}, {"ID": "5adcf34701964a87ad34154be231fd99", "EPS_NAME": "河南发唤生物科技有限公司", "PRODUCT_SN": "豫妆20210004", "CITY_CODE": null, "XK_COMPLETE_DATE": {"date": 10, "day": 3, "hours": 0, "minutes": 0, "month": 1, "nanos": 0, "seconds": 0, "time": 1612886400000, "timezoneOffset": -480, "year": 121}, "XK_DATE": "2026-02-09", "QF_MANAGER_NAME": "河南省药品监督管理局", "BUSINESS_LICENSE_NUMBER": "91411426MA9F21PP48", "XC_DATE": "2021-02-10", "NUM_": 336}, {"ID": "c2cf1364781447e1a3b6dcd90bda6fff", "EPS_NAME": "江西初美化妆品有限公司", "PRODUCT_SN": "赣妆20180013", "CITY_CODE": "93", "XK_COMPLETE_DATE": {"date": 10, "day": 3, "hours": 0, "minutes": 0, "month": 1, "nanos": 0, "seconds": 0, "time": 1612886400000, "timezoneOffset": -480, "year": 121}, "XK_DATE": "2023-07-17", "QF_MANAGER_NAME": "江西省药品监督管理局", "BUSINESS_LICENSE_NUMBER": "91360121MA37RM989B", "XC_DATE": "2021-02-10", "NUM_": 337}, {"ID": "23e8220096bf40f99ed1d453824b729d", "EPS_NAME": "江西珍视明药业有限公司", "PRODUCT_SN": "赣妆20170002", "CITY_CODE": "97", "XK_COMPLETE_DATE": {"date": 10, "day": 3, "hours": 0, "minutes": 0, "month": 1, "nanos": 0, "seconds": 0, "time": 1612886400000, "timezoneOffset": -480, "year": 121}, "XK_DATE": "2022-01-05", "QF_MANAGER_NAME": "江西省药品监督管理局", "BUSINESS_LICENSE_NUMBER": "91361003789743169E", "XC_DATE": "2021-02-10", "NUM_": 338}, {"ID": "3d743719c320463a91abdea81aa240b5", "EPS_NAME": "云南可静生物科技有限公司", "PRODUCT_SN": "云妆20210001", "CITY_CODE": "207", "XK_COMPLETE_DATE": {"date": 9, "day": 2, "hours": 0, "minutes": 0, "month": 1, "nanos": 0, "seconds": 0, "time": 1612800000000, "timezoneOffset": -480, "year": 121}, "XK_DATE": "2026-02-09", "QF_MANAGER_NAME": "云南省药品监督管理局", "BUSINESS_LICENSE_NUMBER": "91530300MA6PNQ9E9R", "XC_DATE": "2021-02-09", "NUM_": 339}, {"ID": "6626aa180dca43f7b10c45a3dd91c13a", "EPS_NAME": "中山新妍化妆品有限公司", "PRODUCT_SN": "粤妆20180230", "CITY_CODE": null, "XK_COMPLETE_DATE": {"date": 9, "day": 2, "hours": 0, "minutes": 0, "month": 1, "nanos": 0, "seconds": 0, "time": 1612800000000, "timezoneOffset": -480, "year": 121}, "XK_DATE": "2023-11-04", "QF_MANAGER_NAME": "广东省药品监督管理局", "BUSINESS_LICENSE_NUMBER": "91442000MA51EQLWXE", "XC_DATE": "2021-02-09", "NUM_": 340}, {"ID": "3e18d72df9c24f0b8f15e76d0fbcc913", "EPS_NAME": "东莞市百丽达生物科技有限公司", "PRODUCT_SN": "粤妆20170591", "CITY_CODE": null, "XK_COMPLETE_DATE": {"date": 9, "day": 2, "hours": 0, "minutes": 0, "month": 1, "nanos": 0, "seconds": 0, "time": 1612800000000, "timezoneOffset": -480, "year": 121}, "XK_DATE": "2022-11-30", "QF_MANAGER_NAME": "广东省药品监督管理局", "BUSINESS_LICENSE_NUMBER": "91441900MA4WHBJX7T", "XC_DATE": "2021-02-09", "NUM_": 341}, {"ID": "889f31556d0149b6ac1be15b09f35b80", "EPS_NAME": "深圳市创亿鑫生物科技有限公司", "PRODUCT_SN": "粤妆20160938", "CITY_CODE": null, "XK_COMPLETE_DATE": {"date": 9, "day": 2, "hours": 0, "minutes": 0, "month": 1, "nanos": 0, "seconds": 0, "time": 1612800000000, "timezoneOffset": -480, "year": 121}, "XK_DATE": "2026-02-08", "QF_MANAGER_NAME": "广东省药品监督管理局", "BUSINESS_LICENSE_NUMBER": "914403007230102536", "XC_DATE": "2021-02-09", "NUM_": 342}, {"ID": "a96e67d64344436cbc71ae72077894c4", "EPS_NAME": "朝日化妆品（深圳）有限公司", "PRODUCT_SN": "粤妆20160028", "CITY_CODE": null, "XK_COMPLETE_DATE": {"date": 9, "day": 2, "hours": 0, "minutes": 0, "month": 1, "nanos": 0, "seconds": 0, "time": 1612800000000, "timezoneOffset": -480, "year": 121}, "XK_DATE": "2026-02-08", "QF_MANAGER_NAME": "广东省药品监督管理局", "BUSINESS_LICENSE_NUMBER": "91440300772747550X", "XC_DATE": "2021-02-09", "NUM_": 343}, {"ID": "cc2ffca1afee40c9b4506309b6906959", "EPS_NAME": "河南金鹿堂药业有限公司", "PRODUCT_SN": "豫妆20210003", "CITY_CODE": "6", "XK_COMPLETE_DATE": {"date": 9, "day": 2, "hours": 0, "minutes": 0, "month": 1, "nanos": 0, "seconds": 0, "time": 1612800000000, "timezoneOffset": -480, "year": 121}, "XK_DATE": "2026-02-08", "QF_MANAGER_NAME": "河南省药品监督管理局", "BUSINESS_LICENSE_NUMBER": "91410105MA44D65X76", "XC_DATE": "2021-02-09", "NUM_": 344}, {"ID": "4841c82b27bc4886a0b0478f70f3e20f", "EPS_NAME": "威海迷尔赛化妆品有限公司", "PRODUCT_SN": "鲁妆20160043", "CITY_CODE": null, "XK_COMPLETE_DATE": {"date": 9, "day": 2, "hours": 0, "minutes": 0, "month": 1, "nanos": 0, "seconds": 0, "time": 1612800000000, "timezoneOffset": -480, "year": 121}, "XK_DATE": "2021-10-27", "QF_MANAGER_NAME": "山东省药品监督管理局", "BUSINESS_LICENSE_NUMBER": "91371000679201895X", "XC_DATE": "2021-02-09", "NUM_": 345}], "orderBy": "createDate", "orderType": "desc", "pageCount": 373, "pageNumber": 23, "pageSize": 15, "property": "", "totalCount": 5590}