{"filesize": "", "keyword": "", "list": [{"ID": "fffd38b18a13480d8d872f0d28f71a53", "EPS_NAME": "广州振业医药科技有限公司", "PRODUCT_SN": "粤妆20210056", "CITY_CODE": null, "XK_COMPLETE_DATE": {"date": 8, "day": 1, "hours": 0, "minutes": 0, "month": 1, "nanos": 0, "seconds": 0, "time": 1612713600000, "timezoneOffset": -480, "year": 121}, "XK_DATE": "2026-02-07", "QF_MANAGER_NAME": "广东省药品监督管理局", "BUSINESS_LICENSE_NUMBER": "91440101MA9UYENHXQ", "XC_DATE": "2021-02-08", "NUM_": 346}, {"ID": "89cf33bca751479281d1988e842d9ca1", "EPS_NAME": "广州中燊医药科技有限公司", "PRODUCT_SN": "粤妆20210055", "CITY_CODE": null, "XK_COMPLETE_DATE": {"date": 8, "day": 1, "hours": 0, "minutes": 0, "month": 1, "nanos": 0, "seconds": 0, "time": 1612713600000, "timezoneOffset": -480, "year": 121}, "XK_DATE": "2026-02-07", "QF_MANAGER_NAME": "广东省药品监督管理局", "BUSINESS_LICENSE_NUMBER": "91440101MA5D0HBF7L", "XC_DATE": "2021-02-08", "NUM_": 347}, {"ID": "ae360301a23d4dcda9619af3220e9339", "EPS_NAME": "广州海森生物科技有限公司", "PRODUCT_SN": "粤妆20210054", "CITY_CODE": null, "XK_COMPLETE_DATE": {"date": 8, "day": 1, "hours": 0, "minutes": 0, "month": 1, "nanos": 0, "seconds": 0, "time": 1612713600000, "timezoneOffset": -480, "year": 121}, "XK_DATE": "2026-02-07", "QF_MANAGER_NAME": "广东省药品监督管理局", "BUSINESS_LICENSE_NUMBER": "91440101MA9UQXYP3R", "XC_DATE": "2021-02-08", "NUM_": 348}, {"ID": "bc01e59d540b4dcc9a6dfef3725c5e32", "EPS_NAME": "广州元基细胞生物科技有限公司", "PRODUCT_SN": "粤妆20210053", "CITY_CODE": null, "XK_COMPLETE_DATE": {"date": 8, "day": 1, "hours": 0, "minutes": 0, "month": 1, "nanos": 0, "seconds": 0, "time": 1612713600000, "timezoneOffset": -480, "year": 121}, "XK_DATE": "2026-02-07", "QF_MANAGER_NAME": "广东省药品监督管理局", "BUSINESS_LICENSE_NUMBER": "91440101MA9W40WN6W", "XC_DATE": "2021-02-08", "NUM_": 349}, {"ID": "f71a6d3a71744d5184c6cdf541e0a444", "EPS_NAME": "广州赫兰迪生物科技有限公司", "PRODUCT_SN": "粤妆20200209", "CITY_CODE": null, "XK_COMPLETE_DATE": {"date": 8, "day": 1, "hours": 0, "minutes": 0, "month": 1, "nanos": 0, "seconds": 0, "time": 1612713600000, "timezoneOffset": -480, "year": 121}, "XK_DATE": "2025-11-03", "QF_MANAGER_NAME": "广东省药品监督管理局", "BUSINESS_LICENSE_NUMBER": "91440101MA9UM5MQ7F", "XC_DATE": "2021-02-08", "NUM_": 350}, {"ID": "30aaa80688c24b249cd487f64d527a63", "EPS_NAME": "广州蓝懋生物科技有限公司", "PRODUCT_SN": "粤妆20200015", "CITY_CODE": null, "XK_COMPLETE_DATE": {"date": 8, "day": 1, "hours": 0, "minutes": 0, "month": 1, "nanos": 0, "seconds": 0, "time": 1612713600000, "timezoneOffset": -480, "year": 121}, "XK_DATE": "2025-01-13", "QF_MANAGER_NAME": "广东省药品监督管理局", "BUSINESS_LICENSE_NUMBER": "91440101MA5CYRBL8C", "XC_DATE": "2021-02-08", "NUM_": 351}, {"ID": "3d6ba088b91b4dcf80fbaf647a7dd65e", "EPS_NAME": "广州一一生物技术有限公司", "PRODUCT_SN": "粤妆20161095", "CITY_CODE": null, "XK_COMPLETE_DATE": {"date": 8, "day": 1, "hours": 0, "minutes": 0, "month": 1, "nanos": 0, "seconds": 0, "time": 1612713600000, "timezoneOffset": -480, "year": 121}, "XK_DATE": "2026-02-07", "QF_MANAGER_NAME": "广东省药品监督管理局", "BUSINESS_LICENSE_NUMBER": "91440111671823956F", "XC_DATE": "2021-02-08", "NUM_": 352}, {"ID": "86d13dafd0f24994853cb854d1fc7f6c", "EPS_NAME": "广州伟长利化妆品有限公司", "PRODUCT_SN": "粤妆20160996", "CITY_CODE": null, "XK_COMPLETE_DATE": {"date": 8, "day": 1, "hours": 0, "minutes": 0, "month": 1, "nanos": 0, "seconds": 0, "time": 1612713600000, "timezoneOffset": -480, "year": 121}, "XK_DATE": "2026-02-07", "QF_MANAGER_NAME": "广东省药品监督管理局", "BUSINESS_LICENSE_NUMBER": "91440111074637207K", "XC_DATE": "2021-02-08", "NUM_": 353}, {"ID": "da80e147addd4108b40630657239ea69", "EPS_NAME": "广州汇芬生物科技有限公司", "PRODUCT_SN": "粤妆20160920", "CITY_CODE": null, "XK_COMPLETE_DATE": {"date": 8, "day": 1, "hours": 0, "minutes": 0, "month": 1, "nanos": 0, "seconds": 0, "time": 1612713600000, "timezoneOffset": -480, "year": 121}, "XK_DATE": "2021-10-20", "QF_MANAGER_NAME": "广东省药品监督管理局", "BUSINESS_LICENSE_NUMBER": "91440111MA59DBTD63", "XC_DATE": "2021-02-08", "NUM_": 354}, {"ID": "c7456ccb62c6469b8cbd27ca8f324879", "EPS_NAME": "广州市巧美化妆品有限公司", "PRODUCT_SN": "粤妆20160140", "CITY_CODE": null, "XK_COMPLETE_DATE": {"date": 8, "day": 1, "hours": 0, "minutes": 0, "month": 1, "nanos": 0, "seconds": 0, "time": 1612713600000, "timezoneOffset": -480, "year": 121}, "XK_DATE": "2026-02-07", "QF_MANAGER_NAME": "广东省药品监督管理局", "BUSINESS_LICENSE_NUMBER": "91440111737151620P", "XC_DATE": "2021-02-08", "NUM_": 355}, {"ID": "be4ce9056fcf48dd874f47ebad8243bf", "EPS_NAME": "重庆灵方生物技术有限公司", "PRODUCT_SN": "渝妆20160002", "CITY_CODE": "459", "XK_COMPLETE_DATE": {"date": 8, "day": 1, "hours": 0, "minutes": 0, "month": 1, "nanos": 0, "seconds": 0, "time": 1612713600000, "timezoneOffset": -480, "year": 121}, "XK_DATE": "2021-05-17", "QF_MANAGER_NAME": "重庆市药品监督管理局", "BUSINESS_LICENSE_NUMBER": "91500226781583316G", "XC_DATE": "2021-02-08", "NUM_": 356}, {"ID": "027e55f618394bee88a9a494ce3ae9a0", "EPS_NAME": "乌鲁木齐甜美梦洗涤用品分装有限公司", "PRODUCT_SN": "新妆20210002", "CITY_CODE": "370", "XK_COMPLETE_DATE": {"date": 8, "day": 1, "hours": 0, "minutes": 0, "month": 1, "nanos": 0, "seconds": 0, "time": 1612713600000, "timezoneOffset": -480, "year": 121}, "XK_DATE": "2026-02-07", "QF_MANAGER_NAME": "新疆维吾尔自治区药品监督管理局", "BUSINESS_LICENSE_NUMBER": "MA7AB7CJXW", "XC_DATE": "2021-02-08", "NUM_": 357}, {"ID": "b863163a01f34ca285c21474623a0b35", "EPS_NAME": "科玛化妆品（无锡）有限公司", "PRODUCT_SN": "苏妆20180016", "CITY_CODE": "82", "XK_COMPLETE_DATE": {"date": 8, "day": 1, "hours": 0, "minutes": 0, "month": 1, "nanos": 0, "seconds": 0, "time": 1612713600000, "timezoneOffset": -480, "year": 121}, "XK_DATE": "2023-09-04", "QF_MANAGER_NAME": "江苏省药品监督管理局", "BUSINESS_LICENSE_NUMBER": "91320214MA1MR6P443", "XC_DATE": "2021-02-08", "NUM_": 358}, {"ID": "bb0e5d735231459a8e7441c31f3ca9d9", "EPS_NAME": "云南贝泰妮生物科技集团股份有限公司", "PRODUCT_SN": "云妆20160004", "CITY_CODE": "204", "XK_COMPLETE_DATE": {"date": 7, "day": 0, "hours": 0, "minutes": 0, "month": 1, "nanos": 0, "seconds": 0, "time": 1612627200000, "timezoneOffset": -480, "year": 121}, "XK_DATE": "2021-05-24", "QF_MANAGER_NAME": "云南省食品药品监督管理局", "BUSINESS_LICENSE_NUMBER": "915301005551100783", "XC_DATE": "2021-02-07", "NUM_": 359}, {"ID": "8bbe284088b54ef198f1d5c7ed71e939", "EPS_NAME": "广州雅颂化妆品制造有限公司", "PRODUCT_SN": "粤妆20210052", "CITY_CODE": null, "XK_COMPLETE_DATE": {"date": 7, "day": 0, "hours": 0, "minutes": 0, "month": 1, "nanos": 0, "seconds": 0, "time": 1612627200000, "timezoneOffset": -480, "year": 121}, "XK_DATE": "2026-02-06", "QF_MANAGER_NAME": "广东省药品监督管理局", "BUSINESS_LICENSE_NUMBER": "91440101MA59EJ2EXX", "XC_DATE": "2021-02-07", "NUM_": 360}], "orderBy": "createDate", "orderType": "desc", "pageCount": 373, "pageNumber": 24, "pageSize": 15, "property": "", "totalCount": 5590}