{"filesize": "", "keyword": "", "list": [{"ID": "73e5333cc1c54e28bf99253770f692ed", "EPS_NAME": "广东雨汐生物科技有限公司", "PRODUCT_SN": "粤妆20210049", "CITY_CODE": null, "XK_COMPLETE_DATE": {"date": 7, "day": 0, "hours": 0, "minutes": 0, "month": 1, "nanos": 0, "seconds": 0, "time": 1612627200000, "timezoneOffset": -480, "year": 121}, "XK_DATE": "2026-02-06", "QF_MANAGER_NAME": "广东省药品监督管理局", "BUSINESS_LICENSE_NUMBER": "91440605MA55MKAH84", "XC_DATE": "2021-02-07", "NUM_": 361}, {"ID": "67c16bda8c3d4102b15e5a42be104c4f", "EPS_NAME": "广东仟卓医药科技有限公司", "PRODUCT_SN": "粤妆20210048", "CITY_CODE": null, "XK_COMPLETE_DATE": {"date": 7, "day": 0, "hours": 0, "minutes": 0, "month": 1, "nanos": 0, "seconds": 0, "time": 1612627200000, "timezoneOffset": -480, "year": 121}, "XK_DATE": "2026-02-06", "QF_MANAGER_NAME": "广东省药品监督管理局", "BUSINESS_LICENSE_NUMBER": "91440607MA55FMPJ7Q", "XC_DATE": "2021-02-07", "NUM_": 362}, {"ID": "a724b5acd05e40d1a5b27e254201c89e", "EPS_NAME": "佛山市伯堂生物科技有限公司", "PRODUCT_SN": "粤妆20200078", "CITY_CODE": null, "XK_COMPLETE_DATE": {"date": 7, "day": 0, "hours": 0, "minutes": 0, "month": 1, "nanos": 0, "seconds": 0, "time": 1612627200000, "timezoneOffset": -480, "year": 121}, "XK_DATE": "2025-05-19", "QF_MANAGER_NAME": "广东省药品监督管理局", "BUSINESS_LICENSE_NUMBER": "91440607MA52UX2W6P", "XC_DATE": "2021-02-07", "NUM_": 363}, {"ID": "9a231b37921b49d58fc72db0f517b15b", "EPS_NAME": "广州泓美化妆品有限公司", "PRODUCT_SN": "粤妆20160789", "CITY_CODE": null, "XK_COMPLETE_DATE": {"date": 7, "day": 0, "hours": 0, "minutes": 0, "month": 1, "nanos": 0, "seconds": 0, "time": 1612627200000, "timezoneOffset": -480, "year": 121}, "XK_DATE": "2023-03-13", "QF_MANAGER_NAME": "广东省药品监督管理局", "BUSINESS_LICENSE_NUMBER": "91440111665926721G", "XC_DATE": "2021-02-07", "NUM_": 364}, {"ID": "3a70ff9f20c540eab4728ba4aa9cb249", "EPS_NAME": "广州佐晟化妆品有限公司", "PRODUCT_SN": "粤妆20160311", "CITY_CODE": null, "XK_COMPLETE_DATE": {"date": 7, "day": 0, "hours": 0, "minutes": 0, "month": 1, "nanos": 0, "seconds": 0, "time": 1612627200000, "timezoneOffset": -480, "year": 121}, "XK_DATE": "2026-02-06", "QF_MANAGER_NAME": "广东省药品监督管理局", "BUSINESS_LICENSE_NUMBER": "914401846832761956", "XC_DATE": "2021-02-07", "NUM_": 365}, {"ID": "e387aa1c8a8649ce8073edc6cc342ca7", "EPS_NAME": "广州卓芬化妆品有限公司", "PRODUCT_SN": "粤妆20160110", "CITY_CODE": null, "XK_COMPLETE_DATE": {"date": 7, "day": 0, "hours": 0, "minutes": 0, "month": 1, "nanos": 0, "seconds": 0, "time": 1612627200000, "timezoneOffset": -480, "year": 121}, "XK_DATE": "2026-02-06", "QF_MANAGER_NAME": "广东省药品监督管理局", "BUSINESS_LICENSE_NUMBER": "91440114767665307D", "XC_DATE": "2021-02-07", "NUM_": 366}, {"ID": "725fdcf6938049e6ac0e8aff0c23f43f", "EPS_NAME": "上海中匡生物科技有限公司", "PRODUCT_SN": "沪妆20210001", "CITY_CODE": null, "XK_COMPLETE_DATE": {"date": 7, "day": 0, "hours": 0, "minutes": 0, "month": 1, "nanos": 0, "seconds": 0, "time": 1612627200000, "timezoneOffset": -480, "year": 121}, "XK_DATE": "2026-02-06", "QF_MANAGER_NAME": "上海市药品监督管理局", "BUSINESS_LICENSE_NUMBER": "91310114MA1GTEXC85", "XC_DATE": "2021-02-07", "NUM_": 367}, {"ID": "578e5c1995174c9c99e9871f42ba47a9", "EPS_NAME": "上海赵小蝶化妆品有限公司", "PRODUCT_SN": "沪妆20160141", "CITY_CODE": null, "XK_COMPLETE_DATE": {"date": 7, "day": 0, "hours": 0, "minutes": 0, "month": 1, "nanos": 0, "seconds": 0, "time": 1612627200000, "timezoneOffset": -480, "year": 121}, "XK_DATE": "2021-12-11", "QF_MANAGER_NAME": "上海市药品监督管理局", "BUSINESS_LICENSE_NUMBER": "91310000607259334Q", "XC_DATE": "2021-02-07", "NUM_": 368}, {"ID": "4a0ed23460ff4b7caac80d49bf5d010f", "EPS_NAME": "安徽鹊佗堂中药科技有限公司", "PRODUCT_SN": "皖妆20210004", "CITY_CODE": "227", "XK_COMPLETE_DATE": {"date": 6, "day": 6, "hours": 0, "minutes": 0, "month": 1, "nanos": 0, "seconds": 0, "time": 1612540800000, "timezoneOffset": -480, "year": 121}, "XK_DATE": "2026-02-05", "QF_MANAGER_NAME": "安徽省药品监督管理局", "BUSINESS_LICENSE_NUMBER": "91341322MA2RABQW7P", "XC_DATE": "2021-02-06", "NUM_": 369}, {"ID": "2eeaede8e08543759478fae8a0a38351", "EPS_NAME": "中健泰克生物科技有限公司", "PRODUCT_SN": "皖妆20210003", "CITY_CODE": "225", "XK_COMPLETE_DATE": {"date": 6, "day": 6, "hours": 0, "minutes": 0, "month": 1, "nanos": 0, "seconds": 0, "time": 1612540800000, "timezoneOffset": -480, "year": 121}, "XK_DATE": "2026-02-05", "QF_MANAGER_NAME": "安徽省药品监督管理局", "BUSINESS_LICENSE_NUMBER": "91340500MA2RR34G76", "XC_DATE": "2021-02-06", "NUM_": 370}, {"ID": "6fcbf78b70c641fba96dde1c15682465", "EPS_NAME": "广州市美亮生物科技有限公司", "PRODUCT_SN": "粤妆20210047", "CITY_CODE": null, "XK_COMPLETE_DATE": {"date": 5, "day": 5, "hours": 0, "minutes": 0, "month": 1, "nanos": 0, "seconds": 0, "time": 1612454400000, "timezoneOffset": -480, "year": 121}, "XK_DATE": "2026-02-04", "QF_MANAGER_NAME": "广东省药品监督管理局", "BUSINESS_LICENSE_NUMBER": "91440101MA9UMUL81M", "XC_DATE": "2021-02-05", "NUM_": 371}, {"ID": "661dc40aa37c4dae9abae0fca4819a6b", "EPS_NAME": "广州海之珠化妆品有限公司", "PRODUCT_SN": "粤妆20210045", "CITY_CODE": null, "XK_COMPLETE_DATE": {"date": 5, "day": 5, "hours": 0, "minutes": 0, "month": 1, "nanos": 0, "seconds": 0, "time": 1612454400000, "timezoneOffset": -480, "year": 121}, "XK_DATE": "2026-02-04", "QF_MANAGER_NAME": "广东省药品监督管理局", "BUSINESS_LICENSE_NUMBER": "91440101MA9UP7JB7Y", "XC_DATE": "2021-02-05", "NUM_": 372}, {"ID": "1a082ad72d2a402b87b742b166a5517f", "EPS_NAME": "广州市达戈彩美容科技有限公司", "PRODUCT_SN": "粤妆20210044", "CITY_CODE": null, "XK_COMPLETE_DATE": {"date": 5, "day": 5, "hours": 0, "minutes": 0, "month": 1, "nanos": 0, "seconds": 0, "time": 1612454400000, "timezoneOffset": -480, "year": 121}, "XK_DATE": "2026-02-04", "QF_MANAGER_NAME": "广东省药品监督管理局", "BUSINESS_LICENSE_NUMBER": "91440111327591260Y", "XC_DATE": "2021-02-05", "NUM_": 373}, {"ID": "f2b997b083994518beca5d618b16db11", "EPS_NAME": "广州甄俪生物科技有限公司", "PRODUCT_SN": "粤妆20210043", "CITY_CODE": null, "XK_COMPLETE_DATE": {"date": 5, "day": 5, "hours": 0, "minutes": 0, "month": 1, "nanos": 0, "seconds": 0, "time": 1612454400000, "timezoneOffset": -480, "year": 121}, "XK_DATE": "2026-02-04", "QF_MANAGER_NAME": "广东省药品监督管理局", "BUSINESS_LICENSE_NUMBER": "91440101MA5AP73A1H", "XC_DATE": "2021-02-05", "NUM_": 374}, {"ID": "716a35dc778548bdbcdb3b1faf2efe35", "EPS_NAME": "广州兰蝶生物科技有限公司", "PRODUCT_SN": "粤妆20180073", "CITY_CODE": null, "XK_COMPLETE_DATE": {"date": 5, "day": 5, "hours": 0, "minutes": 0, "month": 1, "nanos": 0, "seconds": 0, "time": 1612454400000, "timezoneOffset": -480, "year": 121}, "XK_DATE": "2023-02-25", "QF_MANAGER_NAME": "广东省药品监督管理局", "BUSINESS_LICENSE_NUMBER": "91440101MA59L7HR79", "XC_DATE": "2021-02-05", "NUM_": 375}], "orderBy": "createDate", "orderType": "desc", "pageCount": 373, "pageNumber": 25, "pageSize": 15, "property": "", "totalCount": 5590}