{"filesize": "", "keyword": "", "list": [{"ID": "9286aaf526494fe48c3c5c637462946c", "EPS_NAME": "广州暨宣生物科技有限公司", "PRODUCT_SN": "粤妆20161741", "CITY_CODE": null, "XK_COMPLETE_DATE": {"date": 5, "day": 5, "hours": 0, "minutes": 0, "month": 1, "nanos": 0, "seconds": 0, "time": 1612454400000, "timezoneOffset": -480, "year": 121}, "XK_DATE": "2021-12-26", "QF_MANAGER_NAME": "广东省药品监督管理局", "BUSINESS_LICENSE_NUMBER": "91440111589522820D", "XC_DATE": "2021-02-05", "NUM_": 376}, {"ID": "99683065f0874b88a112bb7fa0028516", "EPS_NAME": "广东韩之秀化妆品有限公司", "PRODUCT_SN": "粤妆20161004", "CITY_CODE": null, "XK_COMPLETE_DATE": {"date": 5, "day": 5, "hours": 0, "minutes": 0, "month": 1, "nanos": 0, "seconds": 0, "time": 1612454400000, "timezoneOffset": -480, "year": 121}, "XK_DATE": "2024-07-28", "QF_MANAGER_NAME": "广东省药品监督管理局", "BUSINESS_LICENSE_NUMBER": "91440111320963594M", "XC_DATE": "2021-02-05", "NUM_": 377}, {"ID": "802aacacdd3e4ee1a3de9c9faf890b0f", "EPS_NAME": "广州睿新生物科技有限公司", "PRODUCT_SN": "粤妆20160286", "CITY_CODE": null, "XK_COMPLETE_DATE": {"date": 5, "day": 5, "hours": 0, "minutes": 0, "month": 1, "nanos": 0, "seconds": 0, "time": 1612454400000, "timezoneOffset": -480, "year": 121}, "XK_DATE": "2026-02-04", "QF_MANAGER_NAME": "广东省药品监督管理局", "BUSINESS_LICENSE_NUMBER": "914401145876483664", "XC_DATE": "2021-02-05", "NUM_": 378}, {"ID": "e395808e73d14ef2979ba2e9b56e02d8", "EPS_NAME": "广州雅纯化妆品制造有限公司", "PRODUCT_SN": "粤妆20160017", "CITY_CODE": null, "XK_COMPLETE_DATE": {"date": 5, "day": 5, "hours": 0, "minutes": 0, "month": 1, "nanos": 0, "seconds": 0, "time": 1612454400000, "timezoneOffset": -480, "year": 121}, "XK_DATE": "2026-02-04", "QF_MANAGER_NAME": "广东省药品监督管理局", "BUSINESS_LICENSE_NUMBER": "914401117695401108", "XC_DATE": "2021-02-05", "NUM_": 379}, {"ID": "1f7864aa59974e7480a280135f7b29ab", "EPS_NAME": "汕头市万丽生物科技有限公司", "PRODUCT_SN": "粤妆20160014", "CITY_CODE": null, "XK_COMPLETE_DATE": {"date": 5, "day": 5, "hours": 0, "minutes": 0, "month": 1, "nanos": 0, "seconds": 0, "time": 1612454400000, "timezoneOffset": -480, "year": 121}, "XK_DATE": "2026-02-04", "QF_MANAGER_NAME": "广东省药品监督管理局", "BUSINESS_LICENSE_NUMBER": "91440507MA4UHW5U9H", "XC_DATE": "2021-02-05", "NUM_": 380}, {"ID": "92dac1d996f746a6ae3367a9f6a2e056", "EPS_NAME": "广州市娇兰化妆品有限公司", "PRODUCT_SN": "粤妆20160010", "CITY_CODE": null, "XK_COMPLETE_DATE": {"date": 5, "day": 5, "hours": 0, "minutes": 0, "month": 1, "nanos": 0, "seconds": 0, "time": 1612454400000, "timezoneOffset": -480, "year": 121}, "XK_DATE": "2026-02-04", "QF_MANAGER_NAME": "广东省药品监督管理局", "BUSINESS_LICENSE_NUMBER": "91440111716307278E", "XC_DATE": "2021-02-05", "NUM_": 381}, {"ID": "58549937e8224397bb0462225740e7c5", "EPS_NAME": "九尾白狐（天津）生物科技有限公司", "PRODUCT_SN": "津妆20210004", "CITY_CODE": "417", "XK_COMPLETE_DATE": {"date": 5, "day": 5, "hours": 0, "minutes": 0, "month": 1, "nanos": 0, "seconds": 0, "time": 1612454400000, "timezoneOffset": -480, "year": 121}, "XK_DATE": "2026-02-05", "QF_MANAGER_NAME": "天津市药品监督管理局", "BUSINESS_LICENSE_NUMBER": "91120116MA07696RX8", "XC_DATE": "2021-02-05", "NUM_": 382}, {"ID": "b6693c7a34814f6f9bcb7deacf075da9", "EPS_NAME": "上海创元化妆品有限公司", "PRODUCT_SN": "沪妆20160004", "CITY_CODE": null, "XK_COMPLETE_DATE": {"date": 5, "day": 5, "hours": 0, "minutes": 0, "month": 1, "nanos": 0, "seconds": 0, "time": 1612454400000, "timezoneOffset": -480, "year": 121}, "XK_DATE": "2021-08-31", "QF_MANAGER_NAME": "上海市药品监督管理局", "BUSINESS_LICENSE_NUMBER": "91310000550011185B", "XC_DATE": "2021-02-05", "NUM_": 383}, {"ID": "9566574a08d54e6a81b13ae03bb28a0b", "EPS_NAME": "江西省安可研生物科技有限公司", "PRODUCT_SN": "赣妆20210002", "CITY_CODE": "98", "XK_COMPLETE_DATE": {"date": 5, "day": 5, "hours": 0, "minutes": 0, "month": 1, "nanos": 0, "seconds": 0, "time": 1612454400000, "timezoneOffset": -480, "year": 121}, "XK_DATE": "2026-02-10", "QF_MANAGER_NAME": "江西省药品监督管理局", "BUSINESS_LICENSE_NUMBER": "91360923MA364UXF41", "XC_DATE": "2021-02-05", "NUM_": 384}, {"ID": "929b97dd3bd74c3da7aebf6c5232a1f8", "EPS_NAME": "义乌市莎达化妆品有限公司", "PRODUCT_SN": "浙妆20160236", "CITY_CODE": null, "XK_COMPLETE_DATE": {"date": 4, "day": 4, "hours": 0, "minutes": 0, "month": 1, "nanos": 0, "seconds": 0, "time": 1612368000000, "timezoneOffset": -480, "year": 121}, "XK_DATE": "2021-12-14", "QF_MANAGER_NAME": "浙江省药品监督管理局", "BUSINESS_LICENSE_NUMBER": "91330782680707615W", "XC_DATE": "2021-02-04", "NUM_": 385}, {"ID": "d063d000f20a447ba4405fea6f3660ec", "EPS_NAME": "云南白药集团健康产品有限公司", "PRODUCT_SN": "云妆20160016", "CITY_CODE": "204", "XK_COMPLETE_DATE": {"date": 4, "day": 4, "hours": 0, "minutes": 0, "month": 1, "nanos": 0, "seconds": 0, "time": 1612368000000, "timezoneOffset": -480, "year": 121}, "XK_DATE": "2021-11-02", "QF_MANAGER_NAME": "云南省食品药品监督管理局", "BUSINESS_LICENSE_NUMBER": "91530100216583428N", "XC_DATE": "2021-02-04", "NUM_": 386}, {"ID": "7aa5554ce10c4ee4bcde4ad4da41a9ea", "EPS_NAME": "云南白药集团股份有限公司", "PRODUCT_SN": "云妆20160015", "CITY_CODE": "204", "XK_COMPLETE_DATE": {"date": 4, "day": 4, "hours": 0, "minutes": 0, "month": 1, "nanos": 0, "seconds": 0, "time": 1612368000000, "timezoneOffset": -480, "year": 121}, "XK_DATE": "2021-11-02", "QF_MANAGER_NAME": "云南省食品药品监督管理局", "BUSINESS_LICENSE_NUMBER": "9153000021652214XX", "XC_DATE": "2021-02-04", "NUM_": 387}, {"ID": "a8790c40f2dd44f5abf704354f9a6125", "EPS_NAME": "荣鼎（广东）生物科技有限公司", "PRODUCT_SN": "粤妆20210041", "CITY_CODE": null, "XK_COMPLETE_DATE": {"date": 4, "day": 4, "hours": 0, "minutes": 0, "month": 1, "nanos": 0, "seconds": 0, "time": 1612368000000, "timezoneOffset": -480, "year": 121}, "XK_DATE": "2026-02-03", "QF_MANAGER_NAME": "广东省药品监督管理局", "BUSINESS_LICENSE_NUMBER": "91441881MA54E7FM05", "XC_DATE": "2021-02-04", "NUM_": 388}, {"ID": "017ba23184174b1f89df0a2ebf973664", "EPS_NAME": "常州百瑞吉生物医药有限公司", "PRODUCT_SN": "苏妆20190001", "CITY_CODE": "91", "XK_COMPLETE_DATE": {"date": 4, "day": 4, "hours": 0, "minutes": 0, "month": 1, "nanos": 0, "seconds": 0, "time": 1612368000000, "timezoneOffset": -480, "year": 121}, "XK_DATE": "2024-01-14", "QF_MANAGER_NAME": "江苏省药品监督管理局", "BUSINESS_LICENSE_NUMBER": "91320412675465930M", "XC_DATE": "2021-02-04", "NUM_": 389}, {"ID": "0ecbf8a860ce4720b2f4fcdac5b3281b", "EPS_NAME": "江苏创铭医疗器械有限公司", "PRODUCT_SN": "苏妆20160096", "CITY_CODE": "91", "XK_COMPLETE_DATE": {"date": 4, "day": 4, "hours": 0, "minutes": 0, "month": 1, "nanos": 0, "seconds": 0, "time": 1612368000000, "timezoneOffset": -480, "year": 121}, "XK_DATE": "2021-10-14", "QF_MANAGER_NAME": "江苏省药品监督管理局", "BUSINESS_LICENSE_NUMBER": "91320412094071159G", "XC_DATE": "2021-02-04", "NUM_": 390}], "orderBy": "createDate", "orderType": "desc", "pageCount": 373, "pageNumber": 26, "pageSize": 15, "property": "", "totalCount": 5590}