{"filesize": "", "keyword": "", "list": [{"ID": "825bef44a1ea459da94a3c7b3956aefd", "EPS_NAME": "资生堂中信化妆品有限公司", "PRODUCT_SN": "沪妆20160010", "CITY_CODE": null, "XK_COMPLETE_DATE": {"date": 4, "day": 4, "hours": 0, "minutes": 0, "month": 1, "nanos": 0, "seconds": 0, "time": 1612368000000, "timezoneOffset": -480, "year": 121}, "XK_DATE": "2021-09-13", "QF_MANAGER_NAME": "上海市药品监督管理局", "BUSINESS_LICENSE_NUMBER": "9131000060738416XK", "XC_DATE": "2021-02-04", "NUM_": 391}, {"ID": "7ecc897cb0e3454b8eb136362286f9a8", "EPS_NAME": "巧妆生物科技（广东）有限公司", "PRODUCT_SN": "粤妆20210042", "CITY_CODE": null, "XK_COMPLETE_DATE": {"date": 3, "day": 3, "hours": 0, "minutes": 0, "month": 1, "nanos": 0, "seconds": 0, "time": 1612281600000, "timezoneOffset": -480, "year": 121}, "XK_DATE": "2026-02-02", "QF_MANAGER_NAME": "广东省药品监督管理局", "BUSINESS_LICENSE_NUMBER": "91440607MA54NGKE0P", "XC_DATE": "2021-02-03", "NUM_": 392}, {"ID": "434d0f526e864a239df4136e6eee1d13", "EPS_NAME": "广东芊悦药业有限公司", "PRODUCT_SN": "粤妆20210040", "CITY_CODE": null, "XK_COMPLETE_DATE": {"date": 3, "day": 3, "hours": 0, "minutes": 0, "month": 1, "nanos": 0, "seconds": 0, "time": 1612281600000, "timezoneOffset": -480, "year": 121}, "XK_DATE": "2026-02-02", "QF_MANAGER_NAME": "广东省药品监督管理局", "BUSINESS_LICENSE_NUMBER": "91440607MA54U8K37Y", "XC_DATE": "2021-02-03", "NUM_": 393}, {"ID": "f683406209e94e59a509b29144018797", "EPS_NAME": "广东丝美芳华生物科技有限公司", "PRODUCT_SN": "粤妆20210039", "CITY_CODE": null, "XK_COMPLETE_DATE": {"date": 3, "day": 3, "hours": 0, "minutes": 0, "month": 1, "nanos": 0, "seconds": 0, "time": 1612281600000, "timezoneOffset": -480, "year": 121}, "XK_DATE": "2026-02-02", "QF_MANAGER_NAME": "广东省药品监督管理局", "BUSINESS_LICENSE_NUMBER": "91440101MA9UPRDG4G", "XC_DATE": "2021-02-03", "NUM_": 394}, {"ID": "c3854166c00f46b5b29fe2a55d3df929", "EPS_NAME": "广东彤姿生物科技有限公司", "PRODUCT_SN": "粤妆20210037", "CITY_CODE": null, "XK_COMPLETE_DATE": {"date": 3, "day": 3, "hours": 0, "minutes": 0, "month": 1, "nanos": 0, "seconds": 0, "time": 1612281600000, "timezoneOffset": -480, "year": 121}, "XK_DATE": "2026-02-02", "QF_MANAGER_NAME": "广东省药品监督管理局", "BUSINESS_LICENSE_NUMBER": "91440607MA55AD6D5C", "XC_DATE": "2021-02-03", "NUM_": 395}, {"ID": "ae5a0448dcb34d149a5eb13516171fa1", "EPS_NAME": "纯沅（佛山）医药生物科技有限公司", "PRODUCT_SN": "粤妆20210036", "CITY_CODE": null, "XK_COMPLETE_DATE": {"date": 3, "day": 3, "hours": 0, "minutes": 0, "month": 1, "nanos": 0, "seconds": 0, "time": 1612281600000, "timezoneOffset": -480, "year": 121}, "XK_DATE": "2026-02-02", "QF_MANAGER_NAME": "广东省药品监督管理局", "BUSINESS_LICENSE_NUMBER": "91440607MA553K1F0P", "XC_DATE": "2021-02-03", "NUM_": 396}, {"ID": "8fdb4a74483e48d8a63bbea1bfd1fc95", "EPS_NAME": "广东创雅生物科技有限公司", "PRODUCT_SN": "粤妆20210035", "CITY_CODE": null, "XK_COMPLETE_DATE": {"date": 3, "day": 3, "hours": 0, "minutes": 0, "month": 1, "nanos": 0, "seconds": 0, "time": 1612281600000, "timezoneOffset": -480, "year": 121}, "XK_DATE": "2026-02-02", "QF_MANAGER_NAME": "广东省药品监督管理局", "BUSINESS_LICENSE_NUMBER": "91440513MA55J3GD0U", "XC_DATE": "2021-02-03", "NUM_": 397}, {"ID": "7e6fc218e4cd4f0f833447bfad198848", "EPS_NAME": "陆丰市雅宝日用品有限公司", "PRODUCT_SN": "粤妆20200109", "CITY_CODE": null, "XK_COMPLETE_DATE": {"date": 3, "day": 3, "hours": 0, "minutes": 0, "month": 1, "nanos": 0, "seconds": 0, "time": 1612281600000, "timezoneOffset": -480, "year": 121}, "XK_DATE": "2025-07-01", "QF_MANAGER_NAME": "广东省药品监督管理局", "BUSINESS_LICENSE_NUMBER": "91441581MA54D2GAXX", "XC_DATE": "2021-02-03", "NUM_": 398}, {"ID": "c3ae6ecabbcf4ba68038321b80819753", "EPS_NAME": "佛山拜澳生物科技有限公司", "PRODUCT_SN": "粤妆20160229", "CITY_CODE": null, "XK_COMPLETE_DATE": {"date": 3, "day": 3, "hours": 0, "minutes": 0, "month": 1, "nanos": 0, "seconds": 0, "time": 1612281600000, "timezoneOffset": -480, "year": 121}, "XK_DATE": "2026-02-02", "QF_MANAGER_NAME": "广东省药品监督管理局", "BUSINESS_LICENSE_NUMBER": "91440607579693554T", "XC_DATE": "2021-02-03", "NUM_": 399}, {"ID": "b59a0684aeef4a7daea77246cc400253", "EPS_NAME": "苏州道富日化有限公司", "PRODUCT_SN": "苏妆20160143", "CITY_CODE": "84", "XK_COMPLETE_DATE": {"date": 3, "day": 3, "hours": 0, "minutes": 0, "month": 1, "nanos": 0, "seconds": 0, "time": 1612281600000, "timezoneOffset": -480, "year": 121}, "XK_DATE": "2022-08-21", "QF_MANAGER_NAME": "江苏省药品监督管理局", "BUSINESS_LICENSE_NUMBER": "91320585782722074X", "XC_DATE": "2021-02-03", "NUM_": 400}, {"ID": "e55b24115490418a88940b705ad79beb", "EPS_NAME": "伽蓝（集团）股份有限公司", "PRODUCT_SN": "沪妆20160003", "CITY_CODE": null, "XK_COMPLETE_DATE": {"date": 3, "day": 3, "hours": 0, "minutes": 0, "month": 1, "nanos": 0, "seconds": 0, "time": 1612281600000, "timezoneOffset": -480, "year": 121}, "XK_DATE": "2021-08-31", "QF_MANAGER_NAME": "上海市药品监督管理局", "BUSINESS_LICENSE_NUMBER": "913100007585710341", "XC_DATE": "2021-02-03", "NUM_": 401}, {"ID": "2244eaf4d34240fba188c3237a46e32e", "EPS_NAME": "哈尔滨运美达生物科技有限公司", "PRODUCT_SN": "黑妆20170004", "CITY_CODE": "266", "XK_COMPLETE_DATE": {"date": 3, "day": 3, "hours": 0, "minutes": 0, "month": 1, "nanos": 0, "seconds": 0, "time": 1612281600000, "timezoneOffset": -480, "year": 121}, "XK_DATE": "2022-12-06", "QF_MANAGER_NAME": "黑龙江省药品监督管理局", "BUSINESS_LICENSE_NUMBER": "91230125749539884G", "XC_DATE": "2021-02-03", "NUM_": 402}, {"ID": "31333bbcb5d24370b2625cfe1848ce6e", "EPS_NAME": "苏州悦肤达医疗科技有限公司", "PRODUCT_SN": "苏妆20210008", "CITY_CODE": "84", "XK_COMPLETE_DATE": {"date": 2, "day": 2, "hours": 0, "minutes": 0, "month": 1, "nanos": 0, "seconds": 0, "time": 1612195200000, "timezoneOffset": -480, "year": 121}, "XK_DATE": "2026-02-01", "QF_MANAGER_NAME": "江苏省药品监督管理局", "BUSINESS_LICENSE_NUMBER": "91320509MA20EQ0Y6N", "XC_DATE": "2021-02-02", "NUM_": 403}, {"ID": "f9b93ef62c984148b289ab30c02ebb66", "EPS_NAME": "大连美乐生物技术开发有限公司", "PRODUCT_SN": "辽妆20160014", "CITY_CODE": "287", "XK_COMPLETE_DATE": {"date": 2, "day": 2, "hours": 0, "minutes": 0, "month": 1, "nanos": 0, "seconds": 0, "time": 1612195200000, "timezoneOffset": -480, "year": 121}, "XK_DATE": "2021-08-24", "QF_MANAGER_NAME": "辽宁省药品监督管理局", "BUSINESS_LICENSE_NUMBER": "91210231679990919K", "XC_DATE": "2021-02-02", "NUM_": 404}, {"ID": "3be38abf5be44cfda9abdae1feaa3272", "EPS_NAME": "爱茉莉化妆品（上海）有限公司", "PRODUCT_SN": "沪妆20160127", "CITY_CODE": null, "XK_COMPLETE_DATE": {"date": 2, "day": 2, "hours": 0, "minutes": 0, "month": 1, "nanos": 0, "seconds": 0, "time": 1612195200000, "timezoneOffset": -480, "year": 121}, "XK_DATE": "2021-12-11", "QF_MANAGER_NAME": "上海市药品监督管理局", "BUSINESS_LICENSE_NUMBER": "91310000703013182F", "XC_DATE": "2021-02-02", "NUM_": 405}], "orderBy": "createDate", "orderType": "desc", "pageCount": 373, "pageNumber": 27, "pageSize": 15, "property": "", "totalCount": 5590}