{"filesize": "", "keyword": "", "list": [{"ID": "7258b818d13a4b21b39766aff2a90a5c", "EPS_NAME": "上海彤颜实业有限公司", "PRODUCT_SN": "沪妆20160018", "CITY_CODE": null, "XK_COMPLETE_DATE": {"date": 2, "day": 2, "hours": 0, "minutes": 0, "month": 1, "nanos": 0, "seconds": 0, "time": 1612195200000, "timezoneOffset": -480, "year": 121}, "XK_DATE": "2021-09-19", "QF_MANAGER_NAME": "上海市药品监督管理局", "BUSINESS_LICENSE_NUMBER": "913101207862606715", "XC_DATE": "2021-02-02", "NUM_": 406}, {"ID": "03f52d584b954abdae1e39e98a11071c", "EPS_NAME": "苏州尚美国际化妆品有限公司", "PRODUCT_SN": "苏妆20160001", "CITY_CODE": "84", "XK_COMPLETE_DATE": {"date": 1, "day": 1, "hours": 0, "minutes": 0, "month": 1, "nanos": 0, "seconds": 0, "time": 1612108800000, "timezoneOffset": -480, "year": 121}, "XK_DATE": "2026-01-31", "QF_MANAGER_NAME": "江苏省药品监督管理局", "BUSINESS_LICENSE_NUMBER": "91320594608207624W", "XC_DATE": "2021-02-01", "NUM_": 407}, {"ID": "0ea2cdfba3384769a1cbce9bd5e87489", "EPS_NAME": "山东宇森生物科技有限公司", "PRODUCT_SN": "鲁妆20210005", "CITY_CODE": null, "XK_COMPLETE_DATE": {"date": 1, "day": 1, "hours": 0, "minutes": 0, "month": 1, "nanos": 0, "seconds": 0, "time": 1612108800000, "timezoneOffset": -480, "year": 121}, "XK_DATE": "2026-01-31", "QF_MANAGER_NAME": "山东省药品监督管理局", "BUSINESS_LICENSE_NUMBER": "91370611MA3RBL5G70", "XC_DATE": "2021-02-01", "NUM_": 408}, {"ID": "55b35f2b72f949f88f2111e1c12d7347", "EPS_NAME": "山东博科医用材料有限公司", "PRODUCT_SN": "鲁妆20210004", "CITY_CODE": null, "XK_COMPLETE_DATE": {"date": 1, "day": 1, "hours": 0, "minutes": 0, "month": 1, "nanos": 0, "seconds": 0, "time": 1612108800000, "timezoneOffset": -480, "year": 121}, "XK_DATE": "2026-01-31", "QF_MANAGER_NAME": "山东省药品监督管理局", "BUSINESS_LICENSE_NUMBER": "91370400MA3RWEGF44", "XC_DATE": "2021-02-01", "NUM_": 409}, {"ID": "957c71a3508547fd9809370bb37d1338", "EPS_NAME": "山东万亿康生物科技有限公司", "PRODUCT_SN": "鲁妆20210003", "CITY_CODE": null, "XK_COMPLETE_DATE": {"date": 1, "day": 1, "hours": 0, "minutes": 0, "month": 1, "nanos": 0, "seconds": 0, "time": 1612108800000, "timezoneOffset": -480, "year": 121}, "XK_DATE": "2026-01-31", "QF_MANAGER_NAME": "山东省药品监督管理局", "BUSINESS_LICENSE_NUMBER": "91371329MA3T8UCG13", "XC_DATE": "2021-02-01", "NUM_": 410}, {"ID": "fdd2812002284a93868a43d5557cdb49", "EPS_NAME": "山东卓霖医药科技有限公司", "PRODUCT_SN": "鲁妆20210002", "CITY_CODE": null, "XK_COMPLETE_DATE": {"date": 1, "day": 1, "hours": 0, "minutes": 0, "month": 1, "nanos": 0, "seconds": 0, "time": 1612108800000, "timezoneOffset": -480, "year": 121}, "XK_DATE": "2026-01-31", "QF_MANAGER_NAME": "山东省药品监督管理局", "BUSINESS_LICENSE_NUMBER": "91370724MA3RGM7K2W", "XC_DATE": "2021-02-01", "NUM_": 411}, {"ID": "2b372ae421ff44ae826de10e75e97124", "EPS_NAME": "天津锦盛堂科技有限公司", "PRODUCT_SN": "津妆20210003", "CITY_CODE": "415", "XK_COMPLETE_DATE": {"date": 1, "day": 1, "hours": 0, "minutes": 0, "month": 1, "nanos": 0, "seconds": 0, "time": 1612108800000, "timezoneOffset": -480, "year": 121}, "XK_DATE": "2026-02-01", "QF_MANAGER_NAME": "天津市药品监督管理局", "BUSINESS_LICENSE_NUMBER": "91120101MA06YXF031", "XC_DATE": "2021-02-01", "NUM_": 412}, {"ID": "ef94adb9480645b6baa3375fa544225b", "EPS_NAME": "盈创（天津）科技发展有限公司", "PRODUCT_SN": "津妆20210002", "CITY_CODE": "417", "XK_COMPLETE_DATE": {"date": 1, "day": 1, "hours": 0, "minutes": 0, "month": 1, "nanos": 0, "seconds": 0, "time": 1612108800000, "timezoneOffset": -480, "year": 121}, "XK_DATE": "2026-02-01", "QF_MANAGER_NAME": "天津市药品监督管理局", "BUSINESS_LICENSE_NUMBER": "91120116MA072T3W4Q", "XC_DATE": "2021-02-01", "NUM_": 413}, {"ID": "b16cef5d69244eadab1c56922dd279d4", "EPS_NAME": "天津奥莉天然化妆品有限公司", "PRODUCT_SN": "津妆20160054", "CITY_CODE": "415", "XK_COMPLETE_DATE": {"date": 1, "day": 1, "hours": 0, "minutes": 0, "month": 1, "nanos": 0, "seconds": 0, "time": 1612108800000, "timezoneOffset": -480, "year": 121}, "XK_DATE": "2021-12-26", "QF_MANAGER_NAME": "天津市药品监督管理局", "BUSINESS_LICENSE_NUMBER": "91120116600891257R", "XC_DATE": "2021-02-01", "NUM_": 414}, {"ID": "aa6e7e1a746742cbbd3156668eb0e02a", "EPS_NAME": "广州凯淇化妆品有限公司", "PRODUCT_SN": "粤妆20161555", "CITY_CODE": null, "XK_COMPLETE_DATE": {"date": 29, "day": 5, "hours": 0, "minutes": 0, "month": 0, "nanos": 0, "seconds": 0, "time": 1611849600000, "timezoneOffset": -480, "year": 121}, "XK_DATE": "2026-01-28", "QF_MANAGER_NAME": "广东省药品监督管理局", "BUSINESS_LICENSE_NUMBER": "91440114685239910J", "XC_DATE": "2021-01-29", "NUM_": 415}, {"ID": "9be6efae0f1d41a99db19413e51b8825", "EPS_NAME": "广州市馨雨化妆品有限公司", "PRODUCT_SN": "粤妆20160074", "CITY_CODE": null, "XK_COMPLETE_DATE": {"date": 29, "day": 5, "hours": 0, "minutes": 0, "month": 0, "nanos": 0, "seconds": 0, "time": 1611849600000, "timezoneOffset": -480, "year": 121}, "XK_DATE": "2026-01-28", "QF_MANAGER_NAME": "广东省药品监督管理局", "BUSINESS_LICENSE_NUMBER": "91440111668130534R", "XC_DATE": "2021-01-29", "NUM_": 416}, {"ID": "a1ca5d79f6fe4a2282153fda486c2986", "EPS_NAME": "福建金亿文化用品有限公司", "PRODUCT_SN": "闽妆20170002", "CITY_CODE": "143", "XK_COMPLETE_DATE": {"date": 29, "day": 5, "hours": 0, "minutes": 0, "month": 0, "nanos": 0, "seconds": 0, "time": 1611849600000, "timezoneOffset": -480, "year": 121}, "XK_DATE": "2022-01-05", "QF_MANAGER_NAME": "福建省药品监督管理局", "BUSINESS_LICENSE_NUMBER": "9135072459788424XQ", "XC_DATE": "2021-01-29", "NUM_": 417}, {"ID": "c161d448291c4b149d521260a1f0835a", "EPS_NAME": "佳宁化妆品（福 州）有限公司", "PRODUCT_SN": "闽妆20160010", "CITY_CODE": "135", "XK_COMPLETE_DATE": {"date": 29, "day": 5, "hours": 0, "minutes": 0, "month": 0, "nanos": 0, "seconds": 0, "time": 1611849600000, "timezoneOffset": -480, "year": 121}, "XK_DATE": "2021-09-12", "QF_MANAGER_NAME": "福建省药品监督管理局", "BUSINESS_LICENSE_NUMBER": "913501006113053135", "XC_DATE": "2021-01-29", "NUM_": 418}, {"ID": "d502dbabcdfc4f5d924c81b37b16d468", "EPS_NAME": "山东暖暖艾中药材进出口有限公司", "PRODUCT_SN": "鲁妆20200024", "CITY_CODE": null, "XK_COMPLETE_DATE": {"date": 29, "day": 5, "hours": 0, "minutes": 0, "month": 0, "nanos": 0, "seconds": 0, "time": 1611849600000, "timezoneOffset": -480, "year": 121}, "XK_DATE": "2025-12-08", "QF_MANAGER_NAME": "山东省药品监督管理局", "BUSINESS_LICENSE_NUMBER": "91371326057942525E", "XC_DATE": "2021-01-29", "NUM_": 419}, {"ID": "5ff431ff914349aaabd8215526e251d5", "EPS_NAME": "江西圣美健康科技有限公司", "PRODUCT_SN": "赣妆20210001", "CITY_CODE": "98", "XK_COMPLETE_DATE": {"date": 29, "day": 5, "hours": 0, "minutes": 0, "month": 0, "nanos": 0, "seconds": 0, "time": 1611849600000, "timezoneOffset": -480, "year": 121}, "XK_DATE": "2026-01-28", "QF_MANAGER_NAME": "江西省药品监督管理局", "BUSINESS_LICENSE_NUMBER": "91360925MA395T8LXH", "XC_DATE": "2021-01-29", "NUM_": 420}], "orderBy": "createDate", "orderType": "desc", "pageCount": 373, "pageNumber": 28, "pageSize": 15, "property": "", "totalCount": 5590}