{"filesize": "", "keyword": "", "list": [{"ID": "d647165fcd1a4bdd9809348856f84dac", "EPS_NAME": "成都芳之源生物技术有限公司", "PRODUCT_SN": "川妆20210002", "CITY_CODE": "165", "XK_COMPLETE_DATE": {"date": 29, "day": 5, "hours": 0, "minutes": 0, "month": 0, "nanos": 0, "seconds": 0, "time": 1611849600000, "timezoneOffset": -480, "year": 121}, "XK_DATE": "2026-01-28", "QF_MANAGER_NAME": "四川省药品监督管理局", "BUSINESS_LICENSE_NUMBER": "91510115MA6806Y59R", "XC_DATE": "2021-01-29", "NUM_": 421}, {"ID": "0c6a844c94374911a417bf15dbd89180", "EPS_NAME": "济宁恒康生物医药有限公司", "PRODUCT_SN": "鲁妆20200015", "CITY_CODE": null, "XK_COMPLETE_DATE": {"date": 28, "day": 4, "hours": 0, "minutes": 0, "month": 0, "nanos": 0, "seconds": 0, "time": 1611763200000, "timezoneOffset": -480, "year": 121}, "XK_DATE": "2025-07-22", "QF_MANAGER_NAME": "山东省药品监督管理局", "BUSINESS_LICENSE_NUMBER": "9137082977417811XQ", "XC_DATE": "2021-01-28", "NUM_": 422}, {"ID": "29e1cbc15d444844898952d7f19e0464", "EPS_NAME": "可颐化妆品（上海）有限公司", "PRODUCT_SN": "沪妆20160060", "CITY_CODE": null, "XK_COMPLETE_DATE": {"date": 28, "day": 4, "hours": 0, "minutes": 0, "month": 0, "nanos": 0, "seconds": 0, "time": 1611763200000, "timezoneOffset": -480, "year": 121}, "XK_DATE": "2021-11-10", "QF_MANAGER_NAME": "上海市药品监督管理局", "BUSINESS_LICENSE_NUMBER": "913101206762106144", "XC_DATE": "2021-01-28", "NUM_": 423}, {"ID": "02161d7a256747fbb9e81754de6cec5b", "EPS_NAME": "尊彩生物科技（广州）有限公司", "PRODUCT_SN": "粤妆20210034", "CITY_CODE": null, "XK_COMPLETE_DATE": {"date": 27, "day": 3, "hours": 0, "minutes": 0, "month": 0, "nanos": 0, "seconds": 0, "time": 1611676800000, "timezoneOffset": -480, "year": 121}, "XK_DATE": "2026-01-26", "QF_MANAGER_NAME": "广东省药品监督管理局", "BUSINESS_LICENSE_NUMBER": "91440101MA5CW0XX12", "XC_DATE": "2021-01-27", "NUM_": 424}, {"ID": "57286d6af5914837b0a2afd4b9544733", "EPS_NAME": "广州芭诗朵化妆品科技有限公司", "PRODUCT_SN": "粤妆20210033", "CITY_CODE": null, "XK_COMPLETE_DATE": {"date": 27, "day": 3, "hours": 0, "minutes": 0, "month": 0, "nanos": 0, "seconds": 0, "time": 1611676800000, "timezoneOffset": -480, "year": 121}, "XK_DATE": "2026-01-26", "QF_MANAGER_NAME": "广东省药品监督管理局", "BUSINESS_LICENSE_NUMBER": "91440101MA5CJLUM9A", "XC_DATE": "2021-01-27", "NUM_": 425}, {"ID": "1246978d50094d849fc45defd4d93419", "EPS_NAME": "鼎丞（汕头市）生物科技有限公司", "PRODUCT_SN": "粤妆20210032", "CITY_CODE": null, "XK_COMPLETE_DATE": {"date": 27, "day": 3, "hours": 0, "minutes": 0, "month": 0, "nanos": 0, "seconds": 0, "time": 1611676800000, "timezoneOffset": -480, "year": 121}, "XK_DATE": "2026-01-26", "QF_MANAGER_NAME": "广东省药品监督管理局", "BUSINESS_LICENSE_NUMBER": "91440514MA55DK0G75", "XC_DATE": "2021-01-27", "NUM_": 426}, {"ID": "0b4bd807b9b9497f875ab50db5818d11", "EPS_NAME": "广州柏之翎生物科技有限公司", "PRODUCT_SN": "粤妆20180174", "CITY_CODE": null, "XK_COMPLETE_DATE": {"date": 27, "day": 3, "hours": 0, "minutes": 0, "month": 0, "nanos": 0, "seconds": 0, "time": 1611676800000, "timezoneOffset": -480, "year": 121}, "XK_DATE": "2023-07-31", "QF_MANAGER_NAME": "广东省药品监督管理局", "BUSINESS_LICENSE_NUMBER": "91440101327564959G", "XC_DATE": "2021-01-27", "NUM_": 427}, {"ID": "7ecd9ac3c0bd4e0aa2ca19671e66f469", "EPS_NAME": "惠州市蓓蕾斯日用品有限公司", "PRODUCT_SN": "粤妆20180138", "CITY_CODE": null, "XK_COMPLETE_DATE": {"date": 27, "day": 3, "hours": 0, "minutes": 0, "month": 0, "nanos": 0, "seconds": 0, "time": 1611676800000, "timezoneOffset": -480, "year": 121}, "XK_DATE": "2023-06-04", "QF_MANAGER_NAME": "广东省药品监督管理局", "BUSINESS_LICENSE_NUMBER": "91441302MA4UJPYQ24", "XC_DATE": "2021-01-27", "NUM_": 428}, {"ID": "5ecd22e691664e1c88e83c3bf5b8de09", "EPS_NAME": "广州市申强实业有限公司", "PRODUCT_SN": "粤妆20170578", "CITY_CODE": null, "XK_COMPLETE_DATE": {"date": 27, "day": 3, "hours": 0, "minutes": 0, "month": 0, "nanos": 0, "seconds": 0, "time": 1611676800000, "timezoneOffset": -480, "year": 121}, "XK_DATE": "2022-11-08", "QF_MANAGER_NAME": "广东省药品监督管理局", "BUSINESS_LICENSE_NUMBER": "91440101MA59LR5Y2W", "XC_DATE": "2021-01-27", "NUM_": 429}, {"ID": "a661cf6b5cd444e58d3241305b3c1db9", "EPS_NAME": "广州俊臣化妆品有限公司", "PRODUCT_SN": "粤妆20170265", "CITY_CODE": null, "XK_COMPLETE_DATE": {"date": 27, "day": 3, "hours": 0, "minutes": 0, "month": 0, "nanos": 0, "seconds": 0, "time": 1611676800000, "timezoneOffset": -480, "year": 121}, "XK_DATE": "2022-02-16", "QF_MANAGER_NAME": "广东省药品监督管理局", "BUSINESS_LICENSE_NUMBER": "914401113047101678", "XC_DATE": "2021-01-27", "NUM_": 430}, {"ID": "1bc8c7ebfccd4a4e81b97082bdd3edd8", "EPS_NAME": "广州御采堂化妆品有限公司", "PRODUCT_SN": "粤妆20161402", "CITY_CODE": null, "XK_COMPLETE_DATE": {"date": 27, "day": 3, "hours": 0, "minutes": 0, "month": 0, "nanos": 0, "seconds": 0, "time": 1611676800000, "timezoneOffset": -480, "year": 121}, "XK_DATE": "2021-11-30", "QF_MANAGER_NAME": "广东省药品监督管理局", "BUSINESS_LICENSE_NUMBER": "91440101797352563Q", "XC_DATE": "2021-01-27", "NUM_": 431}, {"ID": "9475ed801ae34c73b0f841c1241f16f0", "EPS_NAME": "广州美琳生物科技有限公司", "PRODUCT_SN": "粤妆20160802", "CITY_CODE": null, "XK_COMPLETE_DATE": {"date": 27, "day": 3, "hours": 0, "minutes": 0, "month": 0, "nanos": 0, "seconds": 0, "time": 1611676800000, "timezoneOffset": -480, "year": 121}, "XK_DATE": "2026-01-26", "QF_MANAGER_NAME": "广东省药品监督管理局", "BUSINESS_LICENSE_NUMBER": "91440114MA59D3Q095", "XC_DATE": "2021-01-27", "NUM_": 432}, {"ID": "827bb20a3924413cac739da9b439b9b7", "EPS_NAME": "广州市诗泊实业有限公司", "PRODUCT_SN": "粤妆20160738", "CITY_CODE": null, "XK_COMPLETE_DATE": {"date": 27, "day": 3, "hours": 0, "minutes": 0, "month": 0, "nanos": 0, "seconds": 0, "time": 1611676800000, "timezoneOffset": -480, "year": 121}, "XK_DATE": "2026-01-26", "QF_MANAGER_NAME": "广东省药品监督管理局", "BUSINESS_LICENSE_NUMBER": "91440113347458002M", "XC_DATE": "2021-01-27", "NUM_": 433}, {"ID": "0e8770016bd94a5bace479ffd8e8dbce", "EPS_NAME": "中山市丽达化妆品有限公司", "PRODUCT_SN": "粤妆20160207", "CITY_CODE": null, "XK_COMPLETE_DATE": {"date": 27, "day": 3, "hours": 0, "minutes": 0, "month": 0, "nanos": 0, "seconds": 0, "time": 1611676800000, "timezoneOffset": -480, "year": 121}, "XK_DATE": "2026-01-26", "QF_MANAGER_NAME": "广东省药品监督管理局", "BUSINESS_LICENSE_NUMBER": "91442000617985866Q", "XC_DATE": "2021-01-27", "NUM_": 434}, {"ID": "178cce8d6a824527b655ee5479b253d7", "EPS_NAME": "广州市美然化妆品有限公司", "PRODUCT_SN": "粤妆20160162", "CITY_CODE": null, "XK_COMPLETE_DATE": {"date": 27, "day": 3, "hours": 0, "minutes": 0, "month": 0, "nanos": 0, "seconds": 0, "time": 1611676800000, "timezoneOffset": -480, "year": 121}, "XK_DATE": "2026-01-26", "QF_MANAGER_NAME": "广东省药品监督管理局", "BUSINESS_LICENSE_NUMBER": "91440111712441293E", "XC_DATE": "2021-01-27", "NUM_": 435}], "orderBy": "createDate", "orderType": "desc", "pageCount": 373, "pageNumber": 29, "pageSize": 15, "property": "", "totalCount": 5590}