{"filesize": "", "keyword": "", "list": [{"ID": "afd5e82945d34bcaa9454e7c515188e6", "EPS_NAME": "广州厚美生物科技有限公司", "PRODUCT_SN": "粤妆20200242", "CITY_CODE": null, "XK_COMPLETE_DATE": {"date": 8, "day": 4, "hours": 0, "minutes": 0, "month": 3, "nanos": 0, "seconds": 0, "time": 1617811200000, "timezoneOffset": -480, "year": 121}, "XK_DATE": "2025-12-06", "QF_MANAGER_NAME": "广东省药品监督管理局", "BUSINESS_LICENSE_NUMBER": "91440111331442137N", "XC_DATE": "2021-04-08", "NUM_": 31}, {"ID": "e1f02e6a2fec41b0b9128aec9a7ade0a", "EPS_NAME": "广州市尊爱日用化妆品有限公司", "PRODUCT_SN": "粤妆20160517", "CITY_CODE": null, "XK_COMPLETE_DATE": {"date": 8, "day": 4, "hours": 0, "minutes": 0, "month": 3, "nanos": 0, "seconds": 0, "time": 1617811200000, "timezoneOffset": -480, "year": 121}, "XK_DATE": "2026-04-07", "QF_MANAGER_NAME": "广东省药品监督管理局", "BUSINESS_LICENSE_NUMBER": "91440114677781873G", "XC_DATE": "2021-04-08", "NUM_": 32}, {"ID": "0f6eee9c663d4610882b9ff4ec4a4151", "EPS_NAME": "卡莱丽化妆品有限公司", "PRODUCT_SN": "苏妆20180001", "CITY_CODE": "84", "XK_COMPLETE_DATE": {"date": 8, "day": 4, "hours": 0, "minutes": 0, "month": 3, "nanos": 0, "seconds": 0, "time": 1617811200000, "timezoneOffset": -480, "year": 121}, "XK_DATE": "2023-01-11", "QF_MANAGER_NAME": "江苏省药品监督管理局", "BUSINESS_LICENSE_NUMBER": "91320581MA1Q30Y805", "XC_DATE": "2021-04-08", "NUM_": 33}, {"ID": "2930d00d7f9948dbbaae5ac472592cd7", "EPS_NAME": "克劳丽化妆品股份有限公司", "PRODUCT_SN": "苏妆20160073", "CITY_CODE": "84", "XK_COMPLETE_DATE": {"date": 8, "day": 4, "hours": 0, "minutes": 0, "month": 3, "nanos": 0, "seconds": 0, "time": 1617811200000, "timezoneOffset": -480, "year": 121}, "XK_DATE": "2021-09-01", "QF_MANAGER_NAME": "江苏省药品监督管理局", "BUSINESS_LICENSE_NUMBER": "913205817573088599", "XC_DATE": "2021-04-08", "NUM_": 34}, {"ID": "478e3235954b499084991d79e72d67d3", "EPS_NAME": "广州妮色化妆品有限公司", "PRODUCT_SN": "粤妆20210099", "CITY_CODE": null, "XK_COMPLETE_DATE": {"date": 7, "day": 3, "hours": 0, "minutes": 0, "month": 3, "nanos": 0, "seconds": 0, "time": 1617724800000, "timezoneOffset": -480, "year": 121}, "XK_DATE": "2026-04-06", "QF_MANAGER_NAME": "广东省药品监督管理局", "BUSINESS_LICENSE_NUMBER": "91440101MA9W0FJL6F", "XC_DATE": "2021-04-07", "NUM_": 35}, {"ID": "e3ecd343aff248ba82db2403512517a0", "EPS_NAME": "汕头市粤朵化妆品有限公司", "PRODUCT_SN": "粤妆20210098", "CITY_CODE": null, "XK_COMPLETE_DATE": {"date": 7, "day": 3, "hours": 0, "minutes": 0, "month": 3, "nanos": 0, "seconds": 0, "time": 1617724800000, "timezoneOffset": -480, "year": 121}, "XK_DATE": "2026-04-06", "QF_MANAGER_NAME": "广东省药品监督管理局", "BUSINESS_LICENSE_NUMBER": "91440514MA56029D0J", "XC_DATE": "2021-04-07", "NUM_": 36}, {"ID": "a4ec4b1b7c8740348ca7c7f53e2f3eed", "EPS_NAME": "广州安歌依健康产业有限公司", "PRODUCT_SN": "粤妆20200166", "CITY_CODE": null, "XK_COMPLETE_DATE": {"date": 7, "day": 3, "hours": 0, "minutes": 0, "month": 3, "nanos": 0, "seconds": 0, "time": 1617724800000, "timezoneOffset": -480, "year": 121}, "XK_DATE": "2025-08-30", "QF_MANAGER_NAME": "广东省药品监督管理局", "BUSINESS_LICENSE_NUMBER": "91440101MA5D7BGU3U", "XC_DATE": "2021-04-07", "NUM_": 37}, {"ID": "64b3ef24a8304674a8b2179bee253e82", "EPS_NAME": "广州非诚勿扰化妆品有限公司", "PRODUCT_SN": "粤妆20160691", "CITY_CODE": null, "XK_COMPLETE_DATE": {"date": 7, "day": 3, "hours": 0, "minutes": 0, "month": 3, "nanos": 0, "seconds": 0, "time": 1617724800000, "timezoneOffset": -480, "year": 121}, "XK_DATE": "2026-04-06", "QF_MANAGER_NAME": "广东省药品监督管理局", "BUSINESS_LICENSE_NUMBER": "914401113047423969", "XC_DATE": "2021-04-07", "NUM_": 38}, {"ID": "67b20fa34e51451084d84d7066ee204d", "EPS_NAME": "广州爱利莱化妆品有限公司", "PRODUCT_SN": "粤妆20160213", "CITY_CODE": null, "XK_COMPLETE_DATE": {"date": 7, "day": 3, "hours": 0, "minutes": 0, "month": 3, "nanos": 0, "seconds": 0, "time": 1617724800000, "timezoneOffset": -480, "year": 121}, "XK_DATE": "2026-04-06", "QF_MANAGER_NAME": "广东省药品监督管理局", "BUSINESS_LICENSE_NUMBER": "914401846915354257", "XC_DATE": "2021-04-07", "NUM_": 39}, {"ID": "33af8f38213847e99dba3d496ca115fb", "EPS_NAME": "重庆登康口腔护理用品股份有限公司", "PRODUCT_SN": "渝妆20160003", "CITY_CODE": "442", "XK_COMPLETE_DATE": {"date": 7, "day": 3, "hours": 0, "minutes": 0, "month": 3, "nanos": 0, "seconds": 0, "time": 1617724800000, "timezoneOffset": -480, "year": 121}, "XK_DATE": "2026-04-06", "QF_MANAGER_NAME": "重庆市药品监督管理局", "BUSINESS_LICENSE_NUMBER": "91500000203000772K", "XC_DATE": "2021-04-07", "NUM_": 40}, {"ID": "b8f521bd67a14782aa3f56510f4931d2", "EPS_NAME": "中瑶药业（云南）有限公司", "PRODUCT_SN": "云妆20210002", "CITY_CODE": "204", "XK_COMPLETE_DATE": {"date": 6, "day": 2, "hours": 0, "minutes": 0, "month": 3, "nanos": 0, "seconds": 0, "time": 1617638400000, "timezoneOffset": -480, "year": 121}, "XK_DATE": "2026-04-06", "QF_MANAGER_NAME": "云南省药品监督管理局", "BUSINESS_LICENSE_NUMBER": "91530128MA6P2XNX8H", "XC_DATE": "2021-04-06", "NUM_": 41}, {"ID": "bb97fc20b4ee412d9d14ab5285283703", "EPS_NAME": "广东重生药业科技有限公司", "PRODUCT_SN": "粤妆20210090", "CITY_CODE": null, "XK_COMPLETE_DATE": {"date": 6, "day": 2, "hours": 0, "minutes": 0, "month": 3, "nanos": 0, "seconds": 0, "time": 1617638400000, "timezoneOffset": -480, "year": 121}, "XK_DATE": "2026-03-28", "QF_MANAGER_NAME": "广东省药品监督管理局", "BUSINESS_LICENSE_NUMBER": "91440101MA9UX7QK9X", "XC_DATE": "2021-04-06", "NUM_": 42}, {"ID": "6e3395bfd3b24edd9aed4fb66abf5247", "EPS_NAME": "广州蕾妮安娜生物科技有限公司", "PRODUCT_SN": "粤妆20200137", "CITY_CODE": null, "XK_COMPLETE_DATE": {"date": 6, "day": 2, "hours": 0, "minutes": 0, "month": 3, "nanos": 0, "seconds": 0, "time": 1617638400000, "timezoneOffset": -480, "year": 121}, "XK_DATE": "2025-08-01", "QF_MANAGER_NAME": "广东省药品监督管理局", "BUSINESS_LICENSE_NUMBER": "91440101MA5CX9FK0X", "XC_DATE": "2021-04-06", "NUM_": 43}, {"ID": "ae8fc3d263c94e4297cbf49298e86aa3", "EPS_NAME": "广州暨信药业有限公司", "PRODUCT_SN": "粤妆20200006", "CITY_CODE": null, "XK_COMPLETE_DATE": {"date": 6, "day": 2, "hours": 0, "minutes": 0, "month": 3, "nanos": 0, "seconds": 0, "time": 1617638400000, "timezoneOffset": -480, "year": 121}, "XK_DATE": "2025-01-05", "QF_MANAGER_NAME": "广东省药品监督管理局", "BUSINESS_LICENSE_NUMBER": "91440101MA5CUXX6XT", "XC_DATE": "2021-04-06", "NUM_": 44}, {"ID": "e277065b816c43d58d789f9ee0b0de6a", "EPS_NAME": "广东思琦化妆品有限公司", "PRODUCT_SN": "粤妆20190155", "CITY_CODE": null, "XK_COMPLETE_DATE": {"date": 6, "day": 2, "hours": 0, "minutes": 0, "month": 3, "nanos": 0, "seconds": 0, "time": 1617638400000, "timezoneOffset": -480, "year": 121}, "XK_DATE": "2024-08-07", "QF_MANAGER_NAME": "广东省药品监督管理局", "BUSINESS_LICENSE_NUMBER": "91440605MA530N4FXY", "XC_DATE": "2021-04-06", "NUM_": 45}], "orderBy": "createDate", "orderType": "desc", "pageCount": 373, "pageNumber": 3, "pageSize": 15, "property": "", "totalCount": 5590}