{"filesize": "", "keyword": "", "list": [{"ID": "eb650069597f430c9b49e9add56387a9", "EPS_NAME": "广州市白云区美莲葆化妆品厂", "PRODUCT_SN": "粤妆20160131", "CITY_CODE": null, "XK_COMPLETE_DATE": {"date": 27, "day": 3, "hours": 0, "minutes": 0, "month": 0, "nanos": 0, "seconds": 0, "time": 1611676800000, "timezoneOffset": -480, "year": 121}, "XK_DATE": "2026-01-26", "QF_MANAGER_NAME": "广东省药品监督管理局", "BUSINESS_LICENSE_NUMBER": "91440111689332952A", "XC_DATE": "2021-01-27", "NUM_": 436}, {"ID": "5f7ed8d47c6243098a05b98b8b7da738", "EPS_NAME": "成都普什制药有限公司", "PRODUCT_SN": "川妆20210001", "CITY_CODE": "165", "XK_COMPLETE_DATE": {"date": 27, "day": 3, "hours": 0, "minutes": 0, "month": 0, "nanos": 0, "seconds": 0, "time": 1611676800000, "timezoneOffset": -480, "year": 121}, "XK_DATE": "2026-01-26", "QF_MANAGER_NAME": "四川省药品监督管理局", "BUSINESS_LICENSE_NUMBER": "9151010066302760XF", "XC_DATE": "2021-01-27", "NUM_": 437}, {"ID": "099a4987752a4a9ea60d33f007bcf42f", "EPS_NAME": "中科微针(重庆)科技有限公司", "PRODUCT_SN": "渝妆20210001", "CITY_CODE": "452", "XK_COMPLETE_DATE": {"date": 26, "day": 2, "hours": 0, "minutes": 0, "month": 0, "nanos": 0, "seconds": 0, "time": 1611590400000, "timezoneOffset": -480, "year": 121}, "XK_DATE": "2026-01-25", "QF_MANAGER_NAME": "重庆市药品监督管理局", "BUSINESS_LICENSE_NUMBER": "91500115MA60L24X3H", "XC_DATE": "2021-01-26", "NUM_": 438}, {"ID": "417080dfe45c412f96e6568c30c15e12", "EPS_NAME": "山东绿美嘉生物科技有限公司", "PRODUCT_SN": "鲁妆20170041", "CITY_CODE": null, "XK_COMPLETE_DATE": {"date": 26, "day": 2, "hours": 0, "minutes": 0, "month": 0, "nanos": 0, "seconds": 0, "time": 1611590400000, "timezoneOffset": -480, "year": 121}, "XK_DATE": "2022-06-28", "QF_MANAGER_NAME": "山东省药品监督管理局", "BUSINESS_LICENSE_NUMBER": "91370700MA3C721H2F", "XC_DATE": "2021-01-26", "NUM_": 439}, {"ID": "d3368c973da64572a35ec61a2a5fbf82", "EPS_NAME": "浙江妍希化妆品有限公司", "PRODUCT_SN": "浙妆20190003", "CITY_CODE": null, "XK_COMPLETE_DATE": {"date": 25, "day": 1, "hours": 0, "minutes": 0, "month": 0, "nanos": 0, "seconds": 0, "time": 1611504000000, "timezoneOffset": -480, "year": 121}, "XK_DATE": "2024-01-24", "QF_MANAGER_NAME": "浙江省药品监督管理局", "BUSINESS_LICENSE_NUMBER": "91330703MA29QQUF5R", "XC_DATE": "2021-01-25", "NUM_": 440}, {"ID": "f45da3cd5a0346b8aedf1cd8a5f0b28e", "EPS_NAME": "广东龙芝化妆品有限公司", "PRODUCT_SN": "粤妆20210031", "CITY_CODE": null, "XK_COMPLETE_DATE": {"date": 25, "day": 1, "hours": 0, "minutes": 0, "month": 0, "nanos": 0, "seconds": 0, "time": 1611504000000, "timezoneOffset": -480, "year": 121}, "XK_DATE": "2026-01-24", "QF_MANAGER_NAME": "广东省药品监督管理局", "BUSINESS_LICENSE_NUMBER": "91440607MA55AGG78X", "XC_DATE": "2021-01-25", "NUM_": 441}, {"ID": "9f616f9816b344d5a76a8a222b09b7ad", "EPS_NAME": "佛山市荟辰生物科技有限公司", "PRODUCT_SN": "粤妆20210030", "CITY_CODE": null, "XK_COMPLETE_DATE": {"date": 25, "day": 1, "hours": 0, "minutes": 0, "month": 0, "nanos": 0, "seconds": 0, "time": 1611504000000, "timezoneOffset": -480, "year": 121}, "XK_DATE": "2026-01-24", "QF_MANAGER_NAME": "广东省药品监督管理局", "BUSINESS_LICENSE_NUMBER": "91440607MA55J04Q23", "XC_DATE": "2021-01-25", "NUM_": 442}, {"ID": "222577b48a9243da897b102e71b60eb2", "EPS_NAME": "广州伽美化妆品有限公司", "PRODUCT_SN": "粤妆20190029", "CITY_CODE": null, "XK_COMPLETE_DATE": {"date": 25, "day": 1, "hours": 0, "minutes": 0, "month": 0, "nanos": 0, "seconds": 0, "time": 1611504000000, "timezoneOffset": -480, "year": 121}, "XK_DATE": "2024-01-27", "QF_MANAGER_NAME": "广东省药品监督管理局", "BUSINESS_LICENSE_NUMBER": "91440101MA5BLXAK8J", "XC_DATE": "2021-01-25", "NUM_": 443}, {"ID": "3bf4068d7cef4648bd6d03f1eb976dae", "EPS_NAME": "广州市百龄青生物科技有限公司", "PRODUCT_SN": "粤妆20180270", "CITY_CODE": null, "XK_COMPLETE_DATE": {"date": 25, "day": 1, "hours": 0, "minutes": 0, "month": 0, "nanos": 0, "seconds": 0, "time": 1611504000000, "timezoneOffset": -480, "year": 121}, "XK_DATE": "2023-12-26", "QF_MANAGER_NAME": "广东省药品监督管理局", "BUSINESS_LICENSE_NUMBER": "91440101MA5AYA710P", "XC_DATE": "2021-01-25", "NUM_": 444}, {"ID": "ef2feb0fa0bc4fe49b783223b4600631", "EPS_NAME": "广州市壹佰雅化妆品有限公司", "PRODUCT_SN": "粤妆20170018", "CITY_CODE": null, "XK_COMPLETE_DATE": {"date": 25, "day": 1, "hours": 0, "minutes": 0, "month": 0, "nanos": 0, "seconds": 0, "time": 1611504000000, "timezoneOffset": -480, "year": 121}, "XK_DATE": "2026-01-24", "QF_MANAGER_NAME": "广东省药品监督管理局", "BUSINESS_LICENSE_NUMBER": "91440111669974472Q", "XC_DATE": "2021-01-25", "NUM_": 445}, {"ID": "3db041325b1248cebbbeda2e6893533c", "EPS_NAME": "惠州市伊雅尼化妆品有限公司", "PRODUCT_SN": "粤妆20161661", "CITY_CODE": null, "XK_COMPLETE_DATE": {"date": 25, "day": 1, "hours": 0, "minutes": 0, "month": 0, "nanos": 0, "seconds": 0, "time": 1611504000000, "timezoneOffset": -480, "year": 121}, "XK_DATE": "2021-12-25", "QF_MANAGER_NAME": "广东省药品监督管理局", "BUSINESS_LICENSE_NUMBER": "91441302071851515U", "XC_DATE": "2021-01-25", "NUM_": 446}, {"ID": "b4d6946fbbca4f3ebf30f3ea4869bea2", "EPS_NAME": "佛山市南海贝豪生化科技有限公司", "PRODUCT_SN": "粤妆20160543", "CITY_CODE": null, "XK_COMPLETE_DATE": {"date": 25, "day": 1, "hours": 0, "minutes": 0, "month": 0, "nanos": 0, "seconds": 0, "time": 1611504000000, "timezoneOffset": -480, "year": 121}, "XK_DATE": "2021-08-02", "QF_MANAGER_NAME": "广东省药品监督管理局", "BUSINESS_LICENSE_NUMBER": "91440605668157139Q", "XC_DATE": "2021-01-25", "NUM_": 447}, {"ID": "5b6c06e1a03047f38d86148286de391c", "EPS_NAME": "佛山市富馨科技实业有限公司", "PRODUCT_SN": "粤妆20160370", "CITY_CODE": null, "XK_COMPLETE_DATE": {"date": 25, "day": 1, "hours": 0, "minutes": 0, "month": 0, "nanos": 0, "seconds": 0, "time": 1611504000000, "timezoneOffset": -480, "year": 121}, "XK_DATE": "2021-07-12", "QF_MANAGER_NAME": "广东省药品监督管理局", "BUSINESS_LICENSE_NUMBER": "914406055940333788", "XC_DATE": "2021-01-25", "NUM_": 448}, {"ID": "e07b9ae1130d4a2a9528970e214a494c", "EPS_NAME": "南京东万生物技术有限公司", "PRODUCT_SN": "苏妆20210006", "CITY_CODE": "81", "XK_COMPLETE_DATE": {"date": 25, "day": 1, "hours": 0, "minutes": 0, "month": 0, "nanos": 0, "seconds": 0, "time": 1611504000000, "timezoneOffset": -480, "year": 121}, "XK_DATE": "2026-01-24", "QF_MANAGER_NAME": "江苏省药品监督管理局", "BUSINESS_LICENSE_NUMBER": "9132011608773791X1", "XC_DATE": "2021-01-25", "NUM_": 449}, {"ID": "1f84210fa36e4fd58d95678af3264282", "EPS_NAME": "松莉美容科技（上海）有限公司", "PRODUCT_SN": "沪妆20190012", "CITY_CODE": null, "XK_COMPLETE_DATE": {"date": 25, "day": 1, "hours": 0, "minutes": 0, "month": 0, "nanos": 0, "seconds": 0, "time": 1611504000000, "timezoneOffset": -480, "year": 121}, "XK_DATE": "2024-09-29", "QF_MANAGER_NAME": "上海市药品监督管理局", "BUSINESS_LICENSE_NUMBER": "91310000MA1HQA0M32", "XC_DATE": "2021-01-25", "NUM_": 450}], "orderBy": "createDate", "orderType": "desc", "pageCount": 373, "pageNumber": 30, "pageSize": 15, "property": "", "totalCount": 5590}