{"filesize": "", "keyword": "", "list": [{"ID": "9eb4a5eca0d44b669131ef0b3e6eec9b", "EPS_NAME": "广州淳雅国际生物科技有限公司", "PRODUCT_SN": "粤妆20210028", "CITY_CODE": null, "XK_COMPLETE_DATE": {"date": 22, "day": 5, "hours": 0, "minutes": 0, "month": 0, "nanos": 0, "seconds": 0, "time": 1611244800000, "timezoneOffset": -480, "year": 121}, "XK_DATE": "2026-01-21", "QF_MANAGER_NAME": "广东省药品监督管理局", "BUSINESS_LICENSE_NUMBER": "91440101MA9ULPDKXB", "XC_DATE": "2021-01-22", "NUM_": 451}, {"ID": "07772e293ae3487ebe51ae04007ce09a", "EPS_NAME": "广州艾希美化妆品有限公司", "PRODUCT_SN": "粤妆20210027", "CITY_CODE": null, "XK_COMPLETE_DATE": {"date": 22, "day": 5, "hours": 0, "minutes": 0, "month": 0, "nanos": 0, "seconds": 0, "time": 1611244800000, "timezoneOffset": -480, "year": 121}, "XK_DATE": "2026-01-21", "QF_MANAGER_NAME": "广东省药品监督管理局", "BUSINESS_LICENSE_NUMBER": "91440101MA5D6XDA5R", "XC_DATE": "2021-01-22", "NUM_": 452}, {"ID": "f355d4df25a04241bffb7edc18e7667a", "EPS_NAME": "汕头市贝琪生物科技有限公司", "PRODUCT_SN": "粤妆20210026", "CITY_CODE": null, "XK_COMPLETE_DATE": {"date": 22, "day": 5, "hours": 0, "minutes": 0, "month": 0, "nanos": 0, "seconds": 0, "time": 1611244800000, "timezoneOffset": -480, "year": 121}, "XK_DATE": "2026-01-21", "QF_MANAGER_NAME": "广东省药品监督管理局", "BUSINESS_LICENSE_NUMBER": "91440513MA54T6Y00Y", "XC_DATE": "2021-01-22", "NUM_": 453}, {"ID": "3d592a7f2f5b421688ac4b256077a418", "EPS_NAME": "广州幽秀生物科技有限公司", "PRODUCT_SN": "粤妆20170599", "CITY_CODE": null, "XK_COMPLETE_DATE": {"date": 22, "day": 5, "hours": 0, "minutes": 0, "month": 0, "nanos": 0, "seconds": 0, "time": 1611244800000, "timezoneOffset": -480, "year": 121}, "XK_DATE": "2022-11-30", "QF_MANAGER_NAME": "广东省药品监督管理局", "BUSINESS_LICENSE_NUMBER": "91440101673454285Q", "XC_DATE": "2021-01-22", "NUM_": 454}, {"ID": "b16dd09e7a764d689d6bf5caa868116b", "EPS_NAME": "广州市加茜亚化妆品有限公司", "PRODUCT_SN": "粤妆20161704", "CITY_CODE": null, "XK_COMPLETE_DATE": {"date": 22, "day": 5, "hours": 0, "minutes": 0, "month": 0, "nanos": 0, "seconds": 0, "time": 1611244800000, "timezoneOffset": -480, "year": 121}, "XK_DATE": "2021-12-22", "QF_MANAGER_NAME": "广东省药品监督管理局", "BUSINESS_LICENSE_NUMBER": "91440111755581130M", "XC_DATE": "2021-01-22", "NUM_": 455}, {"ID": "142f2efdd35a4b06a7aeecf682b88fa2", "EPS_NAME": "广东顺德黛尼美日用化妆品科技有限公司", "PRODUCT_SN": "粤妆20160878", "CITY_CODE": null, "XK_COMPLETE_DATE": {"date": 22, "day": 5, "hours": 0, "minutes": 0, "month": 0, "nanos": 0, "seconds": 0, "time": 1611244800000, "timezoneOffset": -480, "year": 121}, "XK_DATE": "2026-01-21", "QF_MANAGER_NAME": "广东省药品监督管理局", "BUSINESS_LICENSE_NUMBER": "91440606081234051W", "XC_DATE": "2021-01-22", "NUM_": 456}, {"ID": "20ba40a8e6764aa7b8a2638e22a67d4c", "EPS_NAME": "青岛领创生物科技有限公司", "PRODUCT_SN": "鲁妆20200007", "CITY_CODE": null, "XK_COMPLETE_DATE": {"date": 22, "day": 5, "hours": 0, "minutes": 0, "month": 0, "nanos": 0, "seconds": 0, "time": 1611244800000, "timezoneOffset": -480, "year": 121}, "XK_DATE": "2025-03-22", "QF_MANAGER_NAME": "山东省药品监督管理局", "BUSINESS_LICENSE_NUMBER": "91370285MA3QNHDP5W", "XC_DATE": "2021-01-22", "NUM_": 457}, {"ID": "2bb25030a84e4c13a1dfff05d837cba1", "EPS_NAME": "艾一生命科技（广东）有限公司", "PRODUCT_SN": "粤妆20210025", "CITY_CODE": null, "XK_COMPLETE_DATE": {"date": 21, "day": 4, "hours": 0, "minutes": 0, "month": 0, "nanos": 0, "seconds": 0, "time": 1611158400000, "timezoneOffset": -480, "year": 121}, "XK_DATE": "2026-01-20", "QF_MANAGER_NAME": "广东省药品监督管理局", "BUSINESS_LICENSE_NUMBER": "91440300MA5F0H5AXJ", "XC_DATE": "2021-01-21", "NUM_": 458}, {"ID": "61679e8db15b4746a193dadeb29b3913", "EPS_NAME": "科诗美迪生物科技（惠州）有限公司", "PRODUCT_SN": "粤妆20210024", "CITY_CODE": null, "XK_COMPLETE_DATE": {"date": 21, "day": 4, "hours": 0, "minutes": 0, "month": 0, "nanos": 0, "seconds": 0, "time": 1611158400000, "timezoneOffset": -480, "year": 121}, "XK_DATE": "2026-01-20", "QF_MANAGER_NAME": "广东省药品监督管理局", "BUSINESS_LICENSE_NUMBER": "91441303MA540LC11B", "XC_DATE": "2021-01-21", "NUM_": 459}, {"ID": "01bc6f43c46b4d618f82a62fd8dbeab2", "EPS_NAME": "广州诺胜化妆品有限公司", "PRODUCT_SN": "粤妆20180106", "CITY_CODE": null, "XK_COMPLETE_DATE": {"date": 21, "day": 4, "hours": 0, "minutes": 0, "month": 0, "nanos": 0, "seconds": 0, "time": 1611158400000, "timezoneOffset": -480, "year": 121}, "XK_DATE": "2023-04-10", "QF_MANAGER_NAME": "广东省药品监督管理局", "BUSINESS_LICENSE_NUMBER": "91440111093593078F", "XC_DATE": "2021-01-21", "NUM_": 460}, {"ID": "b6e297b0f519466aa21e44061c700d1b", "EPS_NAME": "惠州鸿财化妆品有限公司", "PRODUCT_SN": "粤妆20160925", "CITY_CODE": null, "XK_COMPLETE_DATE": {"date": 21, "day": 4, "hours": 0, "minutes": 0, "month": 0, "nanos": 0, "seconds": 0, "time": 1611158400000, "timezoneOffset": -480, "year": 121}, "XK_DATE": "2021-10-23", "QF_MANAGER_NAME": "广东省药品监督管理局", "BUSINESS_LICENSE_NUMBER": "9144132273757835XL", "XC_DATE": "2021-01-21", "NUM_": 461}, {"ID": "62d6dbb9270a4d358933fa694d0161ab", "EPS_NAME": "山东华熙海御生物医药有限公司", "PRODUCT_SN": "鲁妆20170036", "CITY_CODE": null, "XK_COMPLETE_DATE": {"date": 21, "day": 4, "hours": 0, "minutes": 0, "month": 0, "nanos": 0, "seconds": 0, "time": 1611158400000, "timezoneOffset": -480, "year": 121}, "XK_DATE": "2022-06-18", "QF_MANAGER_NAME": "山东省药品监督管理局", "BUSINESS_LICENSE_NUMBER": "91370100582231238A", "XC_DATE": "2021-01-21", "NUM_": 462}, {"ID": "35eb560d1cc742daa2fb71c878b9da35", "EPS_NAME": "汕头市欧靓茵生物科技有限公司", "PRODUCT_SN": "粤妆20210018", "CITY_CODE": null, "XK_COMPLETE_DATE": {"date": 20, "day": 3, "hours": 0, "minutes": 0, "month": 0, "nanos": 0, "seconds": 0, "time": 1611072000000, "timezoneOffset": -480, "year": 121}, "XK_DATE": "2026-01-19", "QF_MANAGER_NAME": "广东省药品监督管理局", "BUSINESS_LICENSE_NUMBER": "91440513MA55KMR361", "XC_DATE": "2021-01-20", "NUM_": 463}, {"ID": "cbc2a75d8bc8490c8511106cd202fb9f", "EPS_NAME": "汕头市欧之曼生物科技有限公司", "PRODUCT_SN": "粤妆20210017", "CITY_CODE": null, "XK_COMPLETE_DATE": {"date": 20, "day": 3, "hours": 0, "minutes": 0, "month": 0, "nanos": 0, "seconds": 0, "time": 1611072000000, "timezoneOffset": -480, "year": 121}, "XK_DATE": "2026-01-19", "QF_MANAGER_NAME": "广东省药品监督管理局", "BUSINESS_LICENSE_NUMBER": "91440513MA54X6YQ5E", "XC_DATE": "2021-01-20", "NUM_": 464}, {"ID": "cf568de1f1ad4f58b56d377f3ef003c4", "EPS_NAME": "安徽楚沅生物科技有限公司", "PRODUCT_SN": "皖妆20200006", "CITY_CODE": "229", "XK_COMPLETE_DATE": {"date": 20, "day": 3, "hours": 0, "minutes": 0, "month": 0, "nanos": 0, "seconds": 0, "time": 1611072000000, "timezoneOffset": -480, "year": 121}, "XK_DATE": "2025-10-15", "QF_MANAGER_NAME": "安徽省药品监督管理局", "BUSINESS_LICENSE_NUMBER": "91341002MA2TX1XA1X", "XC_DATE": "2021-01-20", "NUM_": 465}], "orderBy": "createDate", "orderType": "desc", "pageCount": 373, "pageNumber": 31, "pageSize": 15, "property": "", "totalCount": 5590}