{"filesize": "", "keyword": "", "list": [{"ID": "cec3c9decac6496db8685179d6e97359", "EPS_NAME": "济南博利医药生物工程有限公司", "PRODUCT_SN": "鲁妆20180003", "CITY_CODE": null, "XK_COMPLETE_DATE": {"date": 20, "day": 3, "hours": 0, "minutes": 0, "month": 0, "nanos": 0, "seconds": 0, "time": 1611072000000, "timezoneOffset": -480, "year": 121}, "XK_DATE": "2023-01-11", "QF_MANAGER_NAME": "山东省药品监督管理局", "BUSINESS_LICENSE_NUMBER": "91370102264407736W", "XC_DATE": "2021-01-20", "NUM_": 466}, {"ID": "9d5f29b4db6f4bd09f7b74ce8b9d6943", "EPS_NAME": "上海春芝堂生物制品有限公司", "PRODUCT_SN": "沪妆20160012", "CITY_CODE": null, "XK_COMPLETE_DATE": {"date": 20, "day": 3, "hours": 0, "minutes": 0, "month": 0, "nanos": 0, "seconds": 0, "time": 1611072000000, "timezoneOffset": -480, "year": 121}, "XK_DATE": "2021-09-13", "QF_MANAGER_NAME": "上海市药品监督管理局", "BUSINESS_LICENSE_NUMBER": "913101126315831509", "XC_DATE": "2021-01-20", "NUM_": 467}, {"ID": "8cd108648585472abf1fe6af9187afb7", "EPS_NAME": "广州创为生物科技有限公司", "PRODUCT_SN": "粤妆20210021", "CITY_CODE": null, "XK_COMPLETE_DATE": {"date": 19, "day": 2, "hours": 0, "minutes": 0, "month": 0, "nanos": 0, "seconds": 0, "time": 1610985600000, "timezoneOffset": -480, "year": 121}, "XK_DATE": "2026-01-18", "QF_MANAGER_NAME": "广东省药品监督管理局", "BUSINESS_LICENSE_NUMBER": "91440101MA5D1C5D4T", "XC_DATE": "2021-01-19", "NUM_": 468}, {"ID": "de40a9c38826478d93147488cf1b274a", "EPS_NAME": "广州市雅健生物医药有限公司", "PRODUCT_SN": "粤妆20210020", "CITY_CODE": null, "XK_COMPLETE_DATE": {"date": 19, "day": 2, "hours": 0, "minutes": 0, "month": 0, "nanos": 0, "seconds": 0, "time": 1610985600000, "timezoneOffset": -480, "year": 121}, "XK_DATE": "2026-01-18", "QF_MANAGER_NAME": "广东省药品监督管理局", "BUSINESS_LICENSE_NUMBER": "91440101MA59TBNX9B", "XC_DATE": "2021-01-19", "NUM_": 469}, {"ID": "161e5a2dfad24acb9cafc9d7c7318da2", "EPS_NAME": "杰雅生物科技（深圳）有限公司", "PRODUCT_SN": "粤妆20210019", "CITY_CODE": null, "XK_COMPLETE_DATE": {"date": 19, "day": 2, "hours": 0, "minutes": 0, "month": 0, "nanos": 0, "seconds": 0, "time": 1610985600000, "timezoneOffset": -480, "year": 121}, "XK_DATE": "2026-01-18", "QF_MANAGER_NAME": "广东省药品监督管理局", "BUSINESS_LICENSE_NUMBER": "91440300MA5DM51T5Q", "XC_DATE": "2021-01-19", "NUM_": 470}, {"ID": "39af849097ec4cd995f336092076291c", "EPS_NAME": "广州市佳昊生物科技有限公司", "PRODUCT_SN": "粤妆20170020", "CITY_CODE": null, "XK_COMPLETE_DATE": {"date": 19, "day": 2, "hours": 0, "minutes": 0, "month": 0, "nanos": 0, "seconds": 0, "time": 1610985600000, "timezoneOffset": -480, "year": 121}, "XK_DATE": "2026-01-18", "QF_MANAGER_NAME": "广东省药品监督管理局", "BUSINESS_LICENSE_NUMBER": "914401113046138699", "XC_DATE": "2021-01-19", "NUM_": 471}, {"ID": "04941c2448f84d9699fdb8dd1050e809", "EPS_NAME": "广州雅心化妆品有限公司", "PRODUCT_SN": "粤妆20160234", "CITY_CODE": null, "XK_COMPLETE_DATE": {"date": 19, "day": 2, "hours": 0, "minutes": 0, "month": 0, "nanos": 0, "seconds": 0, "time": 1610985600000, "timezoneOffset": -480, "year": 121}, "XK_DATE": "2023-06-10", "QF_MANAGER_NAME": "广东省药品监督管理局", "BUSINESS_LICENSE_NUMBER": "91440101718189455J", "XC_DATE": "2021-01-19", "NUM_": 472}, {"ID": "f494c47586284b17aae165678a466d1a", "EPS_NAME": "广州德贝芙生物科技有限公司", "PRODUCT_SN": "粤妆20160119", "CITY_CODE": null, "XK_COMPLETE_DATE": {"date": 19, "day": 2, "hours": 0, "minutes": 0, "month": 0, "nanos": 0, "seconds": 0, "time": 1610985600000, "timezoneOffset": -480, "year": 121}, "XK_DATE": "2026-01-18", "QF_MANAGER_NAME": "广东省药品监督管理局", "BUSINESS_LICENSE_NUMBER": "91440114MA59C14165", "XC_DATE": "2021-01-19", "NUM_": 473}, {"ID": "8aa6753e03fe4b539a5cc4ecedc31369", "EPS_NAME": "仙迪达首化妆品（深圳）有限公司", "PRODUCT_SN": "粤妆20160022", "CITY_CODE": null, "XK_COMPLETE_DATE": {"date": 19, "day": 2, "hours": 0, "minutes": 0, "month": 0, "nanos": 0, "seconds": 0, "time": 1610985600000, "timezoneOffset": -480, "year": 121}, "XK_DATE": "2026-01-18", "QF_MANAGER_NAME": "广东省药品监督管理局", "BUSINESS_LICENSE_NUMBER": "91440300580077417X", "XC_DATE": "2021-01-19", "NUM_": 474}, {"ID": "59b13f055a1e489d8a804572feb6f208", "EPS_NAME": "金秀金源中草药贸易有限公司", "PRODUCT_SN": "桂妆20180008", "CITY_CODE": "517", "XK_COMPLETE_DATE": {"date": 19, "day": 2, "hours": 0, "minutes": 0, "month": 0, "nanos": 0, "seconds": 0, "time": 1610985600000, "timezoneOffset": -480, "year": 121}, "XK_DATE": "2023-10-28", "QF_MANAGER_NAME": "广西壮族自治区药品监督管理局", "BUSINESS_LICENSE_NUMBER": "91451324315908697W", "XC_DATE": "2021-01-19", "NUM_": 475}, {"ID": "df5e766dfe5b4f859b67e1f883f2ef15", "EPS_NAME": "陆丰市保雅生物科技有限公司", "PRODUCT_SN": "粤妆20210029", "CITY_CODE": null, "XK_COMPLETE_DATE": {"date": 18, "day": 1, "hours": 0, "minutes": 0, "month": 0, "nanos": 0, "seconds": 0, "time": 1610899200000, "timezoneOffset": -480, "year": 121}, "XK_DATE": "2026-01-17", "QF_MANAGER_NAME": "广东省药品监督管理局", "BUSINESS_LICENSE_NUMBER": "91441581MA55543M8H", "XC_DATE": "2021-01-18", "NUM_": 476}, {"ID": "42c7c963b5dd4a758198f206242e0fad", "EPS_NAME": "广州科美宸星化妆品有限公司", "PRODUCT_SN": "粤妆20210022", "CITY_CODE": null, "XK_COMPLETE_DATE": {"date": 18, "day": 1, "hours": 0, "minutes": 0, "month": 0, "nanos": 0, "seconds": 0, "time": 1610899200000, "timezoneOffset": -480, "year": 121}, "XK_DATE": "2026-01-17", "QF_MANAGER_NAME": "广东省药品监督管理局", "BUSINESS_LICENSE_NUMBER": "91440101MA9UN86H5A", "XC_DATE": "2021-01-18", "NUM_": 477}, {"ID": "119691afde8a48ec8680e4b40cb012af", "EPS_NAME": "广州溢铭化妆品有限公司", "PRODUCT_SN": "粤妆20200126", "CITY_CODE": null, "XK_COMPLETE_DATE": {"date": 18, "day": 1, "hours": 0, "minutes": 0, "month": 0, "nanos": 0, "seconds": 0, "time": 1610899200000, "timezoneOffset": -480, "year": 121}, "XK_DATE": "2025-07-21", "QF_MANAGER_NAME": "广东省药品监督管理局", "BUSINESS_LICENSE_NUMBER": "91440101MA5D2G6J6G", "XC_DATE": "2021-01-18", "NUM_": 478}, {"ID": "19db4fc9912340068c3ad07836457c94", "EPS_NAME": "广州市华晟健康产业有限公司", "PRODUCT_SN": "粤妆20180127", "CITY_CODE": null, "XK_COMPLETE_DATE": {"date": 18, "day": 1, "hours": 0, "minutes": 0, "month": 0, "nanos": 0, "seconds": 0, "time": 1610899200000, "timezoneOffset": -480, "year": 121}, "XK_DATE": "2023-05-21", "QF_MANAGER_NAME": "广东省药品监督管理局", "BUSINESS_LICENSE_NUMBER": "91440101MA59QK5L4C", "XC_DATE": "2021-01-18", "NUM_": 479}, {"ID": "537f627e5f7649f4a2b344831315afec", "EPS_NAME": "广州领美化妆品有限公司", "PRODUCT_SN": "粤妆20170352", "CITY_CODE": null, "XK_COMPLETE_DATE": {"date": 18, "day": 1, "hours": 0, "minutes": 0, "month": 0, "nanos": 0, "seconds": 0, "time": 1610899200000, "timezoneOffset": -480, "year": 121}, "XK_DATE": "2022-03-23", "QF_MANAGER_NAME": "广东省药品监督管理局", "BUSINESS_LICENSE_NUMBER": "91440101MA59EG4E4D", "XC_DATE": "2021-01-18", "NUM_": 480}], "orderBy": "createDate", "orderType": "desc", "pageCount": 373, "pageNumber": 32, "pageSize": 15, "property": "", "totalCount": 5590}