{"filesize": "", "keyword": "", "list": [{"ID": "603d2a2db48c4dbb96bade7760f8024e", "EPS_NAME": "扬州完美日用品有限公司", "PRODUCT_SN": "苏妆20160030", "CITY_CODE": "86", "XK_COMPLETE_DATE": {"date": 15, "day": 5, "hours": 0, "minutes": 0, "month": 0, "nanos": 0, "seconds": 0, "time": 1610640000000, "timezoneOffset": -480, "year": 121}, "XK_DATE": "2021-06-06", "QF_MANAGER_NAME": "江苏省药品监督管理局", "BUSINESS_LICENSE_NUMBER": "91321000759681200X", "XC_DATE": "2021-01-15", "NUM_": 496}, {"ID": "d7b991ee5f18430eb6714321b81c14aa", "EPS_NAME": "舒嘉丽（福建）日化有限公司", "PRODUCT_SN": "闽妆20170023", "CITY_CODE": "140", "XK_COMPLETE_DATE": {"date": 15, "day": 5, "hours": 0, "minutes": 0, "month": 0, "nanos": 0, "seconds": 0, "time": 1610640000000, "timezoneOffset": -480, "year": 121}, "XK_DATE": "2022-04-27", "QF_MANAGER_NAME": "福建省药品监督管理局", "BUSINESS_LICENSE_NUMBER": "91350681727936010F", "XC_DATE": "2021-01-15", "NUM_": 497}, {"ID": "b61dcdf8e7fe4bb2865aeae93a6b7d48", "EPS_NAME": "山东福瑞达生物科技有限公司", "PRODUCT_SN": "鲁妆20180022", "CITY_CODE": null, "XK_COMPLETE_DATE": {"date": 15, "day": 5, "hours": 0, "minutes": 0, "month": 0, "nanos": 0, "seconds": 0, "time": 1610640000000, "timezoneOffset": -480, "year": 121}, "XK_DATE": "2023-09-27", "QF_MANAGER_NAME": "山东省药品监督管理局", "BUSINESS_LICENSE_NUMBER": "91371329673175526L", "XC_DATE": "2021-01-15", "NUM_": 498}, {"ID": "8d091e1d2d3e49afad400268cdd3ce76", "EPS_NAME": "无棣县晟兴盐业有限公司", "PRODUCT_SN": "鲁妆20170015", "CITY_CODE": null, "XK_COMPLETE_DATE": {"date": 15, "day": 5, "hours": 0, "minutes": 0, "month": 0, "nanos": 0, "seconds": 0, "time": 1610640000000, "timezoneOffset": -480, "year": 121}, "XK_DATE": "2022-01-19", "QF_MANAGER_NAME": "山东省药品监督管理局", "BUSINESS_LICENSE_NUMBER": "91371623751761775G", "XC_DATE": "2021-01-15", "NUM_": 499}, {"ID": "bdde07ece0a04f4aba8ed03c0fdfde5e", "EPS_NAME": "黑龙江省世罕泉科技发展有限责任公司", "PRODUCT_SN": "黑妆20200001", "CITY_CODE": "267", "XK_COMPLETE_DATE": {"date": 15, "day": 5, "hours": 0, "minutes": 0, "month": 0, "nanos": 0, "seconds": 0, "time": 1610640000000, "timezoneOffset": -480, "year": 121}, "XK_DATE": "2025-01-13", "QF_MANAGER_NAME": "黑龙江省药品监督管理局", "BUSINESS_LICENSE_NUMBER": "912302307692256559", "XC_DATE": "2021-01-15", "NUM_": 500}, {"ID": "781ff5e5d4034cb395f43a93b92f71b1", "EPS_NAME": "广东欧美莲化妆品有限公司", "PRODUCT_SN": "粤妆20200131", "CITY_CODE": null, "XK_COMPLETE_DATE": {"date": 14, "day": 4, "hours": 0, "minutes": 0, "month": 0, "nanos": 0, "seconds": 0, "time": 1610553600000, "timezoneOffset": -480, "year": 121}, "XK_DATE": "2025-07-28", "QF_MANAGER_NAME": "广东省药品监督管理局", "BUSINESS_LICENSE_NUMBER": "91440513MA54PCTN16", "XC_DATE": "2021-01-14", "NUM_": 501}, {"ID": "ad56d4e14f3545f883300e3051124188", "EPS_NAME": "广东美宝化妆品有限公司", "PRODUCT_SN": "粤妆20160105", "CITY_CODE": null, "XK_COMPLETE_DATE": {"date": 14, "day": 4, "hours": 0, "minutes": 0, "month": 0, "nanos": 0, "seconds": 0, "time": 1610553600000, "timezoneOffset": -480, "year": 121}, "XK_DATE": "2026-01-13", "QF_MANAGER_NAME": "广东省药品监督管理局", "BUSINESS_LICENSE_NUMBER": "91440514617580412C", "XC_DATE": "2021-01-14", "NUM_": 502}, {"ID": "b33dda2c679c479bbe3d9162c8a2f364", "EPS_NAME": "科玛化妆品（苏州）有限公司高新区北分公司", "PRODUCT_SN": "苏妆20210005", "CITY_CODE": "84", "XK_COMPLETE_DATE": {"date": 14, "day": 4, "hours": 0, "minutes": 0, "month": 0, "nanos": 0, "seconds": 0, "time": 1610553600000, "timezoneOffset": -480, "year": 121}, "XK_DATE": "2026-01-13", "QF_MANAGER_NAME": "江苏省药品监督管理局", "BUSINESS_LICENSE_NUMBER": "91320505MA21QW7B5T", "XC_DATE": "2021-01-14", "NUM_": 503}, {"ID": "087bcd4539b64ea993af259be86c167b", "EPS_NAME": "新岚（镇江）化妆品有限公司", "PRODUCT_SN": "苏妆20210003", "CITY_CODE": "83", "XK_COMPLETE_DATE": {"date": 14, "day": 4, "hours": 0, "minutes": 0, "month": 0, "nanos": 0, "seconds": 0, "time": 1610553600000, "timezoneOffset": -480, "year": 121}, "XK_DATE": "2026-01-13", "QF_MANAGER_NAME": "江苏省药品监督管理局", "BUSINESS_LICENSE_NUMBER": "91321191MA201FNJ9A", "XC_DATE": "2021-01-14", "NUM_": 504}, {"ID": "ca29dc1d8086433d9d47794cf52fd5b7", "EPS_NAME": "蔻诗美（天津）生物科技有限公司", "PRODUCT_SN": "津妆20180003", "CITY_CODE": "412", "XK_COMPLETE_DATE": {"date": 14, "day": 4, "hours": 0, "minutes": 0, "month": 0, "nanos": 0, "seconds": 0, "time": 1610553600000, "timezoneOffset": -480, "year": 121}, "XK_DATE": "2023-05-14", "QF_MANAGER_NAME": "天津市药品监督管理局", "BUSINESS_LICENSE_NUMBER": "91120111MA05W2G97N", "XC_DATE": "2021-01-14", "NUM_": 505}, {"ID": "a8f3626698de4d93a736edf29a7e099c", "EPS_NAME": "沐茶（天津）生物科技有限公司", "PRODUCT_SN": "津妆20170002", "CITY_CODE": "412", "XK_COMPLETE_DATE": {"date": 14, "day": 4, "hours": 0, "minutes": 0, "month": 0, "nanos": 0, "seconds": 0, "time": 1610553600000, "timezoneOffset": -480, "year": 121}, "XK_DATE": "2022-06-04", "QF_MANAGER_NAME": "天津市药品监督管理局", "BUSINESS_LICENSE_NUMBER": "91120111MA05M6Q54D", "XC_DATE": "2021-01-14", "NUM_": 506}, {"ID": "d589b55036e448198f0f6debc262ca02", "EPS_NAME": "四川肽美生物科技有限责任公司", "PRODUCT_SN": "川妆20200005", "CITY_CODE": "166", "XK_COMPLETE_DATE": {"date": 14, "day": 4, "hours": 0, "minutes": 0, "month": 0, "nanos": 0, "seconds": 0, "time": 1610553600000, "timezoneOffset": -480, "year": 121}, "XK_DATE": "2025-12-27", "QF_MANAGER_NAME": "四川省药品监督管理局", "BUSINESS_LICENSE_NUMBER": "91511402MA62WDXD60", "XC_DATE": "2021-01-14", "NUM_": 507}, {"ID": "4b62dfc96e04498881ccf747d36ff88d", "EPS_NAME": "义乌市香诺化妆品有限公司", "PRODUCT_SN": "浙妆20160076", "CITY_CODE": null, "XK_COMPLETE_DATE": {"date": 13, "day": 3, "hours": 0, "minutes": 0, "month": 0, "nanos": 0, "seconds": 0, "time": 1610467200000, "timezoneOffset": -480, "year": 121}, "XK_DATE": "2021-09-27", "QF_MANAGER_NAME": "浙江省药品监督管理局", "BUSINESS_LICENSE_NUMBER": "913307827639496524", "XC_DATE": "2021-01-13", "NUM_": 508}, {"ID": "dab959c3901e4f409723123f6bf95b58", "EPS_NAME": "英妃（杭州）化妆品有限公司", "PRODUCT_SN": "浙妆20160016", "CITY_CODE": null, "XK_COMPLETE_DATE": {"date": 13, "day": 3, "hours": 0, "minutes": 0, "month": 0, "nanos": 0, "seconds": 0, "time": 1610467200000, "timezoneOffset": -480, "year": 121}, "XK_DATE": "2021-05-23", "QF_MANAGER_NAME": "浙江省药品监督管理局", "BUSINESS_LICENSE_NUMBER": "913301003963176950", "XC_DATE": "2021-01-13", "NUM_": 509}, {"ID": "fda4b681e44b4dc0817b32c37e58eb89", "EPS_NAME": "广州昊芝实业有限公司", "PRODUCT_SN": "粤妆20210016", "CITY_CODE": null, "XK_COMPLETE_DATE": {"date": 13, "day": 3, "hours": 0, "minutes": 0, "month": 0, "nanos": 0, "seconds": 0, "time": 1610467200000, "timezoneOffset": -480, "year": 121}, "XK_DATE": "2026-01-12", "QF_MANAGER_NAME": "广东省药品监督管理局", "BUSINESS_LICENSE_NUMBER": "91440101MA9UPUWY06", "XC_DATE": "2021-01-13", "NUM_": 510}], "orderBy": "createDate", "orderType": "desc", "pageCount": 373, "pageNumber": 34, "pageSize": 15, "property": "", "totalCount": 5590}