{"filesize": "", "keyword": "", "list": [{"ID": "e77bb00a1d43425184b91b68cc705065", "EPS_NAME": "佛山市花喜新材料有限公司", "PRODUCT_SN": "粤妆20210013", "CITY_CODE": null, "XK_COMPLETE_DATE": {"date": 13, "day": 3, "hours": 0, "minutes": 0, "month": 0, "nanos": 0, "seconds": 0, "time": 1610467200000, "timezoneOffset": -480, "year": 121}, "XK_DATE": "2026-01-12", "QF_MANAGER_NAME": "广东省药品监督管理局", "BUSINESS_LICENSE_NUMBER": "91440605MA55BL7D9U", "XC_DATE": "2021-01-13", "NUM_": 511}, {"ID": "76fbddcdeb4b4350b7669fd8a7dbc3c8", "EPS_NAME": "广东欧邦化妆品有限公司", "PRODUCT_SN": "粤妆20210012", "CITY_CODE": null, "XK_COMPLETE_DATE": {"date": 13, "day": 3, "hours": 0, "minutes": 0, "month": 0, "nanos": 0, "seconds": 0, "time": 1610467200000, "timezoneOffset": -480, "year": 121}, "XK_DATE": "2026-01-12", "QF_MANAGER_NAME": "广东省药品监督管理局", "BUSINESS_LICENSE_NUMBER": "91440605MA551F7J79", "XC_DATE": "2021-01-13", "NUM_": 512}, {"ID": "14e7561b25b4439ba4ad16956d84353e", "EPS_NAME": "广东万禧生物科技有限公司", "PRODUCT_SN": "粤妆20200058", "CITY_CODE": null, "XK_COMPLETE_DATE": {"date": 13, "day": 3, "hours": 0, "minutes": 0, "month": 0, "nanos": 0, "seconds": 0, "time": 1610467200000, "timezoneOffset": -480, "year": 121}, "XK_DATE": "2025-04-07", "QF_MANAGER_NAME": "广东省药品监督管理局", "BUSINESS_LICENSE_NUMBER": "91440607MA52YUEA62", "XC_DATE": "2021-01-13", "NUM_": 513}, {"ID": "4c72a60a6f734a24a5c57a8255d3dffe", "EPS_NAME": "佛山市喜妆化妆品有限公司", "PRODUCT_SN": "粤妆20170011", "CITY_CODE": null, "XK_COMPLETE_DATE": {"date": 13, "day": 3, "hours": 0, "minutes": 0, "month": 0, "nanos": 0, "seconds": 0, "time": 1610467200000, "timezoneOffset": -480, "year": 121}, "XK_DATE": "2022-01-05", "QF_MANAGER_NAME": "广东省药品监督管理局", "BUSINESS_LICENSE_NUMBER": "91440607796268458C", "XC_DATE": "2021-01-13", "NUM_": 514}, {"ID": "66c5ea02430049559076af5315f77988", "EPS_NAME": "广州欧凡化妆品有限公司", "PRODUCT_SN": "粤妆20161240", "CITY_CODE": null, "XK_COMPLETE_DATE": {"date": 13, "day": 3, "hours": 0, "minutes": 0, "month": 0, "nanos": 0, "seconds": 0, "time": 1610467200000, "timezoneOffset": -480, "year": 121}, "XK_DATE": "2026-01-12", "QF_MANAGER_NAME": "广东省药品监督管理局", "BUSINESS_LICENSE_NUMBER": "91440111665913090F", "XC_DATE": "2021-01-13", "NUM_": 515}, {"ID": "0355adca83aa41b2a3b17b7398b9c986", "EPS_NAME": "广州市欧贝佳精细化工有限公司", "PRODUCT_SN": "粤妆20161220", "CITY_CODE": null, "XK_COMPLETE_DATE": {"date": 13, "day": 3, "hours": 0, "minutes": 0, "month": 0, "nanos": 0, "seconds": 0, "time": 1610467200000, "timezoneOffset": -480, "year": 121}, "XK_DATE": "2026-01-12", "QF_MANAGER_NAME": "广东省药品监督管理局", "BUSINESS_LICENSE_NUMBER": "91440114764018761L", "XC_DATE": "2021-01-13", "NUM_": 516}, {"ID": "22d55c38daf04ad9bc17088f52f4d707", "EPS_NAME": "广州宝莱生物科技有限公司", "PRODUCT_SN": "粤妆20160125", "CITY_CODE": null, "XK_COMPLETE_DATE": {"date": 13, "day": 3, "hours": 0, "minutes": 0, "month": 0, "nanos": 0, "seconds": 0, "time": 1610467200000, "timezoneOffset": -480, "year": 121}, "XK_DATE": "2026-01-12", "QF_MANAGER_NAME": "广东省药品监督管理局", "BUSINESS_LICENSE_NUMBER": "91440111791021683L", "XC_DATE": "2021-01-13", "NUM_": 517}, {"ID": "43ec361722224446af182fb790a5fe1b", "EPS_NAME": "约肤（广州）生物技术有限公司", "PRODUCT_SN": "粤妆20210011", "CITY_CODE": null, "XK_COMPLETE_DATE": {"date": 12, "day": 2, "hours": 0, "minutes": 0, "month": 0, "nanos": 0, "seconds": 0, "time": 1610380800000, "timezoneOffset": -480, "year": 121}, "XK_DATE": "2026-01-11", "QF_MANAGER_NAME": "广东省药品监督管理局", "BUSINESS_LICENSE_NUMBER": "91440101MA9UNP8F89", "XC_DATE": "2021-01-12", "NUM_": 518}, {"ID": "f8e3be7304bd4ea48bb8fdfe34be7cb5", "EPS_NAME": "广东信泰济民医学研究有限公司", "PRODUCT_SN": "粤妆20210010", "CITY_CODE": null, "XK_COMPLETE_DATE": {"date": 12, "day": 2, "hours": 0, "minutes": 0, "month": 0, "nanos": 0, "seconds": 0, "time": 1610380800000, "timezoneOffset": -480, "year": 121}, "XK_DATE": "2026-01-11", "QF_MANAGER_NAME": "广东省药品监督管理局", "BUSINESS_LICENSE_NUMBER": "91445321MA53UNXU04", "XC_DATE": "2021-01-12", "NUM_": 519}, {"ID": "92a69460d88f497a9d3c035699e0e5b6", "EPS_NAME": "东莞市天美生物科技有限公司", "PRODUCT_SN": "粤妆20210009", "CITY_CODE": null, "XK_COMPLETE_DATE": {"date": 12, "day": 2, "hours": 0, "minutes": 0, "month": 0, "nanos": 0, "seconds": 0, "time": 1610380800000, "timezoneOffset": -480, "year": 121}, "XK_DATE": "2026-01-11", "QF_MANAGER_NAME": "广东省药品监督管理局", "BUSINESS_LICENSE_NUMBER": "91441900MA535LXP80", "XC_DATE": "2021-01-12", "NUM_": 520}, {"ID": "ec8638c508cc4d738a8efa6fc04e03f8", "EPS_NAME": "广州润研化妆品有限公司", "PRODUCT_SN": "粤妆20200110", "CITY_CODE": null, "XK_COMPLETE_DATE": {"date": 12, "day": 2, "hours": 0, "minutes": 0, "month": 0, "nanos": 0, "seconds": 0, "time": 1610380800000, "timezoneOffset": -480, "year": 121}, "XK_DATE": "2025-07-07", "QF_MANAGER_NAME": "广东省药品监督管理局", "BUSINESS_LICENSE_NUMBER": "91440101MA5CCAHX80", "XC_DATE": "2021-01-12", "NUM_": 521}, {"ID": "a2ba171b7718450cbb7908ab7f093f22", "EPS_NAME": "广州婵妍生物科技有限公司", "PRODUCT_SN": "粤妆20190178", "CITY_CODE": null, "XK_COMPLETE_DATE": {"date": 12, "day": 2, "hours": 0, "minutes": 0, "month": 0, "nanos": 0, "seconds": 0, "time": 1610380800000, "timezoneOffset": -480, "year": 121}, "XK_DATE": "2024-08-30", "QF_MANAGER_NAME": "广东省药品监督管理局", "BUSINESS_LICENSE_NUMBER": "91440101MA5CQBGQ3R", "XC_DATE": "2021-01-12", "NUM_": 522}, {"ID": "356ae6b0670b44139ccdc119e01d5d42", "EPS_NAME": "嘉汶化妆品（东莞）有限公司", "PRODUCT_SN": "粤妆20180144", "CITY_CODE": null, "XK_COMPLETE_DATE": {"date": 12, "day": 2, "hours": 0, "minutes": 0, "month": 0, "nanos": 0, "seconds": 0, "time": 1610380800000, "timezoneOffset": -480, "year": 121}, "XK_DATE": "2023-06-28", "QF_MANAGER_NAME": "广东省药品监督管理局", "BUSINESS_LICENSE_NUMBER": "91441900MA51PQ6Y0Y", "XC_DATE": "2021-01-12", "NUM_": 523}, {"ID": "cfad1aae04774fcbb69a3c4dd0797371", "EPS_NAME": "真那化妆品（中山）有限公司", "PRODUCT_SN": "粤妆20161801", "CITY_CODE": null, "XK_COMPLETE_DATE": {"date": 12, "day": 2, "hours": 0, "minutes": 0, "month": 0, "nanos": 0, "seconds": 0, "time": 1610380800000, "timezoneOffset": -480, "year": 121}, "XK_DATE": "2021-12-29", "QF_MANAGER_NAME": "广东省药品监督管理局", "BUSINESS_LICENSE_NUMBER": "91442000753689949M", "XC_DATE": "2021-01-12", "NUM_": 524}, {"ID": "f83f08c7e6c9416f8f6402c5eb818a64", "EPS_NAME": "广州清碧化妆品有限公司", "PRODUCT_SN": "粤妆20160708", "CITY_CODE": null, "XK_COMPLETE_DATE": {"date": 12, "day": 2, "hours": 0, "minutes": 0, "month": 0, "nanos": 0, "seconds": 0, "time": 1610380800000, "timezoneOffset": -480, "year": 121}, "XK_DATE": "2021-08-30", "QF_MANAGER_NAME": "广东省药品监督管理局", "BUSINESS_LICENSE_NUMBER": "914401117555630123", "XC_DATE": "2021-01-12", "NUM_": 525}], "orderBy": "createDate", "orderType": "desc", "pageCount": 373, "pageNumber": 35, "pageSize": 15, "property": "", "totalCount": 5590}