{"filesize": "", "keyword": "", "list": [{"ID": "f796c21e2dd846f6b08fd5e3643b610a", "EPS_NAME": "广州爱奈儿生物科技有限公司", "PRODUCT_SN": "粤妆20160355", "CITY_CODE": null, "XK_COMPLETE_DATE": {"date": 12, "day": 2, "hours": 0, "minutes": 0, "month": 0, "nanos": 0, "seconds": 0, "time": 1610380800000, "timezoneOffset": -480, "year": 121}, "XK_DATE": "2024-03-27", "QF_MANAGER_NAME": "广东省药品监督管理局", "BUSINESS_LICENSE_NUMBER": "91440184340141504M", "XC_DATE": "2021-01-12", "NUM_": 526}, {"ID": "e46431e650094ecbaede3b8157c43981", "EPS_NAME": "惠州绵俪生物科技有限公司", "PRODUCT_SN": "粤妆20200160", "CITY_CODE": null, "XK_COMPLETE_DATE": {"date": 11, "day": 1, "hours": 0, "minutes": 0, "month": 0, "nanos": 0, "seconds": 0, "time": 1610294400000, "timezoneOffset": -480, "year": 121}, "XK_DATE": "2025-08-20", "QF_MANAGER_NAME": "广东省药品监督管理局", "BUSINESS_LICENSE_NUMBER": "914413003216549969", "XC_DATE": "2021-01-11", "NUM_": 527}, {"ID": "b7bf7d93b46f4768a2b88a6749ddb2a1", "EPS_NAME": "广州依露美化妆品有限公司", "PRODUCT_SN": "粤妆20160128", "CITY_CODE": null, "XK_COMPLETE_DATE": {"date": 11, "day": 1, "hours": 0, "minutes": 0, "month": 0, "nanos": 0, "seconds": 0, "time": 1610294400000, "timezoneOffset": -480, "year": 121}, "XK_DATE": "2026-01-10", "QF_MANAGER_NAME": "广东省药品监督管理局", "BUSINESS_LICENSE_NUMBER": "91440111734911751N", "XC_DATE": "2021-01-11", "NUM_": 528}, {"ID": "976bc288677b4db2bdff435db478709b", "EPS_NAME": "上海麻沼化妆品有限公司", "PRODUCT_SN": "沪妆20160131", "CITY_CODE": null, "XK_COMPLETE_DATE": {"date": 11, "day": 1, "hours": 0, "minutes": 0, "month": 0, "nanos": 0, "seconds": 0, "time": 1610294400000, "timezoneOffset": -480, "year": 121}, "XK_DATE": "2021-12-11", "QF_MANAGER_NAME": "上海市药品监督管理局", "BUSINESS_LICENSE_NUMBER": "913100006624809206", "XC_DATE": "2021-01-11", "NUM_": 529}, {"ID": "8371fed45a1b47128f96851bdc4b6953", "EPS_NAME": "上海蔻薇化妆品有限公司", "PRODUCT_SN": "沪妆20160013", "CITY_CODE": null, "XK_COMPLETE_DATE": {"date": 11, "day": 1, "hours": 0, "minutes": 0, "month": 0, "nanos": 0, "seconds": 0, "time": 1610294400000, "timezoneOffset": -480, "year": 121}, "XK_DATE": "2021-09-13", "QF_MANAGER_NAME": "上海市药品监督管理局", "BUSINESS_LICENSE_NUMBER": "91310120301682930A", "XC_DATE": "2021-01-11", "NUM_": 530}, {"ID": "e0a8baaa6de140e89a301820875b7f74", "EPS_NAME": "金华市蓝丝雨化妆品有限公司", "PRODUCT_SN": "浙妆20160283", "CITY_CODE": null, "XK_COMPLETE_DATE": {"date": 8, "day": 5, "hours": 0, "minutes": 0, "month": 0, "nanos": 0, "seconds": 0, "time": 1610035200000, "timezoneOffset": -480, "year": 121}, "XK_DATE": "2026-01-07", "QF_MANAGER_NAME": "浙江省药品监督管理局", "BUSINESS_LICENSE_NUMBER": "91330701595767744C", "XC_DATE": "2021-01-08", "NUM_": 531}, {"ID": "ce5d078e24ab4fe1824e052f7c34679d", "EPS_NAME": "广州德盛药业有限公司", "PRODUCT_SN": "粤妆20210007", "CITY_CODE": null, "XK_COMPLETE_DATE": {"date": 8, "day": 5, "hours": 0, "minutes": 0, "month": 0, "nanos": 0, "seconds": 0, "time": 1610035200000, "timezoneOffset": -480, "year": 121}, "XK_DATE": "2026-01-07", "QF_MANAGER_NAME": "广东省药品监督管理局", "BUSINESS_LICENSE_NUMBER": "91440101MA5D7WLE1R", "XC_DATE": "2021-01-08", "NUM_": 532}, {"ID": "b77a96df470849a5bf81ab78f23a3cf3", "EPS_NAME": "广东魅佳化妆品有限公司", "PRODUCT_SN": "粤妆20170335", "CITY_CODE": null, "XK_COMPLETE_DATE": {"date": 8, "day": 5, "hours": 0, "minutes": 0, "month": 0, "nanos": 0, "seconds": 0, "time": 1610035200000, "timezoneOffset": -480, "year": 121}, "XK_DATE": "2022-03-20", "QF_MANAGER_NAME": "广东省药品监督管理局", "BUSINESS_LICENSE_NUMBER": "91445100MA4UR1AW7P", "XC_DATE": "2021-01-08", "NUM_": 533}, {"ID": "97ffc5babfe6453b89f9a0f2c999d72d", "EPS_NAME": "广州市汉邦化妆品有限公司", "PRODUCT_SN": "粤妆20170101", "CITY_CODE": null, "XK_COMPLETE_DATE": {"date": 8, "day": 5, "hours": 0, "minutes": 0, "month": 0, "nanos": 0, "seconds": 0, "time": 1610035200000, "timezoneOffset": -480, "year": 121}, "XK_DATE": "2026-01-07", "QF_MANAGER_NAME": "广东省药品监督管理局", "BUSINESS_LICENSE_NUMBER": "91440111665918166Q", "XC_DATE": "2021-01-08", "NUM_": 534}, {"ID": "74f0a08c4f014b5a9e5996c26e45f9ad", "EPS_NAME": "广州长生康生物科技有限公司", "PRODUCT_SN": "粤妆20160601", "CITY_CODE": null, "XK_COMPLETE_DATE": {"date": 8, "day": 5, "hours": 0, "minutes": 0, "month": 0, "nanos": 0, "seconds": 0, "time": 1610035200000, "timezoneOffset": -480, "year": 121}, "XK_DATE": "2026-01-07", "QF_MANAGER_NAME": "广东省药品监督管理局", "BUSINESS_LICENSE_NUMBER": "914401146777673932", "XC_DATE": "2021-01-08", "NUM_": 535}, {"ID": "7f01dbc5a1334fdebd0072a25f566727", "EPS_NAME": "广州汇粹化妆品有限公司", "PRODUCT_SN": "粤妆20160321", "CITY_CODE": null, "XK_COMPLETE_DATE": {"date": 8, "day": 5, "hours": 0, "minutes": 0, "month": 0, "nanos": 0, "seconds": 0, "time": 1610035200000, "timezoneOffset": -480, "year": 121}, "XK_DATE": "2023-12-09", "QF_MANAGER_NAME": "广东省药品监督管理局", "BUSINESS_LICENSE_NUMBER": "914401110936503276", "XC_DATE": "2021-01-08", "NUM_": 536}, {"ID": "cc1d49b7c0f841e9a659b208cc04238a", "EPS_NAME": "广州市暨源生物科技有限公司", "PRODUCT_SN": "粤妆20160235", "CITY_CODE": null, "XK_COMPLETE_DATE": {"date": 8, "day": 5, "hours": 0, "minutes": 0, "month": 0, "nanos": 0, "seconds": 0, "time": 1610035200000, "timezoneOffset": -480, "year": 121}, "XK_DATE": "2026-01-07", "QF_MANAGER_NAME": "广东省药品监督管理局", "BUSINESS_LICENSE_NUMBER": "91440113691531520M", "XC_DATE": "2021-01-08", "NUM_": 537}, {"ID": "d414ba7b40844e5baccab5a81be0e5c5", "EPS_NAME": "广州莱倩化妆品有限公司", "PRODUCT_SN": "粤妆20160011", "CITY_CODE": null, "XK_COMPLETE_DATE": {"date": 8, "day": 5, "hours": 0, "minutes": 0, "month": 0, "nanos": 0, "seconds": 0, "time": 1610035200000, "timezoneOffset": -480, "year": 121}, "XK_DATE": "2026-01-07", "QF_MANAGER_NAME": "广东省药品监督管理局", "BUSINESS_LICENSE_NUMBER": "91440111797361697X", "XC_DATE": "2021-01-08", "NUM_": 538}, {"ID": "a87a2d97f17b437086ed029a03d6bbbe", "EPS_NAME": "新疆纳娇化妆品有限公司", "PRODUCT_SN": "新妆20210001", "CITY_CODE": "370", "XK_COMPLETE_DATE": {"date": 8, "day": 5, "hours": 0, "minutes": 0, "month": 0, "nanos": 0, "seconds": 0, "time": 1610035200000, "timezoneOffset": -480, "year": 121}, "XK_DATE": "2026-01-07", "QF_MANAGER_NAME": "新疆维吾尔自治区药品监督管理局", "BUSINESS_LICENSE_NUMBER": "91650109MA788X81XJ", "XC_DATE": "2021-01-08", "NUM_": 539}, {"ID": "d6c5d6189afa489aa6d3c6ed913449a8", "EPS_NAME": "江苏博后智造生物科技有限公司", "PRODUCT_SN": "苏妆20200027", "CITY_CODE": "92", "XK_COMPLETE_DATE": {"date": 8, "day": 5, "hours": 0, "minutes": 0, "month": 0, "nanos": 0, "seconds": 0, "time": 1610035200000, "timezoneOffset": -480, "year": 121}, "XK_DATE": "2025-12-21", "QF_MANAGER_NAME": "江苏省药品监督管理局", "BUSINESS_LICENSE_NUMBER": "91321291MA1YEANY8G", "XC_DATE": "2021-01-08", "NUM_": 540}], "orderBy": "createDate", "orderType": "desc", "pageCount": 373, "pageNumber": 36, "pageSize": 15, "property": "", "totalCount": 5590}