{"filesize": "", "keyword": "", "list": [{"ID": "2c6260fb9c57420b85e94c885b589972", "EPS_NAME": "苏州元美科技有限公司", "PRODUCT_SN": "苏妆20200008", "CITY_CODE": "84", "XK_COMPLETE_DATE": {"date": 8, "day": 5, "hours": 0, "minutes": 0, "month": 0, "nanos": 0, "seconds": 0, "time": 1610035200000, "timezoneOffset": -480, "year": 121}, "XK_DATE": "2025-06-01", "QF_MANAGER_NAME": "江苏省药品监督管理局", "BUSINESS_LICENSE_NUMBER": "91320594MA20LL6439", "XC_DATE": "2021-01-08", "NUM_": 541}, {"ID": "5ceda35ff39d4442be7c082db4ae4945", "EPS_NAME": "纽澳护理用品(泰州)有限公司", "PRODUCT_SN": "苏妆20160081", "CITY_CODE": "92", "XK_COMPLETE_DATE": {"date": 8, "day": 5, "hours": 0, "minutes": 0, "month": 0, "nanos": 0, "seconds": 0, "time": 1610035200000, "timezoneOffset": -480, "year": 121}, "XK_DATE": "2023-12-04", "QF_MANAGER_NAME": "江苏省药品监督管理局", "BUSINESS_LICENSE_NUMBER": "91321200074657400D", "XC_DATE": "2021-01-08", "NUM_": 542}, {"ID": "d42273546ca14987ae1287a5270e3d1b", "EPS_NAME": "中山市邦妮生物科技有限公司", "PRODUCT_SN": "粤妆20210006", "CITY_CODE": null, "XK_COMPLETE_DATE": {"date": 7, "day": 4, "hours": 0, "minutes": 0, "month": 0, "nanos": 0, "seconds": 0, "time": 1609948800000, "timezoneOffset": -480, "year": 121}, "XK_DATE": "2026-01-06", "QF_MANAGER_NAME": "广东省药品监督管理局", "BUSINESS_LICENSE_NUMBER": "91442000MA4UJ9LW5K", "XC_DATE": "2021-01-07", "NUM_": 543}, {"ID": "9b4668564e8c41c3a81706264800a3f8", "EPS_NAME": "佛山市晟泰源生物科技有限公司", "PRODUCT_SN": "粤妆20210005", "CITY_CODE": null, "XK_COMPLETE_DATE": {"date": 7, "day": 4, "hours": 0, "minutes": 0, "month": 0, "nanos": 0, "seconds": 0, "time": 1609948800000, "timezoneOffset": -480, "year": 121}, "XK_DATE": "2026-01-06", "QF_MANAGER_NAME": "广东省药品监督管理局", "BUSINESS_LICENSE_NUMBER": "91440605MA54P4CF6P", "XC_DATE": "2021-01-07", "NUM_": 544}, {"ID": "1ad6f4dabf744b2a9dc07598f8c95fb8", "EPS_NAME": "汕头市英瑞生物科技有限公司", "PRODUCT_SN": "粤妆20210004", "CITY_CODE": null, "XK_COMPLETE_DATE": {"date": 7, "day": 4, "hours": 0, "minutes": 0, "month": 0, "nanos": 0, "seconds": 0, "time": 1609948800000, "timezoneOffset": -480, "year": 121}, "XK_DATE": "2026-01-06", "QF_MANAGER_NAME": "广东省药品监督管理局", "BUSINESS_LICENSE_NUMBER": "914405003348985272", "XC_DATE": "2021-01-07", "NUM_": 545}, {"ID": "e41308a5e0a740258e6c28ec49524234", "EPS_NAME": "广东名女人化妆品有限公司", "PRODUCT_SN": "粤妆20160746", "CITY_CODE": null, "XK_COMPLETE_DATE": {"date": 7, "day": 4, "hours": 0, "minutes": 0, "month": 0, "nanos": 0, "seconds": 0, "time": 1609948800000, "timezoneOffset": -480, "year": 121}, "XK_DATE": "2021-09-20", "QF_MANAGER_NAME": "广东省药品监督管理局", "BUSINESS_LICENSE_NUMBER": "91440513597405659U", "XC_DATE": "2021-01-07", "NUM_": 546}, {"ID": "4e8165930b7a44c0875c9ad5b07f880f", "EPS_NAME": "安徽诺一医药科技有限责任公司", "PRODUCT_SN": "皖妆20210001", "CITY_CODE": "225", "XK_COMPLETE_DATE": {"date": 7, "day": 4, "hours": 0, "minutes": 0, "month": 0, "nanos": 0, "seconds": 0, "time": 1609948800000, "timezoneOffset": -480, "year": 121}, "XK_DATE": "2026-01-06", "QF_MANAGER_NAME": "安徽省药品监督管理局", "BUSINESS_LICENSE_NUMBER": "91340500MA2WA3CRXL", "XC_DATE": "2021-01-07", "NUM_": 547}, {"ID": "43ac5421196c43c59090c0e9adb09e49", "EPS_NAME": "壹鼎众康（厦门）生物科技股份有限公司", "PRODUCT_SN": "闽妆20200006", "CITY_CODE": "136", "XK_COMPLETE_DATE": {"date": 7, "day": 4, "hours": 0, "minutes": 0, "month": 0, "nanos": 0, "seconds": 0, "time": 1609948800000, "timezoneOffset": -480, "year": 121}, "XK_DATE": "2025-05-07", "QF_MANAGER_NAME": "福建省药品监督管理局", "BUSINESS_LICENSE_NUMBER": "9135020007280266XN", "XC_DATE": "2021-01-07", "NUM_": 548}, {"ID": "6814e60f38e240ac8785037295c8ec12", "EPS_NAME": "焦点生物医药有限公司", "PRODUCT_SN": "鲁妆20210001", "CITY_CODE": null, "XK_COMPLETE_DATE": {"date": 7, "day": 4, "hours": 0, "minutes": 0, "month": 0, "nanos": 0, "seconds": 0, "time": 1609948800000, "timezoneOffset": -480, "year": 121}, "XK_DATE": "2026-01-06", "QF_MANAGER_NAME": "山东省药品监督管理局", "BUSINESS_LICENSE_NUMBER": "91370881MA3P5KP49U", "XC_DATE": "2021-01-07", "NUM_": 549}, {"ID": "e93d2621d2a04c149069c28742b7a74b", "EPS_NAME": "武汉归真生物科技有限公司", "PRODUCT_SN": "鄂妆20160014", "CITY_CODE": "67", "XK_COMPLETE_DATE": {"date": 7, "day": 4, "hours": 0, "minutes": 0, "month": 0, "nanos": 0, "seconds": 0, "time": 1609948800000, "timezoneOffset": -480, "year": 121}, "XK_DATE": "2021-10-24", "QF_MANAGER_NAME": "湖北省药品监督管理局", "BUSINESS_LICENSE_NUMBER": "91420116063030266C", "XC_DATE": "2021-01-07", "NUM_": 550}, {"ID": "67d87efc1ad746a88a36dc7a34adc549", "EPS_NAME": "广东泰美康医疗科技有限公司", "PRODUCT_SN": "粤妆20210003", "CITY_CODE": null, "XK_COMPLETE_DATE": {"date": 6, "day": 3, "hours": 0, "minutes": 0, "month": 0, "nanos": 0, "seconds": 0, "time": 1609862400000, "timezoneOffset": -480, "year": 121}, "XK_DATE": "2026-01-05", "QF_MANAGER_NAME": "广东省药品监督管理局", "BUSINESS_LICENSE_NUMBER": "91440513MA54MJTKXM", "XC_DATE": "2021-01-06", "NUM_": 551}, {"ID": "3dcb6dbdbf214cec975e8441fbb18ca2", "EPS_NAME": "广东至臻生物医药有限公司", "PRODUCT_SN": "粤妆20210002", "CITY_CODE": null, "XK_COMPLETE_DATE": {"date": 6, "day": 3, "hours": 0, "minutes": 0, "month": 0, "nanos": 0, "seconds": 0, "time": 1609862400000, "timezoneOffset": -480, "year": 121}, "XK_DATE": "2026-01-05", "QF_MANAGER_NAME": "广东省药品监督管理局", "BUSINESS_LICENSE_NUMBER": "91440101MA5D2R2B5G", "XC_DATE": "2021-01-06", "NUM_": 552}, {"ID": "53e6018b5f5b4d20b8b8366b07cc4ff7", "EPS_NAME": "国源国药（广东）科技有限公司", "PRODUCT_SN": "粤妆20200094", "CITY_CODE": null, "XK_COMPLETE_DATE": {"date": 6, "day": 3, "hours": 0, "minutes": 0, "month": 0, "nanos": 0, "seconds": 0, "time": 1609862400000, "timezoneOffset": -480, "year": 121}, "XK_DATE": "2025-06-16", "QF_MANAGER_NAME": "广东省药品监督管理局", "BUSINESS_LICENSE_NUMBER": "91442000MA53FGJF8P", "XC_DATE": "2021-01-06", "NUM_": 553}, {"ID": "a00cf752eef34a15abfcaf0d25312c8b", "EPS_NAME": "广州市元旭药业有限公司", "PRODUCT_SN": "粤妆20170595", "CITY_CODE": null, "XK_COMPLETE_DATE": {"date": 6, "day": 3, "hours": 0, "minutes": 0, "month": 0, "nanos": 0, "seconds": 0, "time": 1609862400000, "timezoneOffset": -480, "year": 121}, "XK_DATE": "2026-01-05", "QF_MANAGER_NAME": "广东省药品监督管理局", "BUSINESS_LICENSE_NUMBER": "91440101MA59N2QF3M", "XC_DATE": "2021-01-06", "NUM_": 554}, {"ID": "54eaa0da771b4e669499e8501c2817ae", "EPS_NAME": "广州喜颜化妆品有限公司", "PRODUCT_SN": "粤妆20170479", "CITY_CODE": null, "XK_COMPLETE_DATE": {"date": 6, "day": 3, "hours": 0, "minutes": 0, "month": 0, "nanos": 0, "seconds": 0, "time": 1609862400000, "timezoneOffset": -480, "year": 121}, "XK_DATE": "2022-08-29", "QF_MANAGER_NAME": "广东省药品监督管理局", "BUSINESS_LICENSE_NUMBER": "91440101MA59JTG09R", "XC_DATE": "2021-01-06", "NUM_": 555}], "orderBy": "createDate", "orderType": "desc", "pageCount": 373, "pageNumber": 37, "pageSize": 15, "property": "", "totalCount": 5590}