{"filesize": "", "keyword": "", "list": [{"ID": "79b7b3ab15b344eebf8b6e936e639cd7", "EPS_NAME": "广州瑞丽化妆品有限公司", "PRODUCT_SN": "粤妆20170446", "CITY_CODE": null, "XK_COMPLETE_DATE": {"date": 6, "day": 3, "hours": 0, "minutes": 0, "month": 0, "nanos": 0, "seconds": 0, "time": 1609862400000, "timezoneOffset": -480, "year": 121}, "XK_DATE": "2022-07-31", "QF_MANAGER_NAME": "广东省药品监督管理局", "BUSINESS_LICENSE_NUMBER": "9144010169516529XU", "XC_DATE": "2021-01-06", "NUM_": 556}, {"ID": "e64b80b476c64365b3d4b011d3cb9c37", "EPS_NAME": "广州乐居日化用品有限公司", "PRODUCT_SN": "粤妆20170383", "CITY_CODE": null, "XK_COMPLETE_DATE": {"date": 6, "day": 3, "hours": 0, "minutes": 0, "month": 0, "nanos": 0, "seconds": 0, "time": 1609862400000, "timezoneOffset": -480, "year": 121}, "XK_DATE": "2022-04-18", "QF_MANAGER_NAME": "广东省药品监督管理局", "BUSINESS_LICENSE_NUMBER": "91440101MA59HC0773", "XC_DATE": "2021-01-06", "NUM_": 557}, {"ID": "0ecbbe0eaf0748819ae8101c795b9a69", "EPS_NAME": "广东泓立化妆品有限公司", "PRODUCT_SN": "粤妆20170258", "CITY_CODE": null, "XK_COMPLETE_DATE": {"date": 6, "day": 3, "hours": 0, "minutes": 0, "month": 0, "nanos": 0, "seconds": 0, "time": 1609862400000, "timezoneOffset": -480, "year": 121}, "XK_DATE": "2022-02-16", "QF_MANAGER_NAME": "广东省药品监督管理局", "BUSINESS_LICENSE_NUMBER": "91440000779970448M", "XC_DATE": "2021-01-06", "NUM_": 558}, {"ID": "6f629a84be5c48508b406392659ddec4", "EPS_NAME": "广州市聚馨堂化妆品有限公司", "PRODUCT_SN": "粤妆20161387", "CITY_CODE": null, "XK_COMPLETE_DATE": {"date": 6, "day": 3, "hours": 0, "minutes": 0, "month": 0, "nanos": 0, "seconds": 0, "time": 1609862400000, "timezoneOffset": -480, "year": 121}, "XK_DATE": "2026-01-05", "QF_MANAGER_NAME": "广东省药品监督管理局", "BUSINESS_LICENSE_NUMBER": "914401116893303830", "XC_DATE": "2021-01-06", "NUM_": 559}, {"ID": "33c24c0595a047f5920573b48ab0596f", "EPS_NAME": "广州伊奇菲娜生物科技有限公司", "PRODUCT_SN": "粤妆20161172", "CITY_CODE": null, "XK_COMPLETE_DATE": {"date": 6, "day": 3, "hours": 0, "minutes": 0, "month": 0, "nanos": 0, "seconds": 0, "time": 1609862400000, "timezoneOffset": -480, "year": 121}, "XK_DATE": "2021-11-10", "QF_MANAGER_NAME": "广东省药品监督管理局", "BUSINESS_LICENSE_NUMBER": "914401117619104121", "XC_DATE": "2021-01-06", "NUM_": 560}, {"ID": "e2451d46410248cbb90b8988cf5aa262", "EPS_NAME": "广州市番禺成业化妆品厂", "PRODUCT_SN": "粤妆20161055", "CITY_CODE": null, "XK_COMPLETE_DATE": {"date": 6, "day": 3, "hours": 0, "minutes": 0, "month": 0, "nanos": 0, "seconds": 0, "time": 1609862400000, "timezoneOffset": -480, "year": 121}, "XK_DATE": "2026-01-05", "QF_MANAGER_NAME": "广东省药品监督管理局", "BUSINESS_LICENSE_NUMBER": "914401137082215384", "XC_DATE": "2021-01-06", "NUM_": 561}, {"ID": "4d6b36a417e341b29e1ba1026b60641f", "EPS_NAME": "广州好蝶化妆品有限公司", "PRODUCT_SN": "粤妆20160975", "CITY_CODE": null, "XK_COMPLETE_DATE": {"date": 6, "day": 3, "hours": 0, "minutes": 0, "month": 0, "nanos": 0, "seconds": 0, "time": 1609862400000, "timezoneOffset": -480, "year": 121}, "XK_DATE": "2021-10-23", "QF_MANAGER_NAME": "广东省药品监督管理局", "BUSINESS_LICENSE_NUMBER": "91440111094205831A", "XC_DATE": "2021-01-06", "NUM_": 562}, {"ID": "f7db8e90e2fd4aac9aa3e60bb9af2e6b", "EPS_NAME": "广州希黎莎生物科技有限公司", "PRODUCT_SN": "粤妆20160797", "CITY_CODE": null, "XK_COMPLETE_DATE": {"date": 6, "day": 3, "hours": 0, "minutes": 0, "month": 0, "nanos": 0, "seconds": 0, "time": 1609862400000, "timezoneOffset": -480, "year": 121}, "XK_DATE": "2021-09-26", "QF_MANAGER_NAME": "广东省药品监督管理局", "BUSINESS_LICENSE_NUMBER": "914401113044084510", "XC_DATE": "2021-01-06", "NUM_": 563}, {"ID": "5fa21c11d23849fbb60bdbae300f5dae", "EPS_NAME": "广州碧涛化妆品有限公司", "PRODUCT_SN": "粤妆20160750", "CITY_CODE": null, "XK_COMPLETE_DATE": {"date": 6, "day": 3, "hours": 0, "minutes": 0, "month": 0, "nanos": 0, "seconds": 0, "time": 1609862400000, "timezoneOffset": -480, "year": 121}, "XK_DATE": "2026-01-05", "QF_MANAGER_NAME": "广东省药品监督管理局", "BUSINESS_LICENSE_NUMBER": "91440101729925585W", "XC_DATE": "2021-01-06", "NUM_": 564}, {"ID": "309ff15efd8040dba103df4f1516dd51", "EPS_NAME": "广东清翔医药生物科技有限公司", "PRODUCT_SN": "粤妆20160442", "CITY_CODE": null, "XK_COMPLETE_DATE": {"date": 6, "day": 3, "hours": 0, "minutes": 0, "month": 0, "nanos": 0, "seconds": 0, "time": 1609862400000, "timezoneOffset": -480, "year": 121}, "XK_DATE": "2026-01-05", "QF_MANAGER_NAME": "广东省药品监督管理局", "BUSINESS_LICENSE_NUMBER": "91440111MA59AMMWOL", "XC_DATE": "2021-01-06", "NUM_": 565}, {"ID": "813091c33d9d4dcf889f6fbf5eed1cdd", "EPS_NAME": "广州市依恋生物科技有限公司", "PRODUCT_SN": "粤妆20160342", "CITY_CODE": null, "XK_COMPLETE_DATE": {"date": 6, "day": 3, "hours": 0, "minutes": 0, "month": 0, "nanos": 0, "seconds": 0, "time": 1609862400000, "timezoneOffset": -480, "year": 121}, "XK_DATE": "2026-01-05", "QF_MANAGER_NAME": "广东省药品监督管理局", "BUSINESS_LICENSE_NUMBER": "44012100067780", "XC_DATE": "2021-01-06", "NUM_": 566}, {"ID": "1e6943c34ec04cb6a770f5978ef55291", "EPS_NAME": "汕头市雪媛化妆品有限公司", "PRODUCT_SN": "粤妆20160294", "CITY_CODE": null, "XK_COMPLETE_DATE": {"date": 6, "day": 3, "hours": 0, "minutes": 0, "month": 0, "nanos": 0, "seconds": 0, "time": 1609862400000, "timezoneOffset": -480, "year": 121}, "XK_DATE": "2026-01-05", "QF_MANAGER_NAME": "广东省药品监督管理局", "BUSINESS_LICENSE_NUMBER": "91440514712230453H", "XC_DATE": "2021-01-06", "NUM_": 567}, {"ID": "74ae269ee2f244ca87e759c1508545b0", "EPS_NAME": "广州市汉江水化妆品有限公司", "PRODUCT_SN": "粤妆20160226", "CITY_CODE": null, "XK_COMPLETE_DATE": {"date": 6, "day": 3, "hours": 0, "minutes": 0, "month": 0, "nanos": 0, "seconds": 0, "time": 1609862400000, "timezoneOffset": -480, "year": 121}, "XK_DATE": "2026-01-05", "QF_MANAGER_NAME": "广东省药品监督管理局", "BUSINESS_LICENSE_NUMBER": "91440111MA59BQF003", "XC_DATE": "2021-01-06", "NUM_": 568}, {"ID": "ae1d5f64a69647a6b51d56c983332608", "EPS_NAME": "上海柯树化妆品有限公司", "PRODUCT_SN": "沪妆20160186", "CITY_CODE": null, "XK_COMPLETE_DATE": {"date": 6, "day": 3, "hours": 0, "minutes": 0, "month": 0, "nanos": 0, "seconds": 0, "time": 1609862400000, "timezoneOffset": -480, "year": 121}, "XK_DATE": "2021-12-22", "QF_MANAGER_NAME": "上海市药品监督管理局", "BUSINESS_LICENSE_NUMBER": "91310112MA1GCKWT4C", "XC_DATE": "2021-01-06", "NUM_": 569}, {"ID": "75ad4d59bc4f4e3dad205982685e8fc1", "EPS_NAME": "忧立舒医药科技（广东）有限公司", "PRODUCT_SN": "粤妆20210001", "CITY_CODE": null, "XK_COMPLETE_DATE": {"date": 5, "day": 2, "hours": 0, "minutes": 0, "month": 0, "nanos": 0, "seconds": 0, "time": 1609776000000, "timezoneOffset": -480, "year": 121}, "XK_DATE": "2026-01-04", "QF_MANAGER_NAME": "广东省药品监督管理局", "BUSINESS_LICENSE_NUMBER": "91440507MA54BJWC36", "XC_DATE": "2021-01-05", "NUM_": 570}], "orderBy": "createDate", "orderType": "desc", "pageCount": 373, "pageNumber": 38, "pageSize": 15, "property": "", "totalCount": 5590}