{"filesize": "", "keyword": "", "list": [{"ID": "9a53813ccd6a491b92cf06d561f3c4ae", "EPS_NAME": "广州芝美生物科技有限公司", "PRODUCT_SN": "粤妆20200227", "CITY_CODE": null, "XK_COMPLETE_DATE": {"date": 5, "day": 2, "hours": 0, "minutes": 0, "month": 0, "nanos": 0, "seconds": 0, "time": 1609776000000, "timezoneOffset": -480, "year": 121}, "XK_DATE": "2025-11-23", "QF_MANAGER_NAME": "广东省药品监督管理局", "BUSINESS_LICENSE_NUMBER": "91440101MA9UMMW63U", "XC_DATE": "2021-01-05", "NUM_": 571}, {"ID": "0374760f772044ce9dd80b87c011cc07", "EPS_NAME": "广州奥琪生物科技有限公司", "PRODUCT_SN": "粤妆20200005", "CITY_CODE": null, "XK_COMPLETE_DATE": {"date": 5, "day": 2, "hours": 0, "minutes": 0, "month": 0, "nanos": 0, "seconds": 0, "time": 1609776000000, "timezoneOffset": -480, "year": 121}, "XK_DATE": "2025-01-05", "QF_MANAGER_NAME": "广东省药品监督管理局", "BUSINESS_LICENSE_NUMBER": "91440101MA5CWW3H7Y", "XC_DATE": "2021-01-05", "NUM_": 572}, {"ID": "cad977d0af9941cabf1ea3aa51b0aefe", "EPS_NAME": "广州函美诗生物科技有限公司", "PRODUCT_SN": "粤妆20190245", "CITY_CODE": null, "XK_COMPLETE_DATE": {"date": 5, "day": 2, "hours": 0, "minutes": 0, "month": 0, "nanos": 0, "seconds": 0, "time": 1609776000000, "timezoneOffset": -480, "year": 121}, "XK_DATE": "2024-11-03", "QF_MANAGER_NAME": "广东省药品监督管理局", "BUSINESS_LICENSE_NUMBER": "91440101MA5CM2JT0M", "XC_DATE": "2021-01-05", "NUM_": 573}, {"ID": "ec7a3aca46ea40d998efca1f9f53e7aa", "EPS_NAME": "广州欧兰化妆品有限公司", "PRODUCT_SN": "粤妆20180156", "CITY_CODE": null, "XK_COMPLETE_DATE": {"date": 5, "day": 2, "hours": 0, "minutes": 0, "month": 0, "nanos": 0, "seconds": 0, "time": 1609776000000, "timezoneOffset": -480, "year": 121}, "XK_DATE": "2023-07-11", "QF_MANAGER_NAME": "广东省药品监督管理局", "BUSINESS_LICENSE_NUMBER": "91440101MA59Q5CF99", "XC_DATE": "2021-01-05", "NUM_": 574}, {"ID": "9b13868c78d0456c8019b82896166d23", "EPS_NAME": "广州募森药业有限公司", "PRODUCT_SN": "粤妆20170556", "CITY_CODE": null, "XK_COMPLETE_DATE": {"date": 5, "day": 2, "hours": 0, "minutes": 0, "month": 0, "nanos": 0, "seconds": 0, "time": 1609776000000, "timezoneOffset": -480, "year": 121}, "XK_DATE": "2022-10-24", "QF_MANAGER_NAME": "广东省药品监督管理局", "BUSINESS_LICENSE_NUMBER": "91440111MA59E23Y3F", "XC_DATE": "2021-01-05", "NUM_": 575}, {"ID": "7828cec6477848b9beed25ef7e4c2328", "EPS_NAME": "广州市嘉嘉化妆品有限公司", "PRODUCT_SN": "粤妆20170475", "CITY_CODE": null, "XK_COMPLETE_DATE": {"date": 5, "day": 2, "hours": 0, "minutes": 0, "month": 0, "nanos": 0, "seconds": 0, "time": 1609776000000, "timezoneOffset": -480, "year": 121}, "XK_DATE": "2026-01-04", "QF_MANAGER_NAME": "广东省药品监督管理局", "BUSINESS_LICENSE_NUMBER": "914401037783637935", "XC_DATE": "2021-01-05", "NUM_": 576}, {"ID": "f962f6d2621a4138bad3d3ef684436af", "EPS_NAME": "广州慈康生物科技有限公司", "PRODUCT_SN": "粤妆20170461", "CITY_CODE": null, "XK_COMPLETE_DATE": {"date": 5, "day": 2, "hours": 0, "minutes": 0, "month": 0, "nanos": 0, "seconds": 0, "time": 1609776000000, "timezoneOffset": -480, "year": 121}, "XK_DATE": "2022-08-08", "QF_MANAGER_NAME": "广东省药品监督管理局", "BUSINESS_LICENSE_NUMBER": "91440101MA59EHU83X", "XC_DATE": "2021-01-05", "NUM_": 577}, {"ID": "e534288920c04241a3dc23826c90aaff", "EPS_NAME": "广州千洁度化妆品有限公司", "PRODUCT_SN": "粤妆20170391", "CITY_CODE": null, "XK_COMPLETE_DATE": {"date": 5, "day": 2, "hours": 0, "minutes": 0, "month": 0, "nanos": 0, "seconds": 0, "time": 1609776000000, "timezoneOffset": -480, "year": 121}, "XK_DATE": "2022-05-04", "QF_MANAGER_NAME": "广东省药品监督管理局", "BUSINESS_LICENSE_NUMBER": "914401115876185898", "XC_DATE": "2021-01-05", "NUM_": 578}, {"ID": "f98c845c4bf846f8afcf83095e415865", "EPS_NAME": "广州芊植本草化妆品有限公司", "PRODUCT_SN": "粤妆20170224", "CITY_CODE": null, "XK_COMPLETE_DATE": {"date": 5, "day": 2, "hours": 0, "minutes": 0, "month": 0, "nanos": 0, "seconds": 0, "time": 1609776000000, "timezoneOffset": -480, "year": 121}, "XK_DATE": "2022-02-07", "QF_MANAGER_NAME": "广东省药品监督管理局", "BUSINESS_LICENSE_NUMBER": "91440111669985825J", "XC_DATE": "2021-01-05", "NUM_": 579}, {"ID": "aaaf56b97f1846e69c28c6ae177959c6", "EPS_NAME": "广州美思生物技术有限公司", "PRODUCT_SN": "粤妆20170099", "CITY_CODE": null, "XK_COMPLETE_DATE": {"date": 5, "day": 2, "hours": 0, "minutes": 0, "month": 0, "nanos": 0, "seconds": 0, "time": 1609776000000, "timezoneOffset": -480, "year": 121}, "XK_DATE": "2026-01-04", "QF_MANAGER_NAME": "广东省药品监督管理局", "BUSINESS_LICENSE_NUMBER": "914401015983410956", "XC_DATE": "2021-01-05", "NUM_": 580}, {"ID": "45c6a648eedb482b9853a33812a035e2", "EPS_NAME": "广州颜馨日化有限公司", "PRODUCT_SN": "粤妆20170028", "CITY_CODE": null, "XK_COMPLETE_DATE": {"date": 5, "day": 2, "hours": 0, "minutes": 0, "month": 0, "nanos": 0, "seconds": 0, "time": 1609776000000, "timezoneOffset": -480, "year": 121}, "XK_DATE": "2022-01-05", "QF_MANAGER_NAME": "广东省药品监督管理局", "BUSINESS_LICENSE_NUMBER": "91440106618612084W", "XC_DATE": "2021-01-05", "NUM_": 581}, {"ID": "bc5093b1c5e84aedb00bf04554e65e53", "EPS_NAME": "广州妆皇化妆品有限公司", "PRODUCT_SN": "粤妆20161787", "CITY_CODE": null, "XK_COMPLETE_DATE": {"date": 5, "day": 2, "hours": 0, "minutes": 0, "month": 0, "nanos": 0, "seconds": 0, "time": 1609776000000, "timezoneOffset": -480, "year": 121}, "XK_DATE": "2021-12-28", "QF_MANAGER_NAME": "广东省药品监督管理局", "BUSINESS_LICENSE_NUMBER": "914401115622555909", "XC_DATE": "2021-01-05", "NUM_": 582}, {"ID": "8c597c53e97a4510ab360bdb1e7982d6", "EPS_NAME": "广州市如馨化妆品有限公司", "PRODUCT_SN": "粤妆20161461", "CITY_CODE": null, "XK_COMPLETE_DATE": {"date": 5, "day": 2, "hours": 0, "minutes": 0, "month": 0, "nanos": 0, "seconds": 0, "time": 1609776000000, "timezoneOffset": -480, "year": 121}, "XK_DATE": "2021-12-04", "QF_MANAGER_NAME": "广东省药品监督管理局", "BUSINESS_LICENSE_NUMBER": "91440101MA59ER3N1P", "XC_DATE": "2021-01-05", "NUM_": 583}, {"ID": "fbf175a7fbdc43e8a92734f5b8d37798", "EPS_NAME": "广州市凯维斯化妆品有限公司", "PRODUCT_SN": "粤妆20161261", "CITY_CODE": null, "XK_COMPLETE_DATE": {"date": 5, "day": 2, "hours": 0, "minutes": 0, "month": 0, "nanos": 0, "seconds": 0, "time": 1609776000000, "timezoneOffset": -480, "year": 121}, "XK_DATE": "2021-11-22", "QF_MANAGER_NAME": "广东省药品监督管理局", "BUSINESS_LICENSE_NUMBER": "91440111759420254A", "XC_DATE": "2021-01-05", "NUM_": 584}, {"ID": "24b243af36a14c75a2088a8cf084e99e", "EPS_NAME": "广州市草绿香生物科技有限公司", "PRODUCT_SN": "粤妆20161148", "CITY_CODE": null, "XK_COMPLETE_DATE": {"date": 5, "day": 2, "hours": 0, "minutes": 0, "month": 0, "nanos": 0, "seconds": 0, "time": 1609776000000, "timezoneOffset": -480, "year": 121}, "XK_DATE": "2021-11-10", "QF_MANAGER_NAME": "广东省药品监督管理局", "BUSINESS_LICENSE_NUMBER": "91440111788911028L", "XC_DATE": "2021-01-05", "NUM_": 585}], "orderBy": "createDate", "orderType": "desc", "pageCount": 373, "pageNumber": 39, "pageSize": 15, "property": "", "totalCount": 5590}