{"filesize": "", "keyword": "", "list": [{"ID": "99fb3d370f294067aeb14ec1f37b2fdc", "EPS_NAME": "广州水姻缘化妆品有限公司", "PRODUCT_SN": "粤妆20180262", "CITY_CODE": null, "XK_COMPLETE_DATE": {"date": 6, "day": 2, "hours": 0, "minutes": 0, "month": 3, "nanos": 0, "seconds": 0, "time": 1617638400000, "timezoneOffset": -480, "year": 121}, "XK_DATE": "2023-12-20", "QF_MANAGER_NAME": "广东省药品监督管理局", "BUSINESS_LICENSE_NUMBER": "91440101MA59QF6T25", "XC_DATE": "2021-04-06", "NUM_": 46}, {"ID": "c2b8d6dc7e9c4add9cf3aa6f615020f1", "EPS_NAME": "广州市添姿化妆品有限公司", "PRODUCT_SN": "粤妆20180162", "CITY_CODE": null, "XK_COMPLETE_DATE": {"date": 6, "day": 2, "hours": 0, "minutes": 0, "month": 3, "nanos": 0, "seconds": 0, "time": 1617638400000, "timezoneOffset": -480, "year": 121}, "XK_DATE": "2023-07-11", "QF_MANAGER_NAME": "广东省药品监督管理局", "BUSINESS_LICENSE_NUMBER": "91440101MA5ANUNE3G", "XC_DATE": "2021-04-06", "NUM_": 47}, {"ID": "b41443701553474f8e6bd06773580d89", "EPS_NAME": "广州嫣恣化妆品有限公司", "PRODUCT_SN": "粤妆20170452", "CITY_CODE": null, "XK_COMPLETE_DATE": {"date": 6, "day": 2, "hours": 0, "minutes": 0, "month": 3, "nanos": 0, "seconds": 0, "time": 1617638400000, "timezoneOffset": -480, "year": 121}, "XK_DATE": "2022-07-31", "QF_MANAGER_NAME": "广东省药品监督管理局", "BUSINESS_LICENSE_NUMBER": "91440111088535455P", "XC_DATE": "2021-04-06", "NUM_": 48}, {"ID": "60d106f42fc4439995bdc1226d55d026", "EPS_NAME": "广州斯芙利精细化工有限公司", "PRODUCT_SN": "粤妆20170449", "CITY_CODE": null, "XK_COMPLETE_DATE": {"date": 6, "day": 2, "hours": 0, "minutes": 0, "month": 3, "nanos": 0, "seconds": 0, "time": 1617638400000, "timezoneOffset": -480, "year": 121}, "XK_DATE": "2022-07-31", "QF_MANAGER_NAME": "广东省药品监督管理局", "BUSINESS_LICENSE_NUMBER": "91440101MA59MFXR6U", "XC_DATE": "2021-04-06", "NUM_": 49}, {"ID": "55a025d24b1c412a9433a2dd7dbdcfbf", "EPS_NAME": "广州市思蜜达生物科技有限公司", "PRODUCT_SN": "粤妆20170205", "CITY_CODE": null, "XK_COMPLETE_DATE": {"date": 6, "day": 2, "hours": 0, "minutes": 0, "month": 3, "nanos": 0, "seconds": 0, "time": 1617638400000, "timezoneOffset": -480, "year": 121}, "XK_DATE": "2026-04-05", "QF_MANAGER_NAME": "广东省药品监督管理局", "BUSINESS_LICENSE_NUMBER": "91440111082745347Y", "XC_DATE": "2021-04-06", "NUM_": 50}, {"ID": "2ead344b0f4742b9858a52095bcd5770", "EPS_NAME": "广州博馨生物科技有限公司", "PRODUCT_SN": "粤妆20170190", "CITY_CODE": null, "XK_COMPLETE_DATE": {"date": 6, "day": 2, "hours": 0, "minutes": 0, "month": 3, "nanos": 0, "seconds": 0, "time": 1617638400000, "timezoneOffset": -480, "year": 121}, "XK_DATE": "2022-02-03", "QF_MANAGER_NAME": "广东省药品监督管理局", "BUSINESS_LICENSE_NUMBER": "91440111327591658D", "XC_DATE": "2021-04-06", "NUM_": 51}, {"ID": "f4a9769446e64b6ebf582ee377056c0c", "EPS_NAME": "广州唯我美日用品有限公司", "PRODUCT_SN": "粤妆20161579", "CITY_CODE": null, "XK_COMPLETE_DATE": {"date": 6, "day": 2, "hours": 0, "minutes": 0, "month": 3, "nanos": 0, "seconds": 0, "time": 1617638400000, "timezoneOffset": -480, "year": 121}, "XK_DATE": "2021-12-13", "QF_MANAGER_NAME": "广东省药品监督管理局", "BUSINESS_LICENSE_NUMBER": "91440111231214081A", "XC_DATE": "2021-04-06", "NUM_": 52}, {"ID": "a23dbcdc5a614daea149cb25990daed7", "EPS_NAME": "润本生物技术股份有限公司", "PRODUCT_SN": "粤妆20161345", "CITY_CODE": null, "XK_COMPLETE_DATE": {"date": 6, "day": 2, "hours": 0, "minutes": 0, "month": 3, "nanos": 0, "seconds": 0, "time": 1617638400000, "timezoneOffset": -480, "year": 121}, "XK_DATE": "2026-04-05", "QF_MANAGER_NAME": "广东省药品监督管理局", "BUSINESS_LICENSE_NUMBER": "914401160877481258", "XC_DATE": "2021-04-06", "NUM_": 53}, {"ID": "8e33fb2f32f44484b241738934b27256", "EPS_NAME": "广州臻颜化妆品有限公司", "PRODUCT_SN": "粤妆20161158", "CITY_CODE": null, "XK_COMPLETE_DATE": {"date": 6, "day": 2, "hours": 0, "minutes": 0, "month": 3, "nanos": 0, "seconds": 0, "time": 1617638400000, "timezoneOffset": -480, "year": 121}, "XK_DATE": "2021-11-10", "QF_MANAGER_NAME": "广东省药品监督管理局", "BUSINESS_LICENSE_NUMBER": "91440101MA59ENB70W", "XC_DATE": "2021-04-06", "NUM_": 54}, {"ID": "b07b8d961598459ba8224e77764a99b8", "EPS_NAME": "广州市裕朝化妆品有限公司", "PRODUCT_SN": "粤妆20160781", "CITY_CODE": null, "XK_COMPLETE_DATE": {"date": 6, "day": 2, "hours": 0, "minutes": 0, "month": 3, "nanos": 0, "seconds": 0, "time": 1617638400000, "timezoneOffset": -480, "year": 121}, "XK_DATE": "2021-09-26", "QF_MANAGER_NAME": "广东省药品监督管理局", "BUSINESS_LICENSE_NUMBER": "914401115915358587", "XC_DATE": "2021-04-06", "NUM_": 55}, {"ID": "5d38c2a0d15b47398aba4a3cdd498a70", "EPS_NAME": "广州市邦妮精细化工有限公司", "PRODUCT_SN": "粤妆20160718", "CITY_CODE": null, "XK_COMPLETE_DATE": {"date": 6, "day": 2, "hours": 0, "minutes": 0, "month": 3, "nanos": 0, "seconds": 0, "time": 1617638400000, "timezoneOffset": -480, "year": 121}, "XK_DATE": "2026-04-05", "QF_MANAGER_NAME": "广东省药品监督管理局", "BUSINESS_LICENSE_NUMBER": "914401115523664222", "XC_DATE": "2021-04-06", "NUM_": 56}, {"ID": "ef33fe73ea44448495fa255e625fb96d", "EPS_NAME": "广东富江医学科技有限公司", "PRODUCT_SN": "粤妆20160584", "CITY_CODE": null, "XK_COMPLETE_DATE": {"date": 6, "day": 2, "hours": 0, "minutes": 0, "month": 3, "nanos": 0, "seconds": 0, "time": 1617638400000, "timezoneOffset": -480, "year": 121}, "XK_DATE": "2026-04-05", "QF_MANAGER_NAME": "广东省药品监督管理局", "BUSINESS_LICENSE_NUMBER": "91440400725989960M", "XC_DATE": "2021-04-06", "NUM_": 57}, {"ID": "4ea92e0222344e32909eaf2eebf42d5a", "EPS_NAME": "广州悠莱化妆品有限公司", "PRODUCT_SN": "粤妆20160527", "CITY_CODE": null, "XK_COMPLETE_DATE": {"date": 6, "day": 2, "hours": 0, "minutes": 0, "month": 3, "nanos": 0, "seconds": 0, "time": 1617638400000, "timezoneOffset": -480, "year": 121}, "XK_DATE": "2026-04-05", "QF_MANAGER_NAME": "广东省药品监督管理局", "BUSINESS_LICENSE_NUMBER": "914401016659386261", "XC_DATE": "2021-04-06", "NUM_": 58}, {"ID": "557d34c311684064a3c27a632efb8810", "EPS_NAME": "深圳市琉璃光生物科技有限公司", "PRODUCT_SN": "粤妆20160497", "CITY_CODE": null, "XK_COMPLETE_DATE": {"date": 6, "day": 2, "hours": 0, "minutes": 0, "month": 3, "nanos": 0, "seconds": 0, "time": 1617638400000, "timezoneOffset": -480, "year": 121}, "XK_DATE": "2026-04-05", "QF_MANAGER_NAME": "广东省药品监督管理局", "BUSINESS_LICENSE_NUMBER": "91440300335222326E", "XC_DATE": "2021-04-06", "NUM_": 59}, {"ID": "a9d16c8ee5514ca58d795cfb4e4dc6fe", "EPS_NAME": "广州欧曼娜化妆品有限公司", "PRODUCT_SN": "粤妆20160435", "CITY_CODE": null, "XK_COMPLETE_DATE": {"date": 6, "day": 2, "hours": 0, "minutes": 0, "month": 3, "nanos": 0, "seconds": 0, "time": 1617638400000, "timezoneOffset": -480, "year": 121}, "XK_DATE": "2023-12-09", "QF_MANAGER_NAME": "广东省药品监督管理局", "BUSINESS_LICENSE_NUMBER": "914401113209772167", "XC_DATE": "2021-04-06", "NUM_": 60}], "orderBy": "createDate", "orderType": "desc", "pageCount": 373, "pageNumber": 4, "pageSize": 15, "property": "", "totalCount": 5590}