{"filesize": "", "keyword": "", "list": [{"ID": "1e502136933e49ef8f43d70f47063165", "EPS_NAME": "广州启妆生物科技有限公司", "PRODUCT_SN": "粤妆20161084", "CITY_CODE": null, "XK_COMPLETE_DATE": {"date": 5, "day": 2, "hours": 0, "minutes": 0, "month": 0, "nanos": 0, "seconds": 0, "time": 1609776000000, "timezoneOffset": -480, "year": 121}, "XK_DATE": "2021-11-08", "QF_MANAGER_NAME": "广东省药品监督管理局", "BUSINESS_LICENSE_NUMBER": "91440116MA59A3KUX8", "XC_DATE": "2021-01-05", "NUM_": 586}, {"ID": "51f5dcc3834847e19254499e44ba5374", "EPS_NAME": "珠海姗拉娜化妆品有限公司", "PRODUCT_SN": "粤妆20160934", "CITY_CODE": null, "XK_COMPLETE_DATE": {"date": 5, "day": 2, "hours": 0, "minutes": 0, "month": 0, "nanos": 0, "seconds": 0, "time": 1609776000000, "timezoneOffset": -480, "year": 121}, "XK_DATE": "2021-10-24", "QF_MANAGER_NAME": "广东省药品监督管理局", "BUSINESS_LICENSE_NUMBER": "91440400617496640N", "XC_DATE": "2021-01-05", "NUM_": 587}, {"ID": "7c7cafd861a4424f996fe2327d4b872b", "EPS_NAME": "广州美姿生物科技有限公司", "PRODUCT_SN": "粤妆20160873", "CITY_CODE": null, "XK_COMPLETE_DATE": {"date": 5, "day": 2, "hours": 0, "minutes": 0, "month": 0, "nanos": 0, "seconds": 0, "time": 1609776000000, "timezoneOffset": -480, "year": 121}, "XK_DATE": "2026-01-04", "QF_MANAGER_NAME": "广东省药品监督管理局", "BUSINESS_LICENSE_NUMBER": "914401016969385493", "XC_DATE": "2021-01-05", "NUM_": 588}, {"ID": "622461dd8c824716ae5b5d5f97f74b8c", "EPS_NAME": "广州市铖顺化妆品有限公司", "PRODUCT_SN": "粤妆20160300", "CITY_CODE": null, "XK_COMPLETE_DATE": {"date": 5, "day": 2, "hours": 0, "minutes": 0, "month": 0, "nanos": 0, "seconds": 0, "time": 1609776000000, "timezoneOffset": -480, "year": 121}, "XK_DATE": "2023-07-17", "QF_MANAGER_NAME": "广东省药品监督管理局", "BUSINESS_LICENSE_NUMBER": "91440111685210659M", "XC_DATE": "2021-01-05", "NUM_": 589}, {"ID": "f15e7bf079b64b018c713f086f04bad9", "EPS_NAME": "海南卓瑞生物医药有限公司", "PRODUCT_SN": "琼妆20190009", "CITY_CODE": "311", "XK_COMPLETE_DATE": {"date": 5, "day": 2, "hours": 0, "minutes": 0, "month": 0, "nanos": 0, "seconds": 0, "time": 1609776000000, "timezoneOffset": -480, "year": 121}, "XK_DATE": "2024-11-18", "QF_MANAGER_NAME": "海南省药品监督管理局", "BUSINESS_LICENSE_NUMBER": "91469027MA5T8H6N9D", "XC_DATE": "2021-01-05", "NUM_": 590}, {"ID": "d4f024a2c7764c0596ea0c30ba3f89a0", "EPS_NAME": "成都盛世名妆化妆品有限责任公司", "PRODUCT_SN": "川妆20160033", "CITY_CODE": "165", "XK_COMPLETE_DATE": {"date": 5, "day": 2, "hours": 0, "minutes": 0, "month": 0, "nanos": 0, "seconds": 0, "time": 1609776000000, "timezoneOffset": -480, "year": 121}, "XK_DATE": "2021-12-06", "QF_MANAGER_NAME": "四川省药品监督管理局", "BUSINESS_LICENSE_NUMBER": "915101156630153180", "XC_DATE": "2021-01-05", "NUM_": 591}, {"ID": "a6ede67d58d74c93b6e054f3d1a78b80", "EPS_NAME": "西双版纳柬龙制药有限公司", "PRODUCT_SN": "云妆20160002", "CITY_CODE": "212", "XK_COMPLETE_DATE": {"date": 4, "day": 1, "hours": 0, "minutes": 0, "month": 0, "nanos": 0, "seconds": 0, "time": 1609689600000, "timezoneOffset": -480, "year": 121}, "XK_DATE": "2021-04-08", "QF_MANAGER_NAME": "云南省药品监督管理局", "BUSINESS_LICENSE_NUMBER": "91532800218573637H", "XC_DATE": "2021-01-04", "NUM_": 592}, {"ID": "8fb0864eedad429988056d90b32014bd", "EPS_NAME": "东莞易美源化妆品有限公司", "PRODUCT_SN": "粤妆20161644", "CITY_CODE": null, "XK_COMPLETE_DATE": {"date": 4, "day": 1, "hours": 0, "minutes": 0, "month": 0, "nanos": 0, "seconds": 0, "time": 1609689600000, "timezoneOffset": -480, "year": 121}, "XK_DATE": "2021-12-22", "QF_MANAGER_NAME": "广东省药品监督管理局", "BUSINESS_LICENSE_NUMBER": "914419005921147568", "XC_DATE": "2021-01-04", "NUM_": 593}, {"ID": "01b62d755ca94720970a219c7af3b455", "EPS_NAME": "南通优护优家卫生用品有限公司", "PRODUCT_SN": "苏妆20170007", "CITY_CODE": "85", "XK_COMPLETE_DATE": {"date": 4, "day": 1, "hours": 0, "minutes": 0, "month": 0, "nanos": 0, "seconds": 0, "time": 1609689600000, "timezoneOffset": -480, "year": 121}, "XK_DATE": "2022-03-07", "QF_MANAGER_NAME": "江苏省药品监督管理局", "BUSINESS_LICENSE_NUMBER": "91320682583709862G", "XC_DATE": "2021-01-04", "NUM_": 594}, {"ID": "4191260b07a14f8486c8e652ba4692e9", "EPS_NAME": "宓妃（浙江省金华市）化妆品有限公司", "PRODUCT_SN": "浙妆20190039", "CITY_CODE": null, "XK_COMPLETE_DATE": {"date": 31, "day": 4, "hours": 0, "minutes": 0, "month": 11, "nanos": 0, "seconds": 0, "time": 1609344000000, "timezoneOffset": -480, "year": 120}, "XK_DATE": "2024-08-01", "QF_MANAGER_NAME": "浙江省药品监督管理局", "BUSINESS_LICENSE_NUMBER": "91330783MA2E7RJW8R", "XC_DATE": "2020-12-31", "NUM_": 595}, {"ID": "b24d091d9f684b4fb5ac64ba5aeb64ed", "EPS_NAME": "广东派雅生物科技有限公司", "PRODUCT_SN": "粤妆20200261", "CITY_CODE": null, "XK_COMPLETE_DATE": {"date": 31, "day": 4, "hours": 0, "minutes": 0, "month": 11, "nanos": 0, "seconds": 0, "time": 1609344000000, "timezoneOffset": -480, "year": 120}, "XK_DATE": "2025-12-30", "QF_MANAGER_NAME": "广东省药品监督管理局", "BUSINESS_LICENSE_NUMBER": "91440507MA54WAXCX6", "XC_DATE": "2020-12-31", "NUM_": 596}, {"ID": "ea278b325af543998b5e0a1c2cc482ba", "EPS_NAME": "英德市藻米美妆产业有限公司", "PRODUCT_SN": "粤妆20190114", "CITY_CODE": null, "XK_COMPLETE_DATE": {"date": 31, "day": 4, "hours": 0, "minutes": 0, "month": 11, "nanos": 0, "seconds": 0, "time": 1609344000000, "timezoneOffset": -480, "year": 120}, "XK_DATE": "2024-06-05", "QF_MANAGER_NAME": "广东省药品监督管理局", "BUSINESS_LICENSE_NUMBER": "91441881MA522GUR4Q", "XC_DATE": "2020-12-31", "NUM_": 597}, {"ID": "b607fe2d297e42578392a722161dcb7f", "EPS_NAME": "广东保格丽生物科技实业有限公司", "PRODUCT_SN": "粤妆20180206", "CITY_CODE": null, "XK_COMPLETE_DATE": {"date": 31, "day": 4, "hours": 0, "minutes": 0, "month": 11, "nanos": 0, "seconds": 0, "time": 1609344000000, "timezoneOffset": -480, "year": 120}, "XK_DATE": "2025-12-30", "QF_MANAGER_NAME": "广东省药品监督管理局", "BUSINESS_LICENSE_NUMBER": "91440515MA51LGG742", "XC_DATE": "2020-12-31", "NUM_": 598}, {"ID": "ee608238245144d2aa3ee91b10ae0ad5", "EPS_NAME": "清远市和彩日用化妆品厂", "PRODUCT_SN": "粤妆20161767", "CITY_CODE": null, "XK_COMPLETE_DATE": {"date": 31, "day": 4, "hours": 0, "minutes": 0, "month": 11, "nanos": 0, "seconds": 0, "time": 1609344000000, "timezoneOffset": -480, "year": 120}, "XK_DATE": "2021-12-28", "QF_MANAGER_NAME": "广东省药品监督管理局", "BUSINESS_LICENSE_NUMBER": "91441802721149964K", "XC_DATE": "2020-12-31", "NUM_": 599}, {"ID": "f42b99625eeb4624bd9a0c407bf298c4", "EPS_NAME": "深圳天和圆实业有限公司", "PRODUCT_SN": "粤妆20160494", "CITY_CODE": null, "XK_COMPLETE_DATE": {"date": 31, "day": 4, "hours": 0, "minutes": 0, "month": 11, "nanos": 0, "seconds": 0, "time": 1609344000000, "timezoneOffset": -480, "year": 120}, "XK_DATE": "2021-07-28", "QF_MANAGER_NAME": "广东省药品监督管理局", "BUSINESS_LICENSE_NUMBER": "914403007675551594", "XC_DATE": "2020-12-31", "NUM_": 600}], "orderBy": "createDate", "orderType": "desc", "pageCount": 373, "pageNumber": 40, "pageSize": 15, "property": "", "totalCount": 5590}