{"filesize": "", "keyword": "", "list": [{"ID": "0bae006629be4086b542650e60ccf4e2", "EPS_NAME": "广东乐婷化妆品实业有限公司", "PRODUCT_SN": "粤妆20160262", "CITY_CODE": null, "XK_COMPLETE_DATE": {"date": 31, "day": 4, "hours": 0, "minutes": 0, "month": 11, "nanos": 0, "seconds": 0, "time": 1609344000000, "timezoneOffset": -480, "year": 120}, "XK_DATE": "2023-12-16", "QF_MANAGER_NAME": "广东省药品监督管理局", "BUSINESS_LICENSE_NUMBER": "91440514752874843T", "XC_DATE": "2020-12-31", "NUM_": 601}, {"ID": "f6cbcfa6d6aa4a749af99e153aac716d", "EPS_NAME": "广东恒芳生物科技有限公司", "PRODUCT_SN": "粤妆20160232", "CITY_CODE": null, "XK_COMPLETE_DATE": {"date": 31, "day": 4, "hours": 0, "minutes": 0, "month": 11, "nanos": 0, "seconds": 0, "time": 1609344000000, "timezoneOffset": -480, "year": 120}, "XK_DATE": "2025-12-30", "QF_MANAGER_NAME": "广东省药品监督管理局", "BUSINESS_LICENSE_NUMBER": "91440514231638378N", "XC_DATE": "2020-12-31", "NUM_": 602}, {"ID": "723a48bc3ac44164b647fa76fbec3fef", "EPS_NAME": "汕头市奇伟实业有限公司", "PRODUCT_SN": "粤妆20160231", "CITY_CODE": null, "XK_COMPLETE_DATE": {"date": 31, "day": 4, "hours": 0, "minutes": 0, "month": 11, "nanos": 0, "seconds": 0, "time": 1609344000000, "timezoneOffset": -480, "year": 120}, "XK_DATE": "2025-12-30", "QF_MANAGER_NAME": "广东省药品监督管理局", "BUSINESS_LICENSE_NUMBER": "9144051423164580XY", "XC_DATE": "2020-12-31", "NUM_": 603}, {"ID": "e3ad5ce5cbaf402cb0a1a5dd20331104", "EPS_NAME": "郑州兄弟日用品有限公司", "PRODUCT_SN": "豫妆20210001", "CITY_CODE": "6", "XK_COMPLETE_DATE": {"date": 31, "day": 4, "hours": 0, "minutes": 0, "month": 11, "nanos": 0, "seconds": 0, "time": 1609344000000, "timezoneOffset": -480, "year": 120}, "XK_DATE": "2025-12-30", "QF_MANAGER_NAME": "河南省药品监督管理局", "BUSINESS_LICENSE_NUMBER": "91410183MA469LW264", "XC_DATE": "2020-12-31", "NUM_": 604}, {"ID": "3abaa028ce034aa997115e48bdcc9e5a", "EPS_NAME": "福建艾尚化妆品有限公司", "PRODUCT_SN": "闽妆20170011", "CITY_CODE": "143", "XK_COMPLETE_DATE": {"date": 31, "day": 4, "hours": 0, "minutes": 0, "month": 11, "nanos": 0, "seconds": 0, "time": 1609344000000, "timezoneOffset": -480, "year": 120}, "XK_DATE": "2022-02-22", "QF_MANAGER_NAME": "福建省药品监督管理局", "BUSINESS_LICENSE_NUMBER": "91350725694396862R", "XC_DATE": "2020-12-31", "NUM_": 605}, {"ID": "2c94638976b3983d0176b76f45520255", "EPS_NAME": "北京北方大陆生物工程有限公司乐亭分公司", "PRODUCT_SN": "冀妆20200009", "CITY_CODE": null, "XK_COMPLETE_DATE": {"date": 31, "day": 4, "hours": 0, "minutes": 0, "month": 11, "nanos": 0, "seconds": 0, "time": 1609344000000, "timezoneOffset": -480, "year": 120}, "XK_DATE": "2025-12-30", "QF_MANAGER_NAME": "河北省药品监督管理局", "BUSINESS_LICENSE_NUMBER": "91130225MA0FBNGA71", "XC_DATE": "2020-12-31", "NUM_": 606}, {"ID": "2c946389742aaeb001742d906a300016", "EPS_NAME": "石家庄贝洁日化有限公司", "PRODUCT_SN": "冀妆20200004", "CITY_CODE": null, "XK_COMPLETE_DATE": {"date": 31, "day": 4, "hours": 0, "minutes": 0, "month": 11, "nanos": 0, "seconds": 0, "time": 1609344000000, "timezoneOffset": -480, "year": 120}, "XK_DATE": "2025-08-24", "QF_MANAGER_NAME": "河北省药品监督管理局", "BUSINESS_LICENSE_NUMBER": "91130128308216297L", "XC_DATE": "2020-12-31", "NUM_": 607}, {"ID": "4028E5EF679741440167A03011D3004A", "EPS_NAME": "河北方汇化妆品有限公司", "PRODUCT_SN": "冀妆20180009", "CITY_CODE": null, "XK_COMPLETE_DATE": {"date": 31, "day": 4, "hours": 0, "minutes": 0, "month": 11, "nanos": 0, "seconds": 0, "time": 1609344000000, "timezoneOffset": -480, "year": 120}, "XK_DATE": "2023-12-10", "QF_MANAGER_NAME": "河北省药品监督管理局", "BUSINESS_LICENSE_NUMBER": "91130123MA07T23G7A", "XC_DATE": "2020-12-31", "NUM_": 608}, {"ID": "1e4ebd2e12614b1aa1e3708c7a882e2f", "EPS_NAME": "恩施农禅谷生态农业发展有限公司", "PRODUCT_SN": "鄂妆20200014", "CITY_CODE": "76", "XK_COMPLETE_DATE": {"date": 31, "day": 4, "hours": 0, "minutes": 0, "month": 11, "nanos": 0, "seconds": 0, "time": 1609344000000, "timezoneOffset": -480, "year": 120}, "XK_DATE": "2025-12-30", "QF_MANAGER_NAME": "湖北省药品监督管理局", "BUSINESS_LICENSE_NUMBER": "91422822MA4911D89L", "XC_DATE": "2020-12-31", "NUM_": 609}, {"ID": "6beb114a3055463f81e71a19150feef0", "EPS_NAME": "武汉麦迪可生物工程有限公司", "PRODUCT_SN": "鄂妆20170012", "CITY_CODE": "67", "XK_COMPLETE_DATE": {"date": 31, "day": 4, "hours": 0, "minutes": 0, "month": 11, "nanos": 0, "seconds": 0, "time": 1609344000000, "timezoneOffset": -480, "year": 120}, "XK_DATE": "2022-03-09", "QF_MANAGER_NAME": "湖北省药品监督管理局", "BUSINESS_LICENSE_NUMBER": "91420111778182626Y", "XC_DATE": "2020-12-31", "NUM_": 610}, {"ID": "298fccd1064e405ea004bceacc7e0401", "EPS_NAME": "四川丽妍工坊生物科技有限公司", "PRODUCT_SN": "川妆20190010", "CITY_CODE": "166", "XK_COMPLETE_DATE": {"date": 31, "day": 4, "hours": 0, "minutes": 0, "month": 11, "nanos": 0, "seconds": 0, "time": 1609344000000, "timezoneOffset": -480, "year": 120}, "XK_DATE": "2024-12-26", "QF_MANAGER_NAME": "四川省药品监督管理局", "BUSINESS_LICENSE_NUMBER": "91511402MA67CHTM0J", "XC_DATE": "2020-12-31", "NUM_": 611}, {"ID": "2b0d948d020d4a5ca121f7db66f711bf", "EPS_NAME": "广州中科蓝医药生物科技有限公司", "PRODUCT_SN": "粤妆20180240", "CITY_CODE": null, "XK_COMPLETE_DATE": {"date": 30, "day": 3, "hours": 0, "minutes": 0, "month": 11, "nanos": 0, "seconds": 0, "time": 1609257600000, "timezoneOffset": -480, "year": 120}, "XK_DATE": "2023-11-14", "QF_MANAGER_NAME": "广东省药品监督管理局", "BUSINESS_LICENSE_NUMBER": "91440101MA5B70C51K", "XC_DATE": "2020-12-30", "NUM_": 612}, {"ID": "a09db35c428d4dce9e9e510a8711b481", "EPS_NAME": "广州美颜美生物科技有限公司", "PRODUCT_SN": "粤妆20180188", "CITY_CODE": null, "XK_COMPLETE_DATE": {"date": 30, "day": 3, "hours": 0, "minutes": 0, "month": 11, "nanos": 0, "seconds": 0, "time": 1609257600000, "timezoneOffset": -480, "year": 120}, "XK_DATE": "2023-08-30", "QF_MANAGER_NAME": "广东省药品监督管理局", "BUSINESS_LICENSE_NUMBER": "91440101MA5ATTND5D", "XC_DATE": "2020-12-30", "NUM_": 613}, {"ID": "554e22e4eee5403eb4b9731b546cbbd7", "EPS_NAME": "广州希洁化妆品有限公司", "PRODUCT_SN": "粤妆20180079", "CITY_CODE": null, "XK_COMPLETE_DATE": {"date": 30, "day": 3, "hours": 0, "minutes": 0, "month": 11, "nanos": 0, "seconds": 0, "time": 1609257600000, "timezoneOffset": -480, "year": 120}, "XK_DATE": "2023-02-28", "QF_MANAGER_NAME": "广东省药品监督管理局", "BUSINESS_LICENSE_NUMBER": "91440101054531931A", "XC_DATE": "2020-12-30", "NUM_": 614}, {"ID": "4fdb252182ae43cd9a44a791f3fc5b61", "EPS_NAME": "广州怡嘉生物科技有限公司", "PRODUCT_SN": "粤妆20170577", "CITY_CODE": null, "XK_COMPLETE_DATE": {"date": 30, "day": 3, "hours": 0, "minutes": 0, "month": 11, "nanos": 0, "seconds": 0, "time": 1609257600000, "timezoneOffset": -480, "year": 120}, "XK_DATE": "2022-11-08", "QF_MANAGER_NAME": "广东省药品监督管理局", "BUSINESS_LICENSE_NUMBER": "91440101MA59RBE867", "XC_DATE": "2020-12-30", "NUM_": 615}], "orderBy": "createDate", "orderType": "desc", "pageCount": 373, "pageNumber": 41, "pageSize": 15, "property": "", "totalCount": 5590}