{"filesize": "", "keyword": "", "list": [{"ID": "d54d097d4a024a85ac3c8a25f69e51b4", "EPS_NAME": "广州东智盟化妆品有限公司", "PRODUCT_SN": "粤妆20170228", "CITY_CODE": null, "XK_COMPLETE_DATE": {"date": 30, "day": 3, "hours": 0, "minutes": 0, "month": 11, "nanos": 0, "seconds": 0, "time": 1609257600000, "timezoneOffset": -480, "year": 120}, "XK_DATE": "2025-01-19", "QF_MANAGER_NAME": "广东省药品监督管理局", "BUSINESS_LICENSE_NUMBER": "91440101MA59GMTW8Q", "XC_DATE": "2020-12-30", "NUM_": 616}, {"ID": "082ae6c45b5b4c49863a116fc3d19eb2", "EPS_NAME": "广州美亚化妆品有限公司", "PRODUCT_SN": "粤妆20160681", "CITY_CODE": null, "XK_COMPLETE_DATE": {"date": 30, "day": 3, "hours": 0, "minutes": 0, "month": 11, "nanos": 0, "seconds": 0, "time": 1609257600000, "timezoneOffset": -480, "year": 120}, "XK_DATE": "2025-08-02", "QF_MANAGER_NAME": "广东省药品监督管理局", "BUSINESS_LICENSE_NUMBER": "91440111560231480R", "XC_DATE": "2020-12-30", "NUM_": 617}, {"ID": "94f7292fa42249baaf97720b563b23fc", "EPS_NAME": "汕头市佳家选日化用品有限公司", "PRODUCT_SN": "粤妆20160400", "CITY_CODE": null, "XK_COMPLETE_DATE": {"date": 30, "day": 3, "hours": 0, "minutes": 0, "month": 11, "nanos": 0, "seconds": 0, "time": 1609257600000, "timezoneOffset": -480, "year": 120}, "XK_DATE": "2025-12-29", "QF_MANAGER_NAME": "广东省药品监督管理局", "BUSINESS_LICENSE_NUMBER": "9144051472384643XT", "XC_DATE": "2020-12-30", "NUM_": 618}, {"ID": "cee2b965ed094da4821080f0bea8570f", "EPS_NAME": "宁夏艾伊生物工程研发有限公司", "PRODUCT_SN": "宁妆20160001", "CITY_CODE": "299", "XK_COMPLETE_DATE": {"date": 30, "day": 3, "hours": 0, "minutes": 0, "month": 11, "nanos": 0, "seconds": 0, "time": 1609257600000, "timezoneOffset": -480, "year": 120}, "XK_DATE": "2025-12-29", "QF_MANAGER_NAME": "宁夏回族自治区药品监督管理局", "BUSINESS_LICENSE_NUMBER": "916411000738052480", "XC_DATE": "2020-12-30", "NUM_": 619}, {"ID": "54308f14898b4a43bdc0ea52b620495f", "EPS_NAME": "上海美莲妮生物科技有限公司", "PRODUCT_SN": "沪妆20170006", "CITY_CODE": null, "XK_COMPLETE_DATE": {"date": 30, "day": 3, "hours": 0, "minutes": 0, "month": 11, "nanos": 0, "seconds": 0, "time": 1609257600000, "timezoneOffset": -480, "year": 120}, "XK_DATE": "2022-03-06", "QF_MANAGER_NAME": "上海市药品监督管理局", "BUSINESS_LICENSE_NUMBER": "91310120MA1HLQLDX6", "XC_DATE": "2020-12-30", "NUM_": 620}, {"ID": "b419d634592c4331822ff73cd5a12f99", "EPS_NAME": "南宁大旭美化妆品有限公司", "PRODUCT_SN": "桂妆20160030", "CITY_CODE": "237", "XK_COMPLETE_DATE": {"date": 30, "day": 3, "hours": 0, "minutes": 0, "month": 11, "nanos": 0, "seconds": 0, "time": 1609257600000, "timezoneOffset": -480, "year": 120}, "XK_DATE": "2021-12-04", "QF_MANAGER_NAME": "广西壮族自治药品监督管理局", "BUSINESS_LICENSE_NUMBER": "91450100771701358L", "XC_DATE": "2020-12-30", "NUM_": 621}, {"ID": "fb7777709a6945f9a44b3cee04c621f8", "EPS_NAME": "昆明远方生物制品有限公司", "PRODUCT_SN": "云妆20160025", "CITY_CODE": "204", "XK_COMPLETE_DATE": {"date": 29, "day": 2, "hours": 0, "minutes": 0, "month": 11, "nanos": 0, "seconds": 0, "time": 1609171200000, "timezoneOffset": -480, "year": 120}, "XK_DATE": "2021-12-06", "QF_MANAGER_NAME": "云南省食品药品监督管理局", "BUSINESS_LICENSE_NUMBER": "915301247380849331", "XC_DATE": "2020-12-29", "NUM_": 622}, {"ID": "b9e0eca2ee904ec7a66f6a48749f9645", "EPS_NAME": "广州澳莱娜生物科技有限公司", "PRODUCT_SN": "粤妆20200260", "CITY_CODE": null, "XK_COMPLETE_DATE": {"date": 29, "day": 2, "hours": 0, "minutes": 0, "month": 11, "nanos": 0, "seconds": 0, "time": 1609171200000, "timezoneOffset": -480, "year": 120}, "XK_DATE": "2025-12-28", "QF_MANAGER_NAME": "广东省药品监督管理局", "BUSINESS_LICENSE_NUMBER": "91440101MA59KL8Q42", "XC_DATE": "2020-12-29", "NUM_": 623}, {"ID": "d9bfbc6f84f449e6bcda37bf6c3b1ae1", "EPS_NAME": "广州金涵钰生物科技有限公司", "PRODUCT_SN": "粤妆20200259", "CITY_CODE": null, "XK_COMPLETE_DATE": {"date": 29, "day": 2, "hours": 0, "minutes": 0, "month": 11, "nanos": 0, "seconds": 0, "time": 1609171200000, "timezoneOffset": -480, "year": 120}, "XK_DATE": "2025-12-28", "QF_MANAGER_NAME": "广东省药品监督管理局", "BUSINESS_LICENSE_NUMBER": "91440101MA59UBTY0Y", "XC_DATE": "2020-12-29", "NUM_": 624}, {"ID": "5b729e9fe6b94ff3b6abb38bf8324ea7", "EPS_NAME": "潮州市亿修医疗科技有限公司江东分厂", "PRODUCT_SN": "粤妆20190040", "CITY_CODE": null, "XK_COMPLETE_DATE": {"date": 29, "day": 2, "hours": 0, "minutes": 0, "month": 11, "nanos": 0, "seconds": 0, "time": 1609171200000, "timezoneOffset": -480, "year": 120}, "XK_DATE": "2024-02-26", "QF_MANAGER_NAME": "广东省药品监督管理局", "BUSINESS_LICENSE_NUMBER": "91445103MA521QJU0U", "XC_DATE": "2020-12-29", "NUM_": 625}, {"ID": "0bf0d5a733b24f71b3c55ce1b55b4afb", "EPS_NAME": "广州益颜生物科技有限公司", "PRODUCT_SN": "粤妆20161710", "CITY_CODE": null, "XK_COMPLETE_DATE": {"date": 29, "day": 2, "hours": 0, "minutes": 0, "month": 11, "nanos": 0, "seconds": 0, "time": 1609171200000, "timezoneOffset": -480, "year": 120}, "XK_DATE": "2025-12-28", "QF_MANAGER_NAME": "广东省药品监督管理局", "BUSINESS_LICENSE_NUMBER": "91440101MA59EP9N4L", "XC_DATE": "2020-12-29", "NUM_": 626}, {"ID": "b11195d03b2f4f87bb64f856c5a91094", "EPS_NAME": "河南天兴化妆品有限公司", "PRODUCT_SN": "豫妆20170006", "CITY_CODE": "28", "XK_COMPLETE_DATE": {"date": 29, "day": 2, "hours": 0, "minutes": 0, "month": 11, "nanos": 0, "seconds": 0, "time": 1609171200000, "timezoneOffset": -480, "year": 120}, "XK_DATE": "2022-07-16", "QF_MANAGER_NAME": "河南省药品监督管理局", "BUSINESS_LICENSE_NUMBER": "91411104MA3X74MHOA", "XC_DATE": "2020-12-29", "NUM_": 627}, {"ID": "b55ffdf295e24df093742331b4ff651b", "EPS_NAME": "湖南康尔佳东方丽君化妆品有限公司", "PRODUCT_SN": "湘妆20160023", "CITY_CODE": "195", "XK_COMPLETE_DATE": {"date": 29, "day": 2, "hours": 0, "minutes": 0, "month": 11, "nanos": 0, "seconds": 0, "time": 1609171200000, "timezoneOffset": -480, "year": 120}, "XK_DATE": "2021-12-27", "QF_MANAGER_NAME": "湖南省药品监督管理局", "BUSINESS_LICENSE_NUMBER": "91430722058033657G", "XC_DATE": "2020-12-29", "NUM_": 628}, {"ID": "b128560b18b344c9a8c1328bed14a9f1", "EPS_NAME": "云南菊开生物科技有限公司", "PRODUCT_SN": "云妆20200005", "CITY_CODE": "204", "XK_COMPLETE_DATE": {"date": 28, "day": 1, "hours": 0, "minutes": 0, "month": 11, "nanos": 0, "seconds": 0, "time": 1609084800000, "timezoneOffset": -480, "year": 120}, "XK_DATE": "2025-12-28", "QF_MANAGER_NAME": "云南省药品监督管理局", "BUSINESS_LICENSE_NUMBER": "91530112MA6N9P9G40", "XC_DATE": "2020-12-28", "NUM_": 629}, {"ID": "b394d35809344229be1a47ef25e8c13d", "EPS_NAME": "云南柏妮兰生物资源开发有限公司", "PRODUCT_SN": "云妆20160012", "CITY_CODE": "204", "XK_COMPLETE_DATE": {"date": 28, "day": 1, "hours": 0, "minutes": 0, "month": 11, "nanos": 0, "seconds": 0, "time": 1609084800000, "timezoneOffset": -480, "year": 120}, "XK_DATE": "2021-10-24", "QF_MANAGER_NAME": "云南省药品监督管理局", "BUSINESS_LICENSE_NUMBER": "915301005600557478", "XC_DATE": "2020-12-28", "NUM_": 630}], "orderBy": "createDate", "orderType": "desc", "pageCount": 373, "pageNumber": 42, "pageSize": 15, "property": "", "totalCount": 5590}