{"filesize": "", "keyword": "", "list": [{"ID": "b435cf02e366467086631522f7b4f693", "EPS_NAME": "汕头市萱罗兰生物科技有限公司", "PRODUCT_SN": "粤妆20200258", "CITY_CODE": null, "XK_COMPLETE_DATE": {"date": 28, "day": 1, "hours": 0, "minutes": 0, "month": 11, "nanos": 0, "seconds": 0, "time": 1609084800000, "timezoneOffset": -480, "year": 120}, "XK_DATE": "2025-12-27", "QF_MANAGER_NAME": "广东省药品监督管理局", "BUSINESS_LICENSE_NUMBER": "91440514MA55ADNL9R", "XC_DATE": "2020-12-28", "NUM_": 631}, {"ID": "eaa8279667d54798adbf32f3e5f67103", "EPS_NAME": "靓密码生物科技（珠海）有限公司", "PRODUCT_SN": "粤妆20200130", "CITY_CODE": null, "XK_COMPLETE_DATE": {"date": 28, "day": 1, "hours": 0, "minutes": 0, "month": 11, "nanos": 0, "seconds": 0, "time": 1609084800000, "timezoneOffset": -480, "year": 120}, "XK_DATE": "2025-07-26", "QF_MANAGER_NAME": "广东省药品监督管理局", "BUSINESS_LICENSE_NUMBER": "91440404MA54BA5GXX", "XC_DATE": "2020-12-28", "NUM_": 632}, {"ID": "6a78bdcf7c284bf1a4e6258ee3c57d03", "EPS_NAME": "汕头市冰之恋化妆品有限公司", "PRODUCT_SN": "粤妆20160147", "CITY_CODE": null, "XK_COMPLETE_DATE": {"date": 28, "day": 1, "hours": 0, "minutes": 0, "month": 11, "nanos": 0, "seconds": 0, "time": 1609084800000, "timezoneOffset": -480, "year": 120}, "XK_DATE": "2025-12-27", "QF_MANAGER_NAME": "广东省药品监督管理局", "BUSINESS_LICENSE_NUMBER": "91440514MA4UHWRN19", "XC_DATE": "2020-12-28", "NUM_": 633}, {"ID": "3f88db37566646ca82c984954024054b", "EPS_NAME": "河南羚锐生物药业有限公司", "PRODUCT_SN": "豫妆20160044", "CITY_CODE": "496", "XK_COMPLETE_DATE": {"date": 28, "day": 1, "hours": 0, "minutes": 0, "month": 11, "nanos": 0, "seconds": 0, "time": 1609084800000, "timezoneOffset": -480, "year": 120}, "XK_DATE": "2021-12-31", "QF_MANAGER_NAME": "河南省药品监督管理局", "BUSINESS_LICENSE_NUMBER": "914115237425233966", "XC_DATE": "2020-12-28", "NUM_": 634}, {"ID": "e4c769183fe34c3db7eca31a1ef021d5", "EPS_NAME": "山东中仁医学科技有限公司", "PRODUCT_SN": "鲁妆20200027", "CITY_CODE": null, "XK_COMPLETE_DATE": {"date": 28, "day": 1, "hours": 0, "minutes": 0, "month": 11, "nanos": 0, "seconds": 0, "time": 1609084800000, "timezoneOffset": -480, "year": 120}, "XK_DATE": "2025-12-27", "QF_MANAGER_NAME": "山东省药品监督管理局", "BUSINESS_LICENSE_NUMBER": "91370403MA3NAM5344", "XC_DATE": "2020-12-28", "NUM_": 635}, {"ID": "c4275f4aa6ff45d591c5d4fec6083c26", "EPS_NAME": "山东暨肽生物医药科技有限公司", "PRODUCT_SN": "鲁妆20190009", "CITY_CODE": null, "XK_COMPLETE_DATE": {"date": 28, "day": 1, "hours": 0, "minutes": 0, "month": 11, "nanos": 0, "seconds": 0, "time": 1609084800000, "timezoneOffset": -480, "year": 120}, "XK_DATE": "2024-11-27", "QF_MANAGER_NAME": "山东省药品监督管理局", "BUSINESS_LICENSE_NUMBER": "91370611MA3P4QUY7W", "XC_DATE": "2020-12-28", "NUM_": 636}, {"ID": "9d6acd87ae604bd4bb4b9ec5724f72ed", "EPS_NAME": "上海美原漾化妆品有限公司", "PRODUCT_SN": "沪妆20160088", "CITY_CODE": null, "XK_COMPLETE_DATE": {"date": 28, "day": 1, "hours": 0, "minutes": 0, "month": 11, "nanos": 0, "seconds": 0, "time": 1609084800000, "timezoneOffset": -480, "year": 120}, "XK_DATE": "2021-11-16", "QF_MANAGER_NAME": "上海市药品监督管理局", "BUSINESS_LICENSE_NUMBER": "91310000MA1GTKJ74T", "XC_DATE": "2020-12-28", "NUM_": 637}, {"ID": "f7bfc5a9cb804e8c89e336902a1a77e3", "EPS_NAME": "义乌市魅可生物科技有限公司", "PRODUCT_SN": "浙妆20180025", "CITY_CODE": null, "XK_COMPLETE_DATE": {"date": 25, "day": 5, "hours": 0, "minutes": 0, "month": 11, "nanos": 0, "seconds": 0, "time": 1608825600000, "timezoneOffset": -480, "year": 120}, "XK_DATE": "2023-04-09", "QF_MANAGER_NAME": "浙江省药品监督管理局", "BUSINESS_LICENSE_NUMBER": "91330782MA29L04W06", "XC_DATE": "2020-12-25", "NUM_": 638}, {"ID": "6a009f270cc34e0381c3f0f27948f463", "EPS_NAME": "立菲化妆品（广东）有限公司", "PRODUCT_SN": "粤妆20200257", "CITY_CODE": null, "XK_COMPLETE_DATE": {"date": 25, "day": 5, "hours": 0, "minutes": 0, "month": 11, "nanos": 0, "seconds": 0, "time": 1608825600000, "timezoneOffset": -480, "year": 120}, "XK_DATE": "2025-12-24", "QF_MANAGER_NAME": "广东省药品监督管理局", "BUSINESS_LICENSE_NUMBER": "91445321MA53QDCP7W", "XC_DATE": "2020-12-25", "NUM_": 639}, {"ID": "44578599a3264800a1eeb5534d851eb0", "EPS_NAME": "武汉博瑞锦诚医药科技有限公司", "PRODUCT_SN": "鄂妆20160025", "CITY_CODE": "67", "XK_COMPLETE_DATE": {"date": 25, "day": 5, "hours": 0, "minutes": 0, "month": 11, "nanos": 0, "seconds": 0, "time": 1608825600000, "timezoneOffset": -480, "year": 120}, "XK_DATE": "2021-12-01", "QF_MANAGER_NAME": "湖北省药品监督管理局", "BUSINESS_LICENSE_NUMBER": "91420114551963102M", "XC_DATE": "2020-12-25", "NUM_": 640}, {"ID": "0dc5ffaa4ae3419492b78edf4d91f947", "EPS_NAME": "美尚美生物技术（广州）有限公司", "PRODUCT_SN": "粤妆20190265", "CITY_CODE": null, "XK_COMPLETE_DATE": {"date": 24, "day": 4, "hours": 0, "minutes": 0, "month": 11, "nanos": 0, "seconds": 0, "time": 1608739200000, "timezoneOffset": -480, "year": 120}, "XK_DATE": "2024-11-26", "QF_MANAGER_NAME": "广东省药品监督管理局", "BUSINESS_LICENSE_NUMBER": "91440101MA5CUTW2XB", "XC_DATE": "2020-12-24", "NUM_": 641}, {"ID": "67ef78fefab04ee48f03b78094106494", "EPS_NAME": "中山诺兰贝尔生物科技有限公司", "PRODUCT_SN": "粤妆20180177", "CITY_CODE": null, "XK_COMPLETE_DATE": {"date": 24, "day": 4, "hours": 0, "minutes": 0, "month": 11, "nanos": 0, "seconds": 0, "time": 1608739200000, "timezoneOffset": -480, "year": 120}, "XK_DATE": "2023-08-06", "QF_MANAGER_NAME": "广东省药品监督管理局", "BUSINESS_LICENSE_NUMBER": "91442000MA517GN80B", "XC_DATE": "2020-12-24", "NUM_": 642}, {"ID": "f8043250c8684f57991321473cfd7a43", "EPS_NAME": "广州市圣迪奥化妆品有限公司", "PRODUCT_SN": "粤妆20161098", "CITY_CODE": null, "XK_COMPLETE_DATE": {"date": 24, "day": 4, "hours": 0, "minutes": 0, "month": 11, "nanos": 0, "seconds": 0, "time": 1608739200000, "timezoneOffset": -480, "year": 120}, "XK_DATE": "2021-11-09", "QF_MANAGER_NAME": "广东省药品监督管理局", "BUSINESS_LICENSE_NUMBER": "91440111764039925K", "XC_DATE": "2020-12-24", "NUM_": 643}, {"ID": "a45246fed8034e4c9201c1da614ee6be", "EPS_NAME": "广州芳芳化妆品有限公司", "PRODUCT_SN": "粤妆20160553", "CITY_CODE": null, "XK_COMPLETE_DATE": {"date": 24, "day": 4, "hours": 0, "minutes": 0, "month": 11, "nanos": 0, "seconds": 0, "time": 1608739200000, "timezoneOffset": -480, "year": 120}, "XK_DATE": "2024-07-03", "QF_MANAGER_NAME": "广东省药品监督管理局", "BUSINESS_LICENSE_NUMBER": "914401013275771277", "XC_DATE": "2020-12-24", "NUM_": 644}, {"ID": "e02b9ae90a0e419f93e7baf64a022dfb", "EPS_NAME": "重庆四季香海芳香生物科技有限公司", "PRODUCT_SN": "渝妆20200002", "CITY_CODE": "448", "XK_COMPLETE_DATE": {"date": 24, "day": 4, "hours": 0, "minutes": 0, "month": 11, "nanos": 0, "seconds": 0, "time": 1608739200000, "timezoneOffset": -480, "year": 120}, "XK_DATE": "2025-11-26", "QF_MANAGER_NAME": "重庆市药品监督管理局", "BUSINESS_LICENSE_NUMBER": "91500225MA5YNBBA45", "XC_DATE": "2020-12-24", "NUM_": 645}], "orderBy": "createDate", "orderType": "desc", "pageCount": 373, "pageNumber": 43, "pageSize": 15, "property": "", "totalCount": 5590}