{"filesize": "", "keyword": "", "list": [{"ID": "991dbdc027354af8ba7b5aa8583bc8d1", "EPS_NAME": "重庆中佳信生物科技有限公司", "PRODUCT_SN": "渝妆20190003", "CITY_CODE": "456", "XK_COMPLETE_DATE": {"date": 24, "day": 4, "hours": 0, "minutes": 0, "month": 11, "nanos": 0, "seconds": 0, "time": 1608739200000, "timezoneOffset": -480, "year": 120}, "XK_DATE": "2024-07-01", "QF_MANAGER_NAME": "重庆市药品监督管理局", "BUSINESS_LICENSE_NUMBER": "91500119MA5XDY7980", "XC_DATE": "2020-12-24", "NUM_": 646}, {"ID": "73f7d8a419b44188a3e77b2bf0c397b0", "EPS_NAME": "优护优家药妆（滁州）有限公司", "PRODUCT_SN": "皖妆20200008", "CITY_CODE": "220", "XK_COMPLETE_DATE": {"date": 24, "day": 4, "hours": 0, "minutes": 0, "month": 11, "nanos": 0, "seconds": 0, "time": 1608739200000, "timezoneOffset": -480, "year": 120}, "XK_DATE": "2025-12-23", "QF_MANAGER_NAME": "安徽省药品监督管理局", "BUSINESS_LICENSE_NUMBER": "91341171MA2TAM2F7W", "XC_DATE": "2020-12-24", "NUM_": 647}, {"ID": "59653c822f36477391856756dbf63aff", "EPS_NAME": "义乌市洁梦日用品有限公司", "PRODUCT_SN": "浙妆20200051", "CITY_CODE": null, "XK_COMPLETE_DATE": {"date": 23, "day": 3, "hours": 0, "minutes": 0, "month": 11, "nanos": 0, "seconds": 0, "time": 1608652800000, "timezoneOffset": -480, "year": 120}, "XK_DATE": "2025-12-22", "QF_MANAGER_NAME": "浙江省药品监督管理局", "BUSINESS_LICENSE_NUMBER": "91330782MA2E5ND06N", "XC_DATE": "2020-12-23", "NUM_": 648}, {"ID": "4d0fd74139b8496798f40dfefcd9045b", "EPS_NAME": "浙江聚力医药科技有限公司", "PRODUCT_SN": "浙妆20200050", "CITY_CODE": null, "XK_COMPLETE_DATE": {"date": 23, "day": 3, "hours": 0, "minutes": 0, "month": 11, "nanos": 0, "seconds": 0, "time": 1608652800000, "timezoneOffset": -480, "year": 120}, "XK_DATE": "2025-12-22", "QF_MANAGER_NAME": "浙江省药品监督管理局", "BUSINESS_LICENSE_NUMBER": "91330501MA29KTL949", "XC_DATE": "2020-12-23", "NUM_": 649}, {"ID": "f5466d3875f6476985d8647cd2552843", "EPS_NAME": "义乌市宝丽诗化妆品有限公司", "PRODUCT_SN": "浙妆20160241", "CITY_CODE": null, "XK_COMPLETE_DATE": {"date": 23, "day": 3, "hours": 0, "minutes": 0, "month": 11, "nanos": 0, "seconds": 0, "time": 1608652800000, "timezoneOffset": -480, "year": 120}, "XK_DATE": "2021-12-14", "QF_MANAGER_NAME": "浙江省药品监督管理局", "BUSINESS_LICENSE_NUMBER": "91330782751908984R", "XC_DATE": "2020-12-23", "NUM_": 650}, {"ID": "18c263a70cbc4475bb25905042996a47", "EPS_NAME": "信御坊（佛山）生物科技有限公司", "PRODUCT_SN": "粤妆20200256", "CITY_CODE": null, "XK_COMPLETE_DATE": {"date": 23, "day": 3, "hours": 0, "minutes": 0, "month": 11, "nanos": 0, "seconds": 0, "time": 1608652800000, "timezoneOffset": -480, "year": 120}, "XK_DATE": "2025-12-22", "QF_MANAGER_NAME": "广东省药品监督管理局", "BUSINESS_LICENSE_NUMBER": "91440607MA553XFD99", "XC_DATE": "2020-12-23", "NUM_": 651}, {"ID": "4690bc0cd7b54b10a6b5297d98aa40d7", "EPS_NAME": "佛山市谷邦生物科技有限公司", "PRODUCT_SN": "粤妆20190007", "CITY_CODE": null, "XK_COMPLETE_DATE": {"date": 23, "day": 3, "hours": 0, "minutes": 0, "month": 11, "nanos": 0, "seconds": 0, "time": 1608652800000, "timezoneOffset": -480, "year": 120}, "XK_DATE": "2024-01-08", "QF_MANAGER_NAME": "广东省药品监督管理局", "BUSINESS_LICENSE_NUMBER": "91440605MA51M8340C", "XC_DATE": "2020-12-23", "NUM_": 652}, {"ID": "e7807099888645928d8631d231c0301f", "EPS_NAME": "佛山市南海区日彩化妆品有限公司", "PRODUCT_SN": "粤妆20161754", "CITY_CODE": null, "XK_COMPLETE_DATE": {"date": 23, "day": 3, "hours": 0, "minutes": 0, "month": 11, "nanos": 0, "seconds": 0, "time": 1608652800000, "timezoneOffset": -480, "year": 120}, "XK_DATE": "2021-12-27", "QF_MANAGER_NAME": "广东省药品监督管理局", "BUSINESS_LICENSE_NUMBER": "91440605733132019K", "XC_DATE": "2020-12-23", "NUM_": 653}, {"ID": "bbf3d761a200499ab7a15549a61782a1", "EPS_NAME": "惠州市肯恩化妆品实业有限公司", "PRODUCT_SN": "粤妆20161485", "CITY_CODE": null, "XK_COMPLETE_DATE": {"date": 23, "day": 3, "hours": 0, "minutes": 0, "month": 11, "nanos": 0, "seconds": 0, "time": 1608652800000, "timezoneOffset": -480, "year": 120}, "XK_DATE": "2021-12-06", "QF_MANAGER_NAME": "广东省药品监督管理局", "BUSINESS_LICENSE_NUMBER": "91441322751066588X", "XC_DATE": "2020-12-23", "NUM_": 654}, {"ID": "8329f13f754548e88f8ffbdf6ca754c6", "EPS_NAME": "佛山市美心生物科技有限公司", "PRODUCT_SN": "粤妆20160990", "CITY_CODE": null, "XK_COMPLETE_DATE": {"date": 23, "day": 3, "hours": 0, "minutes": 0, "month": 11, "nanos": 0, "seconds": 0, "time": 1608652800000, "timezoneOffset": -480, "year": 120}, "XK_DATE": "2021-11-02", "QF_MANAGER_NAME": "广东省药品监督管理局", "BUSINESS_LICENSE_NUMBER": "91440604231828083A", "XC_DATE": "2020-12-23", "NUM_": 655}, {"ID": "6b6f3a042e38418a86a7535452338c32", "EPS_NAME": "江西初心药业有限公司", "PRODUCT_SN": "赣妆20190009", "CITY_CODE": "93", "XK_COMPLETE_DATE": {"date": 23, "day": 3, "hours": 0, "minutes": 0, "month": 11, "nanos": 0, "seconds": 0, "time": 1608652800000, "timezoneOffset": -480, "year": 120}, "XK_DATE": "2024-08-27", "QF_MANAGER_NAME": "江西省药品监督管理局", "BUSINESS_LICENSE_NUMBER": "91360121MA38L16U0D", "XC_DATE": "2020-12-23", "NUM_": 656}, {"ID": "243b8088045241b6b03b8673f43932fa", "EPS_NAME": "湖北铸明生物科技有限责任公司", "PRODUCT_SN": "鄂妆20200013", "CITY_CODE": "70", "XK_COMPLETE_DATE": {"date": 23, "day": 3, "hours": 0, "minutes": 0, "month": 11, "nanos": 0, "seconds": 0, "time": 1608652800000, "timezoneOffset": -480, "year": 120}, "XK_DATE": "2025-12-22", "QF_MANAGER_NAME": "湖北省药品监督管理局", "BUSINESS_LICENSE_NUMBER": "91420981MA496KRNXQ", "XC_DATE": "2020-12-23", "NUM_": 657}, {"ID": "78e56d945736419a9e908aa39e95abf8", "EPS_NAME": "浙江黄岩金轮保健用品有限公司", "PRODUCT_SN": "浙妆20160297", "CITY_CODE": null, "XK_COMPLETE_DATE": {"date": 22, "day": 2, "hours": 0, "minutes": 0, "month": 11, "nanos": 0, "seconds": 0, "time": 1608566400000, "timezoneOffset": -480, "year": 120}, "XK_DATE": "2021-12-25", "QF_MANAGER_NAME": "浙江省药品监督管理局", "BUSINESS_LICENSE_NUMBER": "913310037046881304", "XC_DATE": "2020-12-22", "NUM_": 658}, {"ID": "c5c021ef27da456d8456063f80fea649", "EPS_NAME": "广州市白云区晓宣化妆品厂", "PRODUCT_SN": "粤妆20161464", "CITY_CODE": null, "XK_COMPLETE_DATE": {"date": 22, "day": 2, "hours": 0, "minutes": 0, "month": 11, "nanos": 0, "seconds": 0, "time": 1608566400000, "timezoneOffset": -480, "year": 120}, "XK_DATE": "2021-12-04", "QF_MANAGER_NAME": "广东省药品监督管理局", "BUSINESS_LICENSE_NUMBER": "91440111741873247M", "XC_DATE": "2020-12-22", "NUM_": 659}, {"ID": "09b68635c3094ea39f79d31d5f658c82", "EPS_NAME": "广州市锦绣化妆品有限公司", "PRODUCT_SN": "粤妆20161296", "CITY_CODE": null, "XK_COMPLETE_DATE": {"date": 22, "day": 2, "hours": 0, "minutes": 0, "month": 11, "nanos": 0, "seconds": 0, "time": 1608566400000, "timezoneOffset": -480, "year": 120}, "XK_DATE": "2025-12-21", "QF_MANAGER_NAME": "广东省药品监督管理局", "BUSINESS_LICENSE_NUMBER": "91440111088095365L", "XC_DATE": "2020-12-22", "NUM_": 660}], "orderBy": "createDate", "orderType": "desc", "pageCount": 373, "pageNumber": 44, "pageSize": 15, "property": "", "totalCount": 5590}