{"filesize": "", "keyword": "", "list": [{"ID": "174443096dac467fab471d3dab6f24b2", "EPS_NAME": "广州创丽精细化工制造有限公司", "PRODUCT_SN": "粤妆20161110", "CITY_CODE": null, "XK_COMPLETE_DATE": {"date": 22, "day": 2, "hours": 0, "minutes": 0, "month": 11, "nanos": 0, "seconds": 0, "time": 1608566400000, "timezoneOffset": -480, "year": 120}, "XK_DATE": "2021-11-09", "QF_MANAGER_NAME": "广东省药品监督管理局", "BUSINESS_LICENSE_NUMBER": "91440111598313350A", "XC_DATE": "2020-12-22", "NUM_": 661}, {"ID": "4db85f657d9c4a7aad562882a1e0cb46", "EPS_NAME": "安徽德正堂药业有限公司", "PRODUCT_SN": "皖妆20200007", "CITY_CODE": "328", "XK_COMPLETE_DATE": {"date": 22, "day": 2, "hours": 0, "minutes": 0, "month": 11, "nanos": 0, "seconds": 0, "time": 1608566400000, "timezoneOffset": -480, "year": 120}, "XK_DATE": "2025-12-21", "QF_MANAGER_NAME": "安徽省药品监督管理局", "BUSINESS_LICENSE_NUMBER": "91341500MA2T1BW65W", "XC_DATE": "2020-12-22", "NUM_": 662}, {"ID": "84cd0ad857e2466ea189598fcccd744a", "EPS_NAME": "大连原藤化工有限公司", "PRODUCT_SN": "辽妆20160002", "CITY_CODE": "287", "XK_COMPLETE_DATE": {"date": 22, "day": 2, "hours": 0, "minutes": 0, "month": 11, "nanos": 0, "seconds": 0, "time": 1608566400000, "timezoneOffset": -480, "year": 120}, "XK_DATE": "2021-04-25", "QF_MANAGER_NAME": "辽宁省药品监督管理局", "BUSINESS_LICENSE_NUMBER": "91210200565514981K", "XC_DATE": "2020-12-22", "NUM_": 663}, {"ID": "f95c53e5395c48e6a6611a9309ae4849", "EPS_NAME": "天津美如美生物科技有限公司", "PRODUCT_SN": "津妆20160057", "CITY_CODE": "414", "XK_COMPLETE_DATE": {"date": 22, "day": 2, "hours": 0, "minutes": 0, "month": 11, "nanos": 0, "seconds": 0, "time": 1608566400000, "timezoneOffset": -480, "year": 120}, "XK_DATE": "2021-12-27", "QF_MANAGER_NAME": "天津市药品监督管理局", "BUSINESS_LICENSE_NUMBER": "91120113MA05JEJY2E", "XC_DATE": "2020-12-22", "NUM_": 664}, {"ID": "8bd79e0341574f5c83bd52f4f0278f59", "EPS_NAME": "吉林省塔姆化妆品有限公司", "PRODUCT_SN": "吉妆20200010", "CITY_CODE": "278", "XK_COMPLETE_DATE": {"date": 22, "day": 2, "hours": 0, "minutes": 0, "month": 11, "nanos": 0, "seconds": 0, "time": 1608566400000, "timezoneOffset": -480, "year": 120}, "XK_DATE": "2025-12-21", "QF_MANAGER_NAME": "吉林省药品监督管理局", "BUSINESS_LICENSE_NUMBER": "91220303MA17ERMM5W", "XC_DATE": "2020-12-22", "NUM_": 665}, {"ID": "faa1bfe1d1414fb09cebc3e609f4bf83", "EPS_NAME": "上海东灵美容健肤品有限公司", "PRODUCT_SN": "沪妆20160163", "CITY_CODE": null, "XK_COMPLETE_DATE": {"date": 22, "day": 2, "hours": 0, "minutes": 0, "month": 11, "nanos": 0, "seconds": 0, "time": 1608566400000, "timezoneOffset": -480, "year": 120}, "XK_DATE": "2021-12-15", "QF_MANAGER_NAME": "上海市药品监督管理局", "BUSINESS_LICENSE_NUMBER": "913101151323459911", "XC_DATE": "2020-12-22", "NUM_": 666}, {"ID": "fae128aa5b144513b7e27a2bfe1a3471", "EPS_NAME": "广州市肖杰化妆品有限公司", "PRODUCT_SN": "粤妆20200255", "CITY_CODE": null, "XK_COMPLETE_DATE": {"date": 21, "day": 1, "hours": 0, "minutes": 0, "month": 11, "nanos": 0, "seconds": 0, "time": 1608480000000, "timezoneOffset": -480, "year": 120}, "XK_DATE": "2025-12-20", "QF_MANAGER_NAME": "广东省药品监督管理局", "BUSINESS_LICENSE_NUMBER": "914401113313483782", "XC_DATE": "2020-12-21", "NUM_": 667}, {"ID": "e90512fb8c524aca9b791ba67df873bd", "EPS_NAME": "广州美静鑫生物科技有限公司", "PRODUCT_SN": "粤妆20200254", "CITY_CODE": null, "XK_COMPLETE_DATE": {"date": 21, "day": 1, "hours": 0, "minutes": 0, "month": 11, "nanos": 0, "seconds": 0, "time": 1608480000000, "timezoneOffset": -480, "year": 120}, "XK_DATE": "2025-12-20", "QF_MANAGER_NAME": "广东省药品监督管理局", "BUSINESS_LICENSE_NUMBER": "91440101MA9UM4HY8T", "XC_DATE": "2020-12-21", "NUM_": 668}, {"ID": "635c3f4952bf489cba297e7792f7d827", "EPS_NAME": "南阳蓝海森源医药科技有限公司", "PRODUCT_SN": "豫妆20210002", "CITY_CODE": "21", "XK_COMPLETE_DATE": {"date": 21, "day": 1, "hours": 0, "minutes": 0, "month": 11, "nanos": 0, "seconds": 0, "time": 1608480000000, "timezoneOffset": -480, "year": 120}, "XK_DATE": "2025-12-20", "QF_MANAGER_NAME": "河南省药品监督管理局", "BUSINESS_LICENSE_NUMBER": "91411327MA46M1BJ8H", "XC_DATE": "2020-12-21", "NUM_": 669}, {"ID": "84289c2b411d484a90954e9a3ecf0d9e", "EPS_NAME": "河南波斯坦生物科技有限公司", "PRODUCT_SN": "豫妆20160058", "CITY_CODE": "6", "XK_COMPLETE_DATE": {"date": 21, "day": 1, "hours": 0, "minutes": 0, "month": 11, "nanos": 0, "seconds": 0, "time": 1608480000000, "timezoneOffset": -480, "year": 120}, "XK_DATE": "2021-12-29", "QF_MANAGER_NAME": "河南省药品监督管理局", "BUSINESS_LICENSE_NUMBER": "9141018208345084X0", "XC_DATE": "2020-12-21", "NUM_": 670}, {"ID": "82bd0e5e66a34ca18d712c9078f62a91", "EPS_NAME": "上海九乙生物科技有限公司", "PRODUCT_SN": "沪妆20200013", "CITY_CODE": null, "XK_COMPLETE_DATE": {"date": 21, "day": 1, "hours": 0, "minutes": 0, "month": 11, "nanos": 0, "seconds": 0, "time": 1608480000000, "timezoneOffset": -480, "year": 120}, "XK_DATE": "2025-12-20", "QF_MANAGER_NAME": "上海市药品监督管理局", "BUSINESS_LICENSE_NUMBER": "91310117MA1J3U4G0Y", "XC_DATE": "2020-12-21", "NUM_": 671}, {"ID": "e897ed030aa746bbb487018e33c22512", "EPS_NAME": "桂林市高乐医药保健品有限公司", "PRODUCT_SN": "桂妆20160022", "CITY_CODE": "239", "XK_COMPLETE_DATE": {"date": 21, "day": 1, "hours": 0, "minutes": 0, "month": 11, "nanos": 0, "seconds": 0, "time": 1608480000000, "timezoneOffset": -480, "year": 120}, "XK_DATE": "2021-11-23", "QF_MANAGER_NAME": "广西壮族自治区药品监督管理局", "BUSINESS_LICENSE_NUMBER": "91450302756524111H", "XC_DATE": "2020-12-21", "NUM_": 672}, {"ID": "b3febf42d6b64e039e5cbd2812a9539d", "EPS_NAME": "昆明锐斯得科技有限公司", "PRODUCT_SN": "云妆20200004", "CITY_CODE": "204", "XK_COMPLETE_DATE": {"date": 18, "day": 5, "hours": 0, "minutes": 0, "month": 11, "nanos": 0, "seconds": 0, "time": 1608220800000, "timezoneOffset": -480, "year": 120}, "XK_DATE": "2025-12-18", "QF_MANAGER_NAME": "云南省药品监督管理局", "BUSINESS_LICENSE_NUMBER": "91530100061570437U", "XC_DATE": "2020-12-18", "NUM_": 673}, {"ID": "1d8e3a107d704968b14fdfef495150e9", "EPS_NAME": "重庆小丸生物科技股份有限公司", "PRODUCT_SN": "渝妆20170001", "CITY_CODE": "454", "XK_COMPLETE_DATE": {"date": 18, "day": 5, "hours": 0, "minutes": 0, "month": 11, "nanos": 0, "seconds": 0, "time": 1608220800000, "timezoneOffset": -480, "year": 120}, "XK_DATE": "2022-03-16", "QF_MANAGER_NAME": "重庆市药品监督管理局", "BUSINESS_LICENSE_NUMBER": "9150011776268105XT", "XC_DATE": "2020-12-18", "NUM_": 674}, {"ID": "2e7068940c4f40a38abba96aafe90251", "EPS_NAME": "湖南美媛本草生物工程有限公司", "PRODUCT_SN": "湘妆20180006", "CITY_CODE": "190", "XK_COMPLETE_DATE": {"date": 18, "day": 5, "hours": 0, "minutes": 0, "month": 11, "nanos": 0, "seconds": 0, "time": 1608220800000, "timezoneOffset": -480, "year": 120}, "XK_DATE": "2023-12-10", "QF_MANAGER_NAME": "湖南省药品监督管理局", "BUSINESS_LICENSE_NUMBER": "91430100395393880C", "XC_DATE": "2020-12-18", "NUM_": 675}], "orderBy": "createDate", "orderType": "desc", "pageCount": 373, "pageNumber": 45, "pageSize": 15, "property": "", "totalCount": 5590}