{"filesize": "", "keyword": "", "list": [{"ID": "2690a701a3284f8c98ead73d996d98f6", "EPS_NAME": "山东芳蕾玫瑰科技开发有限公司", "PRODUCT_SN": "鲁妆20190002", "CITY_CODE": null, "XK_COMPLETE_DATE": {"date": 18, "day": 5, "hours": 0, "minutes": 0, "month": 11, "nanos": 0, "seconds": 0, "time": 1608220800000, "timezoneOffset": -480, "year": 120}, "XK_DATE": "2024-02-11", "QF_MANAGER_NAME": "山东省药品监督管理局", "BUSINESS_LICENSE_NUMBER": "91370124MA3C687108", "XC_DATE": "2020-12-18", "NUM_": 676}, {"ID": "ae3c02ecf47f411a89f60a9fbe9f8d2d", "EPS_NAME": "山东义才和锐生物技术有限公司", "PRODUCT_SN": "鲁妆20180010", "CITY_CODE": null, "XK_COMPLETE_DATE": {"date": 18, "day": 5, "hours": 0, "minutes": 0, "month": 11, "nanos": 0, "seconds": 0, "time": 1608220800000, "timezoneOffset": -480, "year": 120}, "XK_DATE": "2023-05-06", "QF_MANAGER_NAME": "山东省药品监督管理局", "BUSINESS_LICENSE_NUMBER": "91370881MA3F59TF5Y", "XC_DATE": "2020-12-18", "NUM_": 677}, {"ID": "3946989127e84b7bab4cbc6b56b18c93", "EPS_NAME": "义乌市圣蝶化妆品有限公司", "PRODUCT_SN": "浙妆20160094", "CITY_CODE": null, "XK_COMPLETE_DATE": {"date": 17, "day": 4, "hours": 0, "minutes": 0, "month": 11, "nanos": 0, "seconds": 0, "time": 1608134400000, "timezoneOffset": -480, "year": 120}, "XK_DATE": "2021-10-11", "QF_MANAGER_NAME": "浙江省药品监督管理局", "BUSINESS_LICENSE_NUMBER": "91330782735254642T", "XC_DATE": "2020-12-17", "NUM_": 678}, {"ID": "3f90a983863b434989ba6a362b824210", "EPS_NAME": "广州中科佰氏健康产业有限公司", "PRODUCT_SN": "粤妆20200253", "CITY_CODE": null, "XK_COMPLETE_DATE": {"date": 17, "day": 4, "hours": 0, "minutes": 0, "month": 11, "nanos": 0, "seconds": 0, "time": 1608134400000, "timezoneOffset": -480, "year": 120}, "XK_DATE": "2025-12-16", "QF_MANAGER_NAME": "广东省药品监督管理局", "BUSINESS_LICENSE_NUMBER": "91440101MA5CU23Y3C", "XC_DATE": "2020-12-17", "NUM_": 679}, {"ID": "7a3d6af83b324de5b98668710ae2af0d", "EPS_NAME": "广州瑞美堂生物科技有限公司", "PRODUCT_SN": "粤妆20200252", "CITY_CODE": null, "XK_COMPLETE_DATE": {"date": 17, "day": 4, "hours": 0, "minutes": 0, "month": 11, "nanos": 0, "seconds": 0, "time": 1608134400000, "timezoneOffset": -480, "year": 120}, "XK_DATE": "2025-12-16", "QF_MANAGER_NAME": "广东省药品监督管理局", "BUSINESS_LICENSE_NUMBER": "91440101MA5D38HN2L", "XC_DATE": "2020-12-17", "NUM_": 680}, {"ID": "0a888dd5741f4c85874e1cf172724f80", "EPS_NAME": "广东优品生物科技有限公司", "PRODUCT_SN": "粤妆20200251", "CITY_CODE": null, "XK_COMPLETE_DATE": {"date": 17, "day": 4, "hours": 0, "minutes": 0, "month": 11, "nanos": 0, "seconds": 0, "time": 1608134400000, "timezoneOffset": -480, "year": 120}, "XK_DATE": "2025-12-16", "QF_MANAGER_NAME": "广东省药品监督管理局", "BUSINESS_LICENSE_NUMBER": "91441802MA55AWKU5F", "XC_DATE": "2020-12-17", "NUM_": 681}, {"ID": "bbe68f75042e49e08d9c0718ce8b3d6a", "EPS_NAME": "广州欧特丽美容生物科技有限公司", "PRODUCT_SN": "粤妆20200119", "CITY_CODE": null, "XK_COMPLETE_DATE": {"date": 17, "day": 4, "hours": 0, "minutes": 0, "month": 11, "nanos": 0, "seconds": 0, "time": 1608134400000, "timezoneOffset": -480, "year": 120}, "XK_DATE": "2025-07-15", "QF_MANAGER_NAME": "广东省药品监督管理局", "BUSINESS_LICENSE_NUMBER": "91440101MA5D62T6XN", "XC_DATE": "2020-12-17", "NUM_": 682}, {"ID": "ec6ec23f87b94827a8fc3b3bd833cb82", "EPS_NAME": "广州乐奈化妆品有限公司", "PRODUCT_SN": "粤妆20190193", "CITY_CODE": null, "XK_COMPLETE_DATE": {"date": 17, "day": 4, "hours": 0, "minutes": 0, "month": 11, "nanos": 0, "seconds": 0, "time": 1608134400000, "timezoneOffset": -480, "year": 120}, "XK_DATE": "2024-09-15", "QF_MANAGER_NAME": "广东省药品监督管理局", "BUSINESS_LICENSE_NUMBER": "914401013313591496", "XC_DATE": "2020-12-17", "NUM_": 683}, {"ID": "7ec0733dafe845d8af79ae0196da084b", "EPS_NAME": "广州克里碧丝化妆品有限公司", "PRODUCT_SN": "粤妆20190082", "CITY_CODE": null, "XK_COMPLETE_DATE": {"date": 17, "day": 4, "hours": 0, "minutes": 0, "month": 11, "nanos": 0, "seconds": 0, "time": 1608134400000, "timezoneOffset": -480, "year": 120}, "XK_DATE": "2024-04-16", "QF_MANAGER_NAME": "广东省药品监督管理局", "BUSINESS_LICENSE_NUMBER": "91440101085957361W", "XC_DATE": "2020-12-17", "NUM_": 684}, {"ID": "218a4210ec244a23a70977781006e79d", "EPS_NAME": "广州鑫蕊生物科技有限公司", "PRODUCT_SN": "粤妆20180062", "CITY_CODE": null, "XK_COMPLETE_DATE": {"date": 17, "day": 4, "hours": 0, "minutes": 0, "month": 11, "nanos": 0, "seconds": 0, "time": 1608134400000, "timezoneOffset": -480, "year": 120}, "XK_DATE": "2023-02-11", "QF_MANAGER_NAME": "广东省药品监督管理局", "BUSINESS_LICENSE_NUMBER": "91440101MA5AKF0PXF", "XC_DATE": "2020-12-17", "NUM_": 685}, {"ID": "905945d1d71745acb85ead9beff1d4cb", "EPS_NAME": "广州全亚化妆品国际实业有限公司", "PRODUCT_SN": "粤妆20170572", "CITY_CODE": null, "XK_COMPLETE_DATE": {"date": 17, "day": 4, "hours": 0, "minutes": 0, "month": 11, "nanos": 0, "seconds": 0, "time": 1608134400000, "timezoneOffset": -480, "year": 120}, "XK_DATE": "2022-11-02", "QF_MANAGER_NAME": "广东省药品监督管理局", "BUSINESS_LICENSE_NUMBER": "91440101721911488A", "XC_DATE": "2020-12-17", "NUM_": 686}, {"ID": "0825951fc5dd43f79035ed373b2aa15f", "EPS_NAME": "广州市锦致精细化工有限公司", "PRODUCT_SN": "粤妆20170130", "CITY_CODE": null, "XK_COMPLETE_DATE": {"date": 17, "day": 4, "hours": 0, "minutes": 0, "month": 11, "nanos": 0, "seconds": 0, "time": 1608134400000, "timezoneOffset": -480, "year": 120}, "XK_DATE": "2022-01-19", "QF_MANAGER_NAME": "广东省药品监督管理局", "BUSINESS_LICENSE_NUMBER": "914401117837615348", "XC_DATE": "2020-12-17", "NUM_": 687}, {"ID": "67955b5850e8462696699557a61026f5", "EPS_NAME": "汕头市澄海区成瑞化妆品厂", "PRODUCT_SN": "粤妆20161274", "CITY_CODE": null, "XK_COMPLETE_DATE": {"date": 17, "day": 4, "hours": 0, "minutes": 0, "month": 11, "nanos": 0, "seconds": 0, "time": 1608134400000, "timezoneOffset": -480, "year": 120}, "XK_DATE": "2021-11-22", "QF_MANAGER_NAME": "广东省药品监督管理局", "BUSINESS_LICENSE_NUMBER": "91440515708044762H", "XC_DATE": "2020-12-17", "NUM_": 688}, {"ID": "8ea9d95ea3e948cab0c1d8b2498e9494", "EPS_NAME": "广州德谷个人护理用品有限公司", "PRODUCT_SN": "粤妆20160754", "CITY_CODE": null, "XK_COMPLETE_DATE": {"date": 17, "day": 4, "hours": 0, "minutes": 0, "month": 11, "nanos": 0, "seconds": 0, "time": 1608134400000, "timezoneOffset": -480, "year": 120}, "XK_DATE": "2025-12-16", "QF_MANAGER_NAME": "广东省药品监督管理局", "BUSINESS_LICENSE_NUMBER": "91440114320935921E", "XC_DATE": "2020-12-17", "NUM_": 689}, {"ID": "f9c6b2f3f63340fa883a3c21c4a10c16", "EPS_NAME": "广州隆翔化妆品有限公司", "PRODUCT_SN": "粤妆20160716", "CITY_CODE": null, "XK_COMPLETE_DATE": {"date": 17, "day": 4, "hours": 0, "minutes": 0, "month": 11, "nanos": 0, "seconds": 0, "time": 1608134400000, "timezoneOffset": -480, "year": 120}, "XK_DATE": "2025-08-30", "QF_MANAGER_NAME": "广东省药品监督管理局", "BUSINESS_LICENSE_NUMBER": "91440111691538191Y", "XC_DATE": "2020-12-17", "NUM_": 690}], "orderBy": "createDate", "orderType": "desc", "pageCount": 373, "pageNumber": 46, "pageSize": 15, "property": "", "totalCount": 5590}