{"filesize": "", "keyword": "", "list": [{"ID": "17d434280fb44556bbc8a71abf595890", "EPS_NAME": "广州颜尚化妆品有限公司", "PRODUCT_SN": "粤妆20160418", "CITY_CODE": null, "XK_COMPLETE_DATE": {"date": 17, "day": 4, "hours": 0, "minutes": 0, "month": 11, "nanos": 0, "seconds": 0, "time": 1608134400000, "timezoneOffset": -480, "year": 120}, "XK_DATE": "2023-09-28", "QF_MANAGER_NAME": "广东省药品监督管理局", "BUSINESS_LICENSE_NUMBER": "91440111304640912M", "XC_DATE": "2020-12-17", "NUM_": 691}, {"ID": "8903c22d3fb5447a82be9f6cafcb4cae", "EPS_NAME": "曼秀雷敦（中国）药业有限公司", "PRODUCT_SN": "粤妆20160334", "CITY_CODE": null, "XK_COMPLETE_DATE": {"date": 17, "day": 4, "hours": 0, "minutes": 0, "month": 11, "nanos": 0, "seconds": 0, "time": 1608134400000, "timezoneOffset": -480, "year": 120}, "XK_DATE": "2021-07-10", "QF_MANAGER_NAME": "广东省药品监督管理局", "BUSINESS_LICENSE_NUMBER": "91442000618120303U", "XC_DATE": "2020-12-17", "NUM_": 692}, {"ID": "dc1c0dda531542dfab453d41eaf7f218", "EPS_NAME": "广州莉妍生物科技有限公司", "PRODUCT_SN": "粤妆20160171", "CITY_CODE": null, "XK_COMPLETE_DATE": {"date": 17, "day": 4, "hours": 0, "minutes": 0, "month": 11, "nanos": 0, "seconds": 0, "time": 1608134400000, "timezoneOffset": -480, "year": 120}, "XK_DATE": "2024-01-13", "QF_MANAGER_NAME": "广东省药品监督管理局", "BUSINESS_LICENSE_NUMBER": "914401113275562037", "XC_DATE": "2020-12-17", "NUM_": 693}, {"ID": "2978fce50b7e4cc3a3dce061631e1ea8", "EPS_NAME": "广州天玺生物科技有限公司", "PRODUCT_SN": "粤妆20160002", "CITY_CODE": null, "XK_COMPLETE_DATE": {"date": 17, "day": 4, "hours": 0, "minutes": 0, "month": 11, "nanos": 0, "seconds": 0, "time": 1608134400000, "timezoneOffset": -480, "year": 120}, "XK_DATE": "2025-12-16", "QF_MANAGER_NAME": "广东省药品监督管理局", "BUSINESS_LICENSE_NUMBER": "91440116767692903H", "XC_DATE": "2020-12-17", "NUM_": 694}, {"ID": "295c191f78a049d79cb9d2dbddd30c7b", "EPS_NAME": "湖南天龙制药有限公司", "PRODUCT_SN": "湘妆20160024", "CITY_CODE": "190", "XK_COMPLETE_DATE": {"date": 17, "day": 4, "hours": 0, "minutes": 0, "month": 11, "nanos": 0, "seconds": 0, "time": 1608134400000, "timezoneOffset": -480, "year": 120}, "XK_DATE": "2021-12-27", "QF_MANAGER_NAME": "湖南省药品监督管理局", "BUSINESS_LICENSE_NUMBER": "91430122X167706245", "XC_DATE": "2020-12-17", "NUM_": 695}, {"ID": "3b30ead8fb5f4404b0cc537a1741b7ce", "EPS_NAME": "山西卡蒂生物科技有限公司", "PRODUCT_SN": "晋妆20200001", "CITY_CODE": "105", "XK_COMPLETE_DATE": {"date": 17, "day": 4, "hours": 0, "minutes": 0, "month": 11, "nanos": 0, "seconds": 0, "time": 1608134400000, "timezoneOffset": -480, "year": 120}, "XK_DATE": "2025-09-09", "QF_MANAGER_NAME": "山西省药品监督管理局", "BUSINESS_LICENSE_NUMBER": "91140122MAOK55LBXH", "XC_DATE": "2020-12-17", "NUM_": 696}, {"ID": "d4a427aef28343b0804319d7299797a8", "EPS_NAME": "吉林省文化科技研究所开发中心", "PRODUCT_SN": "吉妆20160013", "CITY_CODE": "275", "XK_COMPLETE_DATE": {"date": 17, "day": 4, "hours": 0, "minutes": 0, "month": 11, "nanos": 0, "seconds": 0, "time": 1608134400000, "timezoneOffset": -480, "year": 120}, "XK_DATE": "2023-11-20", "QF_MANAGER_NAME": "吉林省药品监督管理局", "BUSINESS_LICENSE_NUMBER": "91220000702426786W", "XC_DATE": "2020-12-17", "NUM_": 697}, {"ID": "f83a9bf2421741b199075b661f031bf2", "EPS_NAME": "杭州倍荣生物科技有限公司", "PRODUCT_SN": "浙妆20200049", "CITY_CODE": null, "XK_COMPLETE_DATE": {"date": 16, "day": 3, "hours": 0, "minutes": 0, "month": 11, "nanos": 0, "seconds": 0, "time": 1608048000000, "timezoneOffset": -480, "year": 120}, "XK_DATE": "2025-12-15", "QF_MANAGER_NAME": "浙江省药品监督管理局", "BUSINESS_LICENSE_NUMBER": "91330108MA2B04W80W", "XC_DATE": "2020-12-16", "NUM_": 698}, {"ID": "7027eb13f37a42c8803b28cad408d05d", "EPS_NAME": "广东博然堂生物科技有限公司", "PRODUCT_SN": "粤妆20170492", "CITY_CODE": null, "XK_COMPLETE_DATE": {"date": 16, "day": 3, "hours": 0, "minutes": 0, "month": 11, "nanos": 0, "seconds": 0, "time": 1608048000000, "timezoneOffset": -480, "year": 120}, "XK_DATE": "2022-09-05", "QF_MANAGER_NAME": "广东省药品监督管理局", "BUSINESS_LICENSE_NUMBER": "91442000MA4W84TK6G", "XC_DATE": "2020-12-16", "NUM_": 699}, {"ID": "0c8cb07caab642daae649fc1763fefc0", "EPS_NAME": "联合利华（中国）有限公司", "PRODUCT_SN": "皖妆20160002", "CITY_CODE": "221", "XK_COMPLETE_DATE": {"date": 16, "day": 3, "hours": 0, "minutes": 0, "month": 11, "nanos": 0, "seconds": 0, "time": 1608048000000, "timezoneOffset": -480, "year": 120}, "XK_DATE": "2021-08-15", "QF_MANAGER_NAME": "安徽省药品监督管理局", "BUSINESS_LICENSE_NUMBER": "91340000607408459K", "XC_DATE": "2020-12-16", "NUM_": 700}, {"ID": "b89d5f86942a416ca12d211866ed5f7e", "EPS_NAME": "上海炫美生物科技有限公司", "PRODUCT_SN": "沪妆20170017", "CITY_CODE": null, "XK_COMPLETE_DATE": {"date": 16, "day": 3, "hours": 0, "minutes": 0, "month": 11, "nanos": 0, "seconds": 0, "time": 1608048000000, "timezoneOffset": -480, "year": 120}, "XK_DATE": "2022-06-15", "QF_MANAGER_NAME": "上海市药品监督管理局", "BUSINESS_LICENSE_NUMBER": "91310120746526965D", "XC_DATE": "2020-12-16", "NUM_": 701}, {"ID": "c866b5d753e64ee78c8b140965f17dfb", "EPS_NAME": "上海妮伟化妆品有限公司", "PRODUCT_SN": "沪妆20160135", "CITY_CODE": null, "XK_COMPLETE_DATE": {"date": 16, "day": 3, "hours": 0, "minutes": 0, "month": 11, "nanos": 0, "seconds": 0, "time": 1608048000000, "timezoneOffset": -480, "year": 120}, "XK_DATE": "2021-12-11", "QF_MANAGER_NAME": "上海市药品监督管理局", "BUSINESS_LICENSE_NUMBER": "91310120588669732T", "XC_DATE": "2020-12-16", "NUM_": 702}, {"ID": "31d0e7ad25f7431fb5fffcd12f4fdf0b", "EPS_NAME": "上海美加净日化有限公司", "PRODUCT_SN": "沪妆20160034", "CITY_CODE": null, "XK_COMPLETE_DATE": {"date": 16, "day": 3, "hours": 0, "minutes": 0, "month": 11, "nanos": 0, "seconds": 0, "time": 1608048000000, "timezoneOffset": -480, "year": 120}, "XK_DATE": "2021-10-12", "QF_MANAGER_NAME": "上海市药品监督管理局", "BUSINESS_LICENSE_NUMBER": "91310107566520304A", "XC_DATE": "2020-12-16", "NUM_": 703}, {"ID": "5da6bddaa0914fc6a1555e25105fce6d", "EPS_NAME": "四川活颐化妆品有限公司", "PRODUCT_SN": "川妆20200004", "CITY_CODE": "165", "XK_COMPLETE_DATE": {"date": 16, "day": 3, "hours": 0, "minutes": 0, "month": 11, "nanos": 0, "seconds": 0, "time": 1608048000000, "timezoneOffset": -480, "year": 120}, "XK_DATE": "2025-12-15", "QF_MANAGER_NAME": "四川省药品监督管理局", "BUSINESS_LICENSE_NUMBER": "91510115MA66F0PF7R", "XC_DATE": "2020-12-16", "NUM_": 704}, {"ID": "0c1d037914074793a750edf351f708f1", "EPS_NAME": "四川荣炳科技有限责任公司", "PRODUCT_SN": "川妆20200003", "CITY_CODE": "165", "XK_COMPLETE_DATE": {"date": 16, "day": 3, "hours": 0, "minutes": 0, "month": 11, "nanos": 0, "seconds": 0, "time": 1608048000000, "timezoneOffset": -480, "year": 120}, "XK_DATE": "2025-12-15", "QF_MANAGER_NAME": "四川省药品监督管理局", "BUSINESS_LICENSE_NUMBER": "91510123MA6CTKPF3X", "XC_DATE": "2020-12-16", "NUM_": 705}], "orderBy": "createDate", "orderType": "desc", "pageCount": 373, "pageNumber": 47, "pageSize": 15, "property": "", "totalCount": 5590}