{"filesize": "", "keyword": "", "list": [{"ID": "94016b1cc4814f6dab69a7b3d3abc7ae", "EPS_NAME": "汕头市蜜丝婷化妆品有限公司", "PRODUCT_SN": "粤妆20200249", "CITY_CODE": null, "XK_COMPLETE_DATE": {"date": 15, "day": 2, "hours": 0, "minutes": 0, "month": 11, "nanos": 0, "seconds": 0, "time": 1607961600000, "timezoneOffset": -480, "year": 120}, "XK_DATE": "2025-12-14", "QF_MANAGER_NAME": "广东省药品监督管理局", "BUSINESS_LICENSE_NUMBER": "91440514MA55CXPM57", "XC_DATE": "2020-12-15", "NUM_": 706}, {"ID": "7b35423d7c8e4a32b54de3c411aded7d", "EPS_NAME": "汕头市彤妆化妆品有限公司", "PRODUCT_SN": "粤妆20170311", "CITY_CODE": null, "XK_COMPLETE_DATE": {"date": 15, "day": 2, "hours": 0, "minutes": 0, "month": 11, "nanos": 0, "seconds": 0, "time": 1607961600000, "timezoneOffset": -480, "year": 120}, "XK_DATE": "2025-12-14", "QF_MANAGER_NAME": "广东省药品监督管理局", "BUSINESS_LICENSE_NUMBER": "91440513MA4UUCLL3C", "XC_DATE": "2020-12-15", "NUM_": 707}, {"ID": "961abfe4abcc4429ae67b056414ee088", "EPS_NAME": "广东柏亚化妆品有限公司", "PRODUCT_SN": "粤妆20160067", "CITY_CODE": null, "XK_COMPLETE_DATE": {"date": 15, "day": 2, "hours": 0, "minutes": 0, "month": 11, "nanos": 0, "seconds": 0, "time": 1607961600000, "timezoneOffset": -480, "year": 120}, "XK_DATE": "2025-12-14", "QF_MANAGER_NAME": "广东省药品监督管理局", "BUSINESS_LICENSE_NUMBER": "914405007398925299", "XC_DATE": "2020-12-15", "NUM_": 708}, {"ID": "fac37d5433cd449db906a17d8065a2ee", "EPS_NAME": "杭州嘉禾日用品有限公司", "PRODUCT_SN": "浙妆20160025", "CITY_CODE": null, "XK_COMPLETE_DATE": {"date": 14, "day": 1, "hours": 0, "minutes": 0, "month": 11, "nanos": 0, "seconds": 0, "time": 1607875200000, "timezoneOffset": -480, "year": 120}, "XK_DATE": "2021-06-20", "QF_MANAGER_NAME": "浙江省药品监督管理局", "BUSINESS_LICENSE_NUMBER": "91330106253933415Y", "XC_DATE": "2020-12-14", "NUM_": 709}, {"ID": "0644d533a6aa4b1fa2b4403a54b59c0b", "EPS_NAME": "山东维德曼医疗器械有限公司", "PRODUCT_SN": "鲁妆20200026", "CITY_CODE": null, "XK_COMPLETE_DATE": {"date": 14, "day": 1, "hours": 0, "minutes": 0, "month": 11, "nanos": 0, "seconds": 0, "time": 1607875200000, "timezoneOffset": -480, "year": 120}, "XK_DATE": "2025-12-13", "QF_MANAGER_NAME": "山东省药品监督管理局", "BUSINESS_LICENSE_NUMBER": "91370405MA3TY3491B", "XC_DATE": "2020-12-14", "NUM_": 710}, {"ID": "51b893d4a8614a5e9a8b8bdd6c509907", "EPS_NAME": "济南玖玫玫瑰制品有限公司", "PRODUCT_SN": "鲁妆20200025", "CITY_CODE": null, "XK_COMPLETE_DATE": {"date": 14, "day": 1, "hours": 0, "minutes": 0, "month": 11, "nanos": 0, "seconds": 0, "time": 1607875200000, "timezoneOffset": -480, "year": 120}, "XK_DATE": "2025-12-13", "QF_MANAGER_NAME": "山东省药品监督管理局", "BUSINESS_LICENSE_NUMBER": "91370124084025546J", "XC_DATE": "2020-12-14", "NUM_": 711}, {"ID": "384f347edaa34a428fff82b0f91e3713", "EPS_NAME": "微塑生物科技（上海）有限公司", "PRODUCT_SN": "沪妆20200012", "CITY_CODE": null, "XK_COMPLETE_DATE": {"date": 14, "day": 1, "hours": 0, "minutes": 0, "month": 11, "nanos": 0, "seconds": 0, "time": 1607875200000, "timezoneOffset": -480, "year": 120}, "XK_DATE": "2025-12-13", "QF_MANAGER_NAME": "上海市药品监督管理局", "BUSINESS_LICENSE_NUMBER": "91310117312160177R", "XC_DATE": "2020-12-14", "NUM_": 712}, {"ID": "c85042eb9be54f349a55c2d986efea61", "EPS_NAME": "珠海恒百成生物科技有限公司", "PRODUCT_SN": "粤妆20200248", "CITY_CODE": null, "XK_COMPLETE_DATE": {"date": 11, "day": 5, "hours": 0, "minutes": 0, "month": 11, "nanos": 0, "seconds": 0, "time": 1607616000000, "timezoneOffset": -480, "year": 120}, "XK_DATE": "2025-12-10", "QF_MANAGER_NAME": "广东省药品监督管理局", "BUSINESS_LICENSE_NUMBER": "91440400568283744B", "XC_DATE": "2020-12-11", "NUM_": 713}, {"ID": "3ce232a729984bcca0d3fd29d793d39b", "EPS_NAME": "广州完美日化科技有限公司", "PRODUCT_SN": "粤妆20200247", "CITY_CODE": null, "XK_COMPLETE_DATE": {"date": 11, "day": 5, "hours": 0, "minutes": 0, "month": 11, "nanos": 0, "seconds": 0, "time": 1607616000000, "timezoneOffset": -480, "year": 120}, "XK_DATE": "2025-12-10", "QF_MANAGER_NAME": "广东省药品监督管理局", "BUSINESS_LICENSE_NUMBER": "91440101MA5D2L0X6N", "XC_DATE": "2020-12-11", "NUM_": 714}, {"ID": "35c85906cc9047f5a13120c715248f74", "EPS_NAME": "蓝月亮（广州）有限公司", "PRODUCT_SN": "粤妆20200246", "CITY_CODE": null, "XK_COMPLETE_DATE": {"date": 11, "day": 5, "hours": 0, "minutes": 0, "month": 11, "nanos": 0, "seconds": 0, "time": 1607616000000, "timezoneOffset": -480, "year": 120}, "XK_DATE": "2025-12-10", "QF_MANAGER_NAME": "广东省药品监督管理局", "BUSINESS_LICENSE_NUMBER": "91440116MA59DNWT9W", "XC_DATE": "2020-12-11", "NUM_": 715}, {"ID": "2e8cfed1833e49d480df1fe275a3cfb1", "EPS_NAME": "广州可丽生物科技有限公司", "PRODUCT_SN": "粤妆20200100", "CITY_CODE": null, "XK_COMPLETE_DATE": {"date": 11, "day": 5, "hours": 0, "minutes": 0, "month": 11, "nanos": 0, "seconds": 0, "time": 1607616000000, "timezoneOffset": -480, "year": 120}, "XK_DATE": "2025-06-27", "QF_MANAGER_NAME": "广东省药品监督管理局", "BUSINESS_LICENSE_NUMBER": "91440101MA5CYTC918", "XC_DATE": "2020-12-11", "NUM_": 716}, {"ID": "4668203c64d347db9b43cab968043cae", "EPS_NAME": "广州赛薇生物科技有限公司", "PRODUCT_SN": "粤妆20190256", "CITY_CODE": null, "XK_COMPLETE_DATE": {"date": 11, "day": 5, "hours": 0, "minutes": 0, "month": 11, "nanos": 0, "seconds": 0, "time": 1607616000000, "timezoneOffset": -480, "year": 120}, "XK_DATE": "2024-11-19", "QF_MANAGER_NAME": "广东省药品监督管理局", "BUSINESS_LICENSE_NUMBER": "91440101MA5CWB554R", "XC_DATE": "2020-12-11", "NUM_": 717}, {"ID": "55c0ebf434be420ca25a717e46ecadf9", "EPS_NAME": "广州汉御生物科技有限公司", "PRODUCT_SN": "粤妆20190232", "CITY_CODE": null, "XK_COMPLETE_DATE": {"date": 11, "day": 5, "hours": 0, "minutes": 0, "month": 11, "nanos": 0, "seconds": 0, "time": 1607616000000, "timezoneOffset": -480, "year": 120}, "XK_DATE": "2024-10-21", "QF_MANAGER_NAME": "广东省药品监督管理局", "BUSINESS_LICENSE_NUMBER": "91440101MA5CQXCPXL", "XC_DATE": "2020-12-11", "NUM_": 718}, {"ID": "1b42e83096ab48d19dc8ad241ce75de9", "EPS_NAME": "广州市金尚化妆品有限公司", "PRODUCT_SN": "粤妆20180132", "CITY_CODE": null, "XK_COMPLETE_DATE": {"date": 11, "day": 5, "hours": 0, "minutes": 0, "month": 11, "nanos": 0, "seconds": 0, "time": 1607616000000, "timezoneOffset": -480, "year": 120}, "XK_DATE": "2023-05-31", "QF_MANAGER_NAME": "广东省药品监督管理局", "BUSINESS_LICENSE_NUMBER": "91440101MA5ANTU19T", "XC_DATE": "2020-12-11", "NUM_": 719}, {"ID": "e00a4a8d415a4c7ba09f58053b8c6420", "EPS_NAME": "广州华厦生物制药有限公司", "PRODUCT_SN": "粤妆20170597", "CITY_CODE": null, "XK_COMPLETE_DATE": {"date": 11, "day": 5, "hours": 0, "minutes": 0, "month": 11, "nanos": 0, "seconds": 0, "time": 1607616000000, "timezoneOffset": -480, "year": 120}, "XK_DATE": "2022-11-30", "QF_MANAGER_NAME": "广东省药品监督管理局", "BUSINESS_LICENSE_NUMBER": "91440101MA59QG2D9X", "XC_DATE": "2020-12-11", "NUM_": 720}], "orderBy": "createDate", "orderType": "desc", "pageCount": 373, "pageNumber": 48, "pageSize": 15, "property": "", "totalCount": 5590}