{"filesize": "", "keyword": "", "list": [{"ID": "071ff11d63734bfd9773d1e8d366e4ef", "EPS_NAME": "广州淳品生物科技有限公司", "PRODUCT_SN": "粤妆20170324", "CITY_CODE": null, "XK_COMPLETE_DATE": {"date": 11, "day": 5, "hours": 0, "minutes": 0, "month": 11, "nanos": 0, "seconds": 0, "time": 1607616000000, "timezoneOffset": -480, "year": 120}, "XK_DATE": "2022-03-13", "QF_MANAGER_NAME": "广东省药品监督管理局", "BUSINESS_LICENSE_NUMBER": "91440104562295920K", "XC_DATE": "2020-12-11", "NUM_": 721}, {"ID": "42a92cc932114c9dac8edba226a4693e", "EPS_NAME": "广州市采丽化妆品有限公司", "PRODUCT_SN": "粤妆20170186", "CITY_CODE": null, "XK_COMPLETE_DATE": {"date": 11, "day": 5, "hours": 0, "minutes": 0, "month": 11, "nanos": 0, "seconds": 0, "time": 1607616000000, "timezoneOffset": -480, "year": 120}, "XK_DATE": "2022-02-03", "QF_MANAGER_NAME": "广东省药品监督管理局", "BUSINESS_LICENSE_NUMBER": "91440184191048874P", "XC_DATE": "2020-12-11", "NUM_": 722}, {"ID": "6baac92a1c484846938ea0e1a66fcddb", "EPS_NAME": "广州市采洁化妆品有限公司", "PRODUCT_SN": "粤妆20161537", "CITY_CODE": null, "XK_COMPLETE_DATE": {"date": 11, "day": 5, "hours": 0, "minutes": 0, "month": 11, "nanos": 0, "seconds": 0, "time": 1607616000000, "timezoneOffset": -480, "year": 120}, "XK_DATE": "2021-12-06", "QF_MANAGER_NAME": "广东省药品监督管理局", "BUSINESS_LICENSE_NUMBER": "91440101565959032Y", "XC_DATE": "2020-12-11", "NUM_": 723}, {"ID": "3984a04dacef4f3aa4315955e44367a6", "EPS_NAME": "广州南雪药业有限公司", "PRODUCT_SN": "粤妆20161384", "CITY_CODE": null, "XK_COMPLETE_DATE": {"date": 11, "day": 5, "hours": 0, "minutes": 0, "month": 11, "nanos": 0, "seconds": 0, "time": 1607616000000, "timezoneOffset": -480, "year": 120}, "XK_DATE": "2021-11-29", "QF_MANAGER_NAME": "广东省药品监督管理局", "BUSINESS_LICENSE_NUMBER": "91440111671820990B", "XC_DATE": "2020-12-11", "NUM_": 724}, {"ID": "276382a4c6cb4e23ac24406d7f8c4046", "EPS_NAME": "广州市涵美化妆品有限公司", "PRODUCT_SN": "粤妆20160462", "CITY_CODE": null, "XK_COMPLETE_DATE": {"date": 11, "day": 5, "hours": 0, "minutes": 0, "month": 11, "nanos": 0, "seconds": 0, "time": 1607616000000, "timezoneOffset": -480, "year": 120}, "XK_DATE": "2025-12-10", "QF_MANAGER_NAME": "广东省药品监督管理局", "BUSINESS_LICENSE_NUMBER": "91440114562259110J", "XC_DATE": "2020-12-11", "NUM_": 725}, {"ID": "09ed08f9b23f483e9950428dab17ca8f", "EPS_NAME": "广州市白云区人和荻薇日用化妆品厂", "PRODUCT_SN": "粤妆20160359", "CITY_CODE": null, "XK_COMPLETE_DATE": {"date": 11, "day": 5, "hours": 0, "minutes": 0, "month": 11, "nanos": 0, "seconds": 0, "time": 1607616000000, "timezoneOffset": -480, "year": 120}, "XK_DATE": "2025-12-10", "QF_MANAGER_NAME": "广东省药品监督管理局", "BUSINESS_LICENSE_NUMBER": "92440101L23585569N", "XC_DATE": "2020-12-11", "NUM_": 726}, {"ID": "bf44f376a0c64f8c99af6b1966007d1e", "EPS_NAME": "广州锦同生物科技有限公司", "PRODUCT_SN": "粤妆20160126", "CITY_CODE": null, "XK_COMPLETE_DATE": {"date": 11, "day": 5, "hours": 0, "minutes": 0, "month": 11, "nanos": 0, "seconds": 0, "time": 1607616000000, "timezoneOffset": -480, "year": 120}, "XK_DATE": "2024-03-24", "QF_MANAGER_NAME": "广东省药品监督管理局", "BUSINESS_LICENSE_NUMBER": "91440111340167288C", "XC_DATE": "2020-12-11", "NUM_": 727}, {"ID": "ff0a39537d5b4317b1ccd9f0297219b8", "EPS_NAME": "湖南雾灵制药有限公司", "PRODUCT_SN": "湘妆20200008", "CITY_CODE": "194", "XK_COMPLETE_DATE": {"date": 11, "day": 5, "hours": 0, "minutes": 0, "month": 11, "nanos": 0, "seconds": 0, "time": 1607616000000, "timezoneOffset": -480, "year": 120}, "XK_DATE": "2025-12-10", "QF_MANAGER_NAME": "湖南省药品监督管理局", "BUSINESS_LICENSE_NUMBER": "91431081MA4QM5XT9D", "XC_DATE": "2020-12-11", "NUM_": 728}, {"ID": "49fd67573d6641fabb9987cb83b1d876", "EPS_NAME": "现代百朗德生物科技（江苏）有限公司", "PRODUCT_SN": "苏妆20180010", "CITY_CODE": "85", "XK_COMPLETE_DATE": {"date": 11, "day": 5, "hours": 0, "minutes": 0, "month": 11, "nanos": 0, "seconds": 0, "time": 1607616000000, "timezoneOffset": -480, "year": 120}, "XK_DATE": "2023-05-27", "QF_MANAGER_NAME": "江苏省药品监督管理局", "BUSINESS_LICENSE_NUMBER": "91320684061855846T", "XC_DATE": "2020-12-11", "NUM_": 729}, {"ID": "95875a513d664f2fb16cad284c7b4d05", "EPS_NAME": "苏州科毅生物技术有限公司", "PRODUCT_SN": "苏妆20160097", "CITY_CODE": "84", "XK_COMPLETE_DATE": {"date": 11, "day": 5, "hours": 0, "minutes": 0, "month": 11, "nanos": 0, "seconds": 0, "time": 1607616000000, "timezoneOffset": -480, "year": 120}, "XK_DATE": "2021-10-14", "QF_MANAGER_NAME": "江苏省药品监督管理局", "BUSINESS_LICENSE_NUMBER": "91320594694535711J", "XC_DATE": "2020-12-11", "NUM_": 730}, {"ID": "8d6e3ce0827d4b4487f4a2a9c2d648de", "EPS_NAME": "潍坊市鸢腾化妆品有限公司", "PRODUCT_SN": "鲁妆20170054", "CITY_CODE": null, "XK_COMPLETE_DATE": {"date": 11, "day": 5, "hours": 0, "minutes": 0, "month": 11, "nanos": 0, "seconds": 0, "time": 1607616000000, "timezoneOffset": -480, "year": 120}, "XK_DATE": "2022-10-31", "QF_MANAGER_NAME": "山东省药品监督管理局", "BUSINESS_LICENSE_NUMBER": "91370783865704074Q", "XC_DATE": "2020-12-11", "NUM_": 731}, {"ID": "1618a865424341758fed86cf8990808d", "EPS_NAME": "东莞市圣姬医疗科技发展有限公司", "PRODUCT_SN": "粤妆20200245", "CITY_CODE": null, "XK_COMPLETE_DATE": {"date": 10, "day": 4, "hours": 0, "minutes": 0, "month": 11, "nanos": 0, "seconds": 0, "time": 1607529600000, "timezoneOffset": -480, "year": 120}, "XK_DATE": "2025-12-09", "QF_MANAGER_NAME": "广东省药品监督管理局", "BUSINESS_LICENSE_NUMBER": "91441900MA54C6WH4B", "XC_DATE": "2020-12-10", "NUM_": 732}, {"ID": "2c67adb977c14bb0a9f1142dc6fbef91", "EPS_NAME": "东莞市互生美甲产品有限公司", "PRODUCT_SN": "粤妆20160457", "CITY_CODE": null, "XK_COMPLETE_DATE": {"date": 10, "day": 4, "hours": 0, "minutes": 0, "month": 11, "nanos": 0, "seconds": 0, "time": 1607529600000, "timezoneOffset": -480, "year": 120}, "XK_DATE": "2021-07-24", "QF_MANAGER_NAME": "广东省药品监督管理局", "BUSINESS_LICENSE_NUMBER": "91441900559103860G", "XC_DATE": "2020-12-10", "NUM_": 733}, {"ID": "832d7dca20ba4042aa081332abd7bd25", "EPS_NAME": "金日制药（中国）有限公司", "PRODUCT_SN": "闽妆20170016", "CITY_CODE": "136", "XK_COMPLETE_DATE": {"date": 10, "day": 4, "hours": 0, "minutes": 0, "month": 11, "nanos": 0, "seconds": 0, "time": 1607529600000, "timezoneOffset": -480, "year": 120}, "XK_DATE": "2022-02-13", "QF_MANAGER_NAME": "福建省药品监督管理局", "BUSINESS_LICENSE_NUMBER": "91350200612009145K", "XC_DATE": "2020-12-10", "NUM_": 734}, {"ID": "0ab5512d518e4f7591b1ec160ad15d93", "EPS_NAME": "重庆碧海源日化用品有限公司", "PRODUCT_SN": "渝妆20160009", "CITY_CODE": "450", "XK_COMPLETE_DATE": {"date": 9, "day": 3, "hours": 0, "minutes": 0, "month": 11, "nanos": 0, "seconds": 0, "time": 1607443200000, "timezoneOffset": -480, "year": 120}, "XK_DATE": "2021-11-02", "QF_MANAGER_NAME": "重庆市药品监督管理局", "BUSINESS_LICENSE_NUMBER": "91500113345941893U", "XC_DATE": "2020-12-09", "NUM_": 735}], "orderBy": "createDate", "orderType": "desc", "pageCount": 373, "pageNumber": 49, "pageSize": 15, "property": "", "totalCount": 5590}