{"filesize": "", "keyword": "", "list": [{"ID": "350f2b33ca7d4274bff9e0cb185ca71d", "EPS_NAME": "广州市美驰化妆品有限公司", "PRODUCT_SN": "粤妆20160419", "CITY_CODE": null, "XK_COMPLETE_DATE": {"date": 6, "day": 2, "hours": 0, "minutes": 0, "month": 3, "nanos": 0, "seconds": 0, "time": 1617638400000, "timezoneOffset": -480, "year": 121}, "XK_DATE": "2026-04-05", "QF_MANAGER_NAME": "广东省药品监督管理局", "BUSINESS_LICENSE_NUMBER": "914401017640000007", "XC_DATE": "2021-04-06", "NUM_": 61}, {"ID": "c91dc865e16c4dd29f2fa49969052ec5", "EPS_NAME": "威莱（广州）日用品有限公司", "PRODUCT_SN": "粤妆20160382", "CITY_CODE": null, "XK_COMPLETE_DATE": {"date": 6, "day": 2, "hours": 0, "minutes": 0, "month": 3, "nanos": 0, "seconds": 0, "time": 1617638400000, "timezoneOffset": -480, "year": 121}, "XK_DATE": "2026-04-05", "QF_MANAGER_NAME": "广东省药品监督管理局", "BUSINESS_LICENSE_NUMBER": "914401017676986513", "XC_DATE": "2021-04-06", "NUM_": 62}, {"ID": "5c6b64cea5214d94bc197d847222abc5", "EPS_NAME": "广州市博卡利生物科技有限公司", "PRODUCT_SN": "粤妆20160275", "CITY_CODE": null, "XK_COMPLETE_DATE": {"date": 6, "day": 2, "hours": 0, "minutes": 0, "month": 3, "nanos": 0, "seconds": 0, "time": 1617638400000, "timezoneOffset": -480, "year": 121}, "XK_DATE": "2026-04-05", "QF_MANAGER_NAME": "广东省药品监督管理局", "BUSINESS_LICENSE_NUMBER": "91440114050639072W", "XC_DATE": "2021-04-06", "NUM_": 63}, {"ID": "691ea71dfa604e51b4986b79613ec8c3", "EPS_NAME": "广州市皓雨化妆品有限公司", "PRODUCT_SN": "粤妆20160258", "CITY_CODE": null, "XK_COMPLETE_DATE": {"date": 6, "day": 2, "hours": 0, "minutes": 0, "month": 3, "nanos": 0, "seconds": 0, "time": 1617638400000, "timezoneOffset": -480, "year": 121}, "XK_DATE": "2022-10-09", "QF_MANAGER_NAME": "广东省药品监督管理局", "BUSINESS_LICENSE_NUMBER": "91440111732968180H", "XC_DATE": "2021-04-06", "NUM_": 64}, {"ID": "141047fc829b47abbe7ea1043fb21897", "EPS_NAME": "安徽品赫生物科技有限公司", "PRODUCT_SN": "皖妆20200003", "CITY_CODE": "221", "XK_COMPLETE_DATE": {"date": 6, "day": 2, "hours": 0, "minutes": 0, "month": 3, "nanos": 0, "seconds": 0, "time": 1617638400000, "timezoneOffset": -480, "year": 121}, "XK_DATE": "2025-07-13", "QF_MANAGER_NAME": "安徽省药品监督管理局", "BUSINESS_LICENSE_NUMBER": "91340100MA2UBYK753", "XC_DATE": "2021-04-06", "NUM_": 65}, {"ID": "20b683c1a326450db5058c5411412adb", "EPS_NAME": "安徽乐美达生物科技有限公司", "PRODUCT_SN": "皖妆20190006", "CITY_CODE": "221", "XK_COMPLETE_DATE": {"date": 6, "day": 2, "hours": 0, "minutes": 0, "month": 3, "nanos": 0, "seconds": 0, "time": 1617638400000, "timezoneOffset": -480, "year": 121}, "XK_DATE": "2024-08-18", "QF_MANAGER_NAME": "安徽省药品监督管理局", "BUSINESS_LICENSE_NUMBER": "91340100MA2T1DXU3F", "XC_DATE": "2021-04-06", "NUM_": 66}, {"ID": "b3b7962384384ae69c2ded55932297e8", "EPS_NAME": "中英阿诺康（宁夏）生物科技有限公司", "PRODUCT_SN": "宁妆20210001", "CITY_CODE": "299", "XK_COMPLETE_DATE": {"date": 6, "day": 2, "hours": 0, "minutes": 0, "month": 3, "nanos": 0, "seconds": 0, "time": 1617638400000, "timezoneOffset": -480, "year": 121}, "XK_DATE": "2026-03-31", "QF_MANAGER_NAME": "宁夏回族自治区食品药品监督管理局", "BUSINESS_LICENSE_NUMBER": "9164000039644116XC", "XC_DATE": "2021-04-06", "NUM_": 67}, {"ID": "e3c2485d590b41c6a23712e17c00bfc5", "EPS_NAME": "贵州北盘江生物科技有限公司", "PRODUCT_SN": "贵妆20210001", "CITY_CODE": "249", "XK_COMPLETE_DATE": {"date": 6, "day": 2, "hours": 0, "minutes": 0, "month": 3, "nanos": 0, "seconds": 0, "time": 1617638400000, "timezoneOffset": -480, "year": 121}, "XK_DATE": "2026-04-05", "QF_MANAGER_NAME": "贵州省药品监督管理局", "BUSINESS_LICENSE_NUMBER": "915223263142986201", "XC_DATE": "2021-04-06", "NUM_": 68}, {"ID": "e4ae260021fa425388b3606d63a22f13", "EPS_NAME": "广东省九科生物科技有限公司", "PRODUCT_SN": "粤妆20210095", "CITY_CODE": null, "XK_COMPLETE_DATE": {"date": 2, "day": 5, "hours": 0, "minutes": 0, "month": 3, "nanos": 0, "seconds": 0, "time": 1617292800000, "timezoneOffset": -480, "year": 121}, "XK_DATE": "2026-04-01", "QF_MANAGER_NAME": "广东省药品监督管理局", "BUSINESS_LICENSE_NUMBER": "91440607MA55RFH4XE", "XC_DATE": "2021-04-02", "NUM_": 69}, {"ID": "02c885ba780a42cebf9e71c32bfcfa5b", "EPS_NAME": "广东嘉丹婷日用品有限公司", "PRODUCT_SN": "粤妆20210094", "CITY_CODE": null, "XK_COMPLETE_DATE": {"date": 2, "day": 5, "hours": 0, "minutes": 0, "month": 3, "nanos": 0, "seconds": 0, "time": 1617292800000, "timezoneOffset": -480, "year": 121}, "XK_DATE": "2026-04-01", "QF_MANAGER_NAME": "广东省药品监督管理局", "BUSINESS_LICENSE_NUMBER": "91441200056766179R", "XC_DATE": "2021-04-02", "NUM_": 70}, {"ID": "527f837c820b46cb8110a0aead19f06f", "EPS_NAME": "广东柏芝翎新材料科技有限公司", "PRODUCT_SN": "粤妆20210093", "CITY_CODE": null, "XK_COMPLETE_DATE": {"date": 2, "day": 5, "hours": 0, "minutes": 0, "month": 3, "nanos": 0, "seconds": 0, "time": 1617292800000, "timezoneOffset": -480, "year": 121}, "XK_DATE": "2026-04-01", "QF_MANAGER_NAME": "广东省药品监督管理局", "BUSINESS_LICENSE_NUMBER": "91445321MA53545T61", "XC_DATE": "2021-04-02", "NUM_": 71}, {"ID": "12931a93c8ad455796a5d143f9aa765f", "EPS_NAME": "广东韩朵生物科技有限公司", "PRODUCT_SN": "粤妆20210092", "CITY_CODE": null, "XK_COMPLETE_DATE": {"date": 2, "day": 5, "hours": 0, "minutes": 0, "month": 3, "nanos": 0, "seconds": 0, "time": 1617292800000, "timezoneOffset": -480, "year": 121}, "XK_DATE": "2026-04-01", "QF_MANAGER_NAME": "广东省药品监督管理局", "BUSINESS_LICENSE_NUMBER": "91441802MA55MX0B00", "XC_DATE": "2021-04-02", "NUM_": 72}, {"ID": "b67d99429fd04ca19b265d37d0dcb9f9", "EPS_NAME": "惠州市尚天然化妆品有限公司", "PRODUCT_SN": "粤妆20160703", "CITY_CODE": null, "XK_COMPLETE_DATE": {"date": 2, "day": 5, "hours": 0, "minutes": 0, "month": 3, "nanos": 0, "seconds": 0, "time": 1617292800000, "timezoneOffset": -480, "year": 121}, "XK_DATE": "2026-09-13", "QF_MANAGER_NAME": "广东省药品监督管理局", "BUSINESS_LICENSE_NUMBER": "91441302MA4UJ80D35", "XC_DATE": "2021-04-02", "NUM_": 73}, {"ID": "179e3285a1e64ee094110dcc7d9c8c22", "EPS_NAME": "广东德丝肤生物科技有限公司", "PRODUCT_SN": "粤妆20160228", "CITY_CODE": null, "XK_COMPLETE_DATE": {"date": 2, "day": 5, "hours": 0, "minutes": 0, "month": 3, "nanos": 0, "seconds": 0, "time": 1617292800000, "timezoneOffset": -480, "year": 121}, "XK_DATE": "2026-04-01", "QF_MANAGER_NAME": "广东省药品监督管理局", "BUSINESS_LICENSE_NUMBER": "91440605MA4UNYL97B", "XC_DATE": "2021-04-02", "NUM_": 74}, {"ID": "ef0f56f82d0345f2b0ab04c84548ee21", "EPS_NAME": "海南中生制药有限公司", "PRODUCT_SN": "琼妆20210001", "CITY_CODE": "311", "XK_COMPLETE_DATE": {"date": 2, "day": 5, "hours": 0, "minutes": 0, "month": 3, "nanos": 0, "seconds": 0, "time": 1617292800000, "timezoneOffset": -480, "year": 121}, "XK_DATE": "2026-04-02", "QF_MANAGER_NAME": "海南省药品监督管理局", "BUSINESS_LICENSE_NUMBER": "91460000MA5TQDTG5P", "XC_DATE": "2021-04-02", "NUM_": 75}], "orderBy": "createDate", "orderType": "desc", "pageCount": 373, "pageNumber": 5, "pageSize": 15, "property": "", "totalCount": 5590}