{"filesize": "", "keyword": "", "list": [{"ID": "43c9bd8d9fc1409cb96b680b6507a362", "EPS_NAME": "广东科丝美生物科技有限公司", "PRODUCT_SN": "粤妆20200250", "CITY_CODE": null, "XK_COMPLETE_DATE": {"date": 8, "day": 2, "hours": 0, "minutes": 0, "month": 11, "nanos": 0, "seconds": 0, "time": 1607356800000, "timezoneOffset": -480, "year": 120}, "XK_DATE": "2025-12-07", "QF_MANAGER_NAME": "广东省药品监督管理局", "BUSINESS_LICENSE_NUMBER": "91441200MA532EGQ2X", "XC_DATE": "2020-12-08", "NUM_": 736}, {"ID": "8506f601a98341449960e330f1a8144e", "EPS_NAME": "深圳市纳家生活科技有限公司", "PRODUCT_SN": "粤妆20200244", "CITY_CODE": null, "XK_COMPLETE_DATE": {"date": 8, "day": 2, "hours": 0, "minutes": 0, "month": 11, "nanos": 0, "seconds": 0, "time": 1607356800000, "timezoneOffset": -480, "year": 120}, "XK_DATE": "2025-12-07", "QF_MANAGER_NAME": "广东省药品监督管理局", "BUSINESS_LICENSE_NUMBER": "91440300MA5ET4B082", "XC_DATE": "2020-12-08", "NUM_": 737}, {"ID": "e3df927a54034119bdb5247b66b04ef5", "EPS_NAME": "广东御芳泽生物科技有限公司", "PRODUCT_SN": "粤妆20200243", "CITY_CODE": null, "XK_COMPLETE_DATE": {"date": 8, "day": 2, "hours": 0, "minutes": 0, "month": 11, "nanos": 0, "seconds": 0, "time": 1607356800000, "timezoneOffset": -480, "year": 120}, "XK_DATE": "2025-12-07", "QF_MANAGER_NAME": "广东省药品监督管理局", "BUSINESS_LICENSE_NUMBER": "91440605MA54WN4K67", "XC_DATE": "2020-12-08", "NUM_": 738}, {"ID": "100f65863b7148639384033e2b020509", "EPS_NAME": "深圳市三浦天然化妆品有限公司", "PRODUCT_SN": "粤妆20160861", "CITY_CODE": null, "XK_COMPLETE_DATE": {"date": 8, "day": 2, "hours": 0, "minutes": 0, "month": 11, "nanos": 0, "seconds": 0, "time": 1607356800000, "timezoneOffset": -480, "year": 120}, "XK_DATE": "2021-10-10", "QF_MANAGER_NAME": "广东省药品监督管理局", "BUSINESS_LICENSE_NUMBER": "91440300781374493Q", "XC_DATE": "2020-12-08", "NUM_": 739}, {"ID": "BF5F3DECB6C4408CE050A8C01F1E5398", "EPS_NAME": "西安九州再生医学集团有限公司", "PRODUCT_SN": "陕妆20200006", "CITY_CODE": null, "XK_COMPLETE_DATE": {"date": 8, "day": 2, "hours": 0, "minutes": 0, "month": 11, "nanos": 0, "seconds": 0, "time": 1607356800000, "timezoneOffset": -480, "year": 120}, "XK_DATE": "2025-12-07", "QF_MANAGER_NAME": "陕西省药品监督管理局", "BUSINESS_LICENSE_NUMBER": "91610131MA6X1YD33U", "XC_DATE": "2020-12-08", "NUM_": 740}, {"ID": "5d471228e6cf46b0b9fd6d6776275b7f", "EPS_NAME": "辽宁佩兰日化有限公司", "PRODUCT_SN": "辽妆20200010", "CITY_CODE": "291", "XK_COMPLETE_DATE": {"date": 8, "day": 2, "hours": 0, "minutes": 0, "month": 11, "nanos": 0, "seconds": 0, "time": 1607356800000, "timezoneOffset": -480, "year": 120}, "XK_DATE": "2025-12-07", "QF_MANAGER_NAME": "辽宁省药品监督管理局", "BUSINESS_LICENSE_NUMBER": "91210600MA10ACBH51", "XC_DATE": "2020-12-08", "NUM_": 741}, {"ID": "6eec540e8e0640768e77b56c603a3a0e", "EPS_NAME": "贵州艾力康中草药开发有限公司", "PRODUCT_SN": "贵妆20180004", "CITY_CODE": "254", "XK_COMPLETE_DATE": {"date": 8, "day": 2, "hours": 0, "minutes": 0, "month": 11, "nanos": 0, "seconds": 0, "time": 1607356800000, "timezoneOffset": -480, "year": 120}, "XK_DATE": "2023-06-19", "QF_MANAGER_NAME": "贵州省药品监督管理局", "BUSINESS_LICENSE_NUMBER": "91522728308716638K", "XC_DATE": "2020-12-08", "NUM_": 742}, {"ID": "4abdb635d639412492b5b63d47f9d5c7", "EPS_NAME": "广州顾元化妆品有限公司", "PRODUCT_SN": "粤妆20200241", "CITY_CODE": null, "XK_COMPLETE_DATE": {"date": 7, "day": 1, "hours": 0, "minutes": 0, "month": 11, "nanos": 0, "seconds": 0, "time": 1607270400000, "timezoneOffset": -480, "year": 120}, "XK_DATE": "2025-12-06", "QF_MANAGER_NAME": "广东省药品监督管理局", "BUSINESS_LICENSE_NUMBER": "91440101MA9UKH6T11", "XC_DATE": "2020-12-07", "NUM_": 743}, {"ID": "2523428fdd43474f8404be84210b753b", "EPS_NAME": "广州秋雨生物科技有限公司", "PRODUCT_SN": "粤妆20180152", "CITY_CODE": null, "XK_COMPLETE_DATE": {"date": 7, "day": 1, "hours": 0, "minutes": 0, "month": 11, "nanos": 0, "seconds": 0, "time": 1607270400000, "timezoneOffset": -480, "year": 120}, "XK_DATE": "2023-07-02", "QF_MANAGER_NAME": "广东省药品监督管理局", "BUSINESS_LICENSE_NUMBER": "91440114093598151W", "XC_DATE": "2020-12-07", "NUM_": 744}, {"ID": "242a973f8aa74cb284c0ae9a21b4f123", "EPS_NAME": "广州博养堂健康产业有限公司", "PRODUCT_SN": "粤妆20170286", "CITY_CODE": null, "XK_COMPLETE_DATE": {"date": 7, "day": 1, "hours": 0, "minutes": 0, "month": 11, "nanos": 0, "seconds": 0, "time": 1607270400000, "timezoneOffset": -480, "year": 120}, "XK_DATE": "2022-02-16", "QF_MANAGER_NAME": "广东省药品监督管理局", "BUSINESS_LICENSE_NUMBER": "91440101355799085E", "XC_DATE": "2020-12-07", "NUM_": 745}, {"ID": "f29383b9cd4c43cf973dbdf16203aa6a", "EPS_NAME": "广州市芊彩化妆品有限公司", "PRODUCT_SN": "粤妆20161086", "CITY_CODE": null, "XK_COMPLETE_DATE": {"date": 7, "day": 1, "hours": 0, "minutes": 0, "month": 11, "nanos": 0, "seconds": 0, "time": 1607270400000, "timezoneOffset": -480, "year": 120}, "XK_DATE": "2025-12-06", "QF_MANAGER_NAME": "广东省药品监督管理局", "BUSINESS_LICENSE_NUMBER": "91440101783779793Q", "XC_DATE": "2020-12-07", "NUM_": 746}, {"ID": "e671d00b0ff149018f1faf5b897de3cf", "EPS_NAME": "广州天香生物科技有限公司", "PRODUCT_SN": "粤妆20160165", "CITY_CODE": null, "XK_COMPLETE_DATE": {"date": 7, "day": 1, "hours": 0, "minutes": 0, "month": 11, "nanos": 0, "seconds": 0, "time": 1607270400000, "timezoneOffset": -480, "year": 120}, "XK_DATE": "2023-09-20", "QF_MANAGER_NAME": "广东省药品监督管理局", "BUSINESS_LICENSE_NUMBER": "914401110589171106", "XC_DATE": "2020-12-07", "NUM_": 747}, {"ID": "a86b953e03fa4cbcb18354588067f68f", "EPS_NAME": "南京天其美生物技术有限公司", "PRODUCT_SN": "苏妆20200026", "CITY_CODE": "81", "XK_COMPLETE_DATE": {"date": 7, "day": 1, "hours": 0, "minutes": 0, "month": 11, "nanos": 0, "seconds": 0, "time": 1607270400000, "timezoneOffset": -480, "year": 120}, "XK_DATE": "2025-12-06", "QF_MANAGER_NAME": "江苏省药品监督管理局", "BUSINESS_LICENSE_NUMBER": "91320115MA1R9MDG61", "XC_DATE": "2020-12-07", "NUM_": 748}, {"ID": "b2afd7622312450db3d7fcc84fd37195", "EPS_NAME": "江苏海智生物医药有限公司", "PRODUCT_SN": "苏妆20200025", "CITY_CODE": "81", "XK_COMPLETE_DATE": {"date": 7, "day": 1, "hours": 0, "minutes": 0, "month": 11, "nanos": 0, "seconds": 0, "time": 1607270400000, "timezoneOffset": -480, "year": 120}, "XK_DATE": "2025-12-06", "QF_MANAGER_NAME": "江苏省药品监督管理局", "BUSINESS_LICENSE_NUMBER": "913201913025480985", "XC_DATE": "2020-12-07", "NUM_": 749}, {"ID": "70cf0a23383742f3827aacbc41a7cf7d", "EPS_NAME": "广西锦秀堂生物科技有限公司", "PRODUCT_SN": "桂妆20180005", "CITY_CODE": "237", "XK_COMPLETE_DATE": {"date": 7, "day": 1, "hours": 0, "minutes": 0, "month": 11, "nanos": 0, "seconds": 0, "time": 1607270400000, "timezoneOffset": -480, "year": 120}, "XK_DATE": "2023-06-10", "QF_MANAGER_NAME": "广西壮族自治区药品监督管理局", "BUSINESS_LICENSE_NUMBER": "91450100MA5L5HCC39", "XC_DATE": "2020-12-07", "NUM_": 750}], "orderBy": "createDate", "orderType": "desc", "pageCount": 373, "pageNumber": 50, "pageSize": 15, "property": "", "totalCount": 5590}