{"filesize": "", "keyword": "", "list": [{"ID": "44e02d3b44af48c9b54d8e5b22d78bc6", "EPS_NAME": "宁波维纳斯化妆品有限公司", "PRODUCT_SN": "浙妆20160214", "CITY_CODE": null, "XK_COMPLETE_DATE": {"date": 1, "day": 4, "hours": 0, "minutes": 0, "month": 3, "nanos": 0, "seconds": 0, "time": 1617206400000, "timezoneOffset": -480, "year": 121}, "XK_DATE": "2021-12-12", "QF_MANAGER_NAME": "浙江省药品监督管理局", "BUSINESS_LICENSE_NUMBER": "91330282144741078U", "XC_DATE": "2021-04-01", "NUM_": 76}, {"ID": "3f35be82f03f42b1af19f6bf9a98094c", "EPS_NAME": "广东美思康宸药业股份有限公司", "PRODUCT_SN": "粤妆20210091", "CITY_CODE": null, "XK_COMPLETE_DATE": {"date": 1, "day": 4, "hours": 0, "minutes": 0, "month": 3, "nanos": 0, "seconds": 0, "time": 1617206400000, "timezoneOffset": -480, "year": 121}, "XK_DATE": "2026-03-31", "QF_MANAGER_NAME": "广东省药品监督管理局", "BUSINESS_LICENSE_NUMBER": "91441300MA54WWUQ5U", "XC_DATE": "2021-04-01", "NUM_": 77}, {"ID": "b130562c8d1e44a291d6d9cb1b3656f6", "EPS_NAME": "广东雅倩化妆品有限公司", "PRODUCT_SN": "粤妆20160401", "CITY_CODE": null, "XK_COMPLETE_DATE": {"date": 1, "day": 4, "hours": 0, "minutes": 0, "month": 3, "nanos": 0, "seconds": 0, "time": 1617206400000, "timezoneOffset": -480, "year": 121}, "XK_DATE": "2026-03-31", "QF_MANAGER_NAME": "广东省药品监督管理局", "BUSINESS_LICENSE_NUMBER": "914405146175741864", "XC_DATE": "2021-04-01", "NUM_": 78}, {"ID": "346514fae18f4155abfadc612d10675d", "EPS_NAME": "乳源南岭好山好水化妆品有限公司", "PRODUCT_SN": "粤妆20160333", "CITY_CODE": null, "XK_COMPLETE_DATE": {"date": 1, "day": 4, "hours": 0, "minutes": 0, "month": 3, "nanos": 0, "seconds": 0, "time": 1617206400000, "timezoneOffset": -480, "year": 121}, "XK_DATE": "2026-03-31", "QF_MANAGER_NAME": "广东省药品监督管理局", "BUSINESS_LICENSE_NUMBER": "91440232050683129M", "XC_DATE": "2021-04-01", "NUM_": 79}, {"ID": "04cd4c2bbea844bd8c14397b6a3cce05", "EPS_NAME": "金芝堂（佛山市）生物科技有限公司", "PRODUCT_SN": "粤妆20210097", "CITY_CODE": null, "XK_COMPLETE_DATE": {"date": 31, "day": 3, "hours": 0, "minutes": 0, "month": 2, "nanos": 0, "seconds": 0, "time": 1617120000000, "timezoneOffset": -480, "year": 121}, "XK_DATE": "2026-03-30", "QF_MANAGER_NAME": "广东省药品监督管理局", "BUSINESS_LICENSE_NUMBER": "91440607MA55NFE06T", "XC_DATE": "2021-03-31", "NUM_": 80}, {"ID": "18eb0ab3bcf449da934af77572b21a0c", "EPS_NAME": "广东京妍生物科技有限公司", "PRODUCT_SN": "粤妆20210096", "CITY_CODE": null, "XK_COMPLETE_DATE": {"date": 31, "day": 3, "hours": 0, "minutes": 0, "month": 2, "nanos": 0, "seconds": 0, "time": 1617120000000, "timezoneOffset": -480, "year": 121}, "XK_DATE": "2026-03-30", "QF_MANAGER_NAME": "广东省药品监督管理局", "BUSINESS_LICENSE_NUMBER": "91440607MA55PE590Y", "XC_DATE": "2021-03-31", "NUM_": 81}, {"ID": "a828142c190342b1982161d34d5fa84c", "EPS_NAME": "佛山天韵化妆品科技有限公司", "PRODUCT_SN": "粤妆20190012", "CITY_CODE": null, "XK_COMPLETE_DATE": {"date": 31, "day": 3, "hours": 0, "minutes": 0, "month": 2, "nanos": 0, "seconds": 0, "time": 1617120000000, "timezoneOffset": -480, "year": 121}, "XK_DATE": "2024-01-15", "QF_MANAGER_NAME": "广东省药品监督管理局", "BUSINESS_LICENSE_NUMBER": "91440607MA51QWB49A", "XC_DATE": "2021-03-31", "NUM_": 82}, {"ID": "17d68cb1bf564174a6753ad50591178a", "EPS_NAME": "广东澳珍药业有限公司", "PRODUCT_SN": "粤妆20170297", "CITY_CODE": null, "XK_COMPLETE_DATE": {"date": 31, "day": 3, "hours": 0, "minutes": 0, "month": 2, "nanos": 0, "seconds": 0, "time": 1617120000000, "timezoneOffset": -480, "year": 121}, "XK_DATE": "2022-02-22", "QF_MANAGER_NAME": "广东省药品监督管理局", "BUSINESS_LICENSE_NUMBER": "9144130076157659XT", "XC_DATE": "2021-03-31", "NUM_": 83}, {"ID": "86ef648c155e400ebaee666c41ac6660", "EPS_NAME": "深圳市诗黛美化妆品有限公司", "PRODUCT_SN": "粤妆20160496", "CITY_CODE": null, "XK_COMPLETE_DATE": {"date": 31, "day": 3, "hours": 0, "minutes": 0, "month": 2, "nanos": 0, "seconds": 0, "time": 1617120000000, "timezoneOffset": -480, "year": 121}, "XK_DATE": "2026-03-30", "QF_MANAGER_NAME": "广东省药品监督管理局", "BUSINESS_LICENSE_NUMBER": "91440300781382872K", "XC_DATE": "2021-03-31", "NUM_": 84}, {"ID": "53e4c43bfe7941b9bdb231c120a8a85c", "EPS_NAME": "广东爱齐美日化有限公司", "PRODUCT_SN": "粤妆20160296", "CITY_CODE": null, "XK_COMPLETE_DATE": {"date": 31, "day": 3, "hours": 0, "minutes": 0, "month": 2, "nanos": 0, "seconds": 0, "time": 1617120000000, "timezoneOffset": -480, "year": 121}, "XK_DATE": "2026-03-30", "QF_MANAGER_NAME": "广东省药品监督管理局", "BUSINESS_LICENSE_NUMBER": "91440604324891428R", "XC_DATE": "2021-03-31", "NUM_": 85}, {"ID": "71eac5963dd7441291af901ba2a05fab", "EPS_NAME": "明辉实业（深圳）有限公司", "PRODUCT_SN": "粤妆20160033", "CITY_CODE": null, "XK_COMPLETE_DATE": {"date": 31, "day": 3, "hours": 0, "minutes": 0, "month": 2, "nanos": 0, "seconds": 0, "time": 1617120000000, "timezoneOffset": -480, "year": 121}, "XK_DATE": "2026-03-30", "QF_MANAGER_NAME": "广东省药品监督管理局", "BUSINESS_LICENSE_NUMBER": "9144030061882655X1", "XC_DATE": "2021-03-31", "NUM_": 86}, {"ID": "c0f3d17af9934b4da902231ba6a76e99", "EPS_NAME": "成都丽雅嘉化妆品有限公司", "PRODUCT_SN": "川妆20160006", "CITY_CODE": "165", "XK_COMPLETE_DATE": {"date": 31, "day": 3, "hours": 0, "minutes": 0, "month": 2, "nanos": 0, "seconds": 0, "time": 1617120000000, "timezoneOffset": -480, "year": 121}, "XK_DATE": "2021-11-07", "QF_MANAGER_NAME": "四川省药品监督管理局", "BUSINESS_LICENSE_NUMBER": "91510122709288937A", "XC_DATE": "2021-03-31", "NUM_": 87}, {"ID": "16ccb59684f642d5943dda619dd54d64", "EPS_NAME": "汕头市金泽化妆品有限公司", "PRODUCT_SN": "粤妆20190047", "CITY_CODE": null, "XK_COMPLETE_DATE": {"date": 30, "day": 2, "hours": 0, "minutes": 0, "month": 2, "nanos": 0, "seconds": 0, "time": 1617033600000, "timezoneOffset": -480, "year": 121}, "XK_DATE": "2024-03-06", "QF_MANAGER_NAME": "广东省药品监督管理局", "BUSINESS_LICENSE_NUMBER": "91440513334818750P", "XC_DATE": "2021-03-30", "NUM_": 88}, {"ID": "aee90c75bc4146fea84dfe0e76ccbc66", "EPS_NAME": "惠州市绿亚生物材料有限公司", "PRODUCT_SN": "粤妆20161799", "CITY_CODE": null, "XK_COMPLETE_DATE": {"date": 30, "day": 2, "hours": 0, "minutes": 0, "month": 2, "nanos": 0, "seconds": 0, "time": 1617033600000, "timezoneOffset": -480, "year": 121}, "XK_DATE": "2021-12-29", "QF_MANAGER_NAME": "广东省药品监督管理局", "BUSINESS_LICENSE_NUMBER": "91441300351925945Y", "XC_DATE": "2021-03-30", "NUM_": 89}, {"ID": "519390ea6951447cafd0847c66f092bd", "EPS_NAME": "广州欧诺洁个人护理用品有限公司", "PRODUCT_SN": "粤妆20161368", "CITY_CODE": null, "XK_COMPLETE_DATE": {"date": 30, "day": 2, "hours": 0, "minutes": 0, "month": 2, "nanos": 0, "seconds": 0, "time": 1617033600000, "timezoneOffset": -480, "year": 121}, "XK_DATE": "2025-12-21", "QF_MANAGER_NAME": "广东省药品监督管理局", "BUSINESS_LICENSE_NUMBER": "9144011178120497XE", "XC_DATE": "2021-03-30", "NUM_": 90}], "orderBy": "createDate", "orderType": "desc", "pageCount": 373, "pageNumber": 6, "pageSize": 15, "property": "", "totalCount": 5590}