{"filesize": "", "keyword": "", "list": [{"ID": "bc7cad151fc343178394f446f47da4dc", "EPS_NAME": "广州珍维斯生物科技有限公司", "PRODUCT_SN": "粤妆20161208", "CITY_CODE": null, "XK_COMPLETE_DATE": {"date": 30, "day": 2, "hours": 0, "minutes": 0, "month": 2, "nanos": 0, "seconds": 0, "time": 1617033600000, "timezoneOffset": -480, "year": 121}, "XK_DATE": "2021-11-15", "QF_MANAGER_NAME": "广东省药品监督管理局", "BUSINESS_LICENSE_NUMBER": "914401116659364015", "XC_DATE": "2021-03-30", "NUM_": 91}, {"ID": "9526157056904c17ba7e61549bdf572f", "EPS_NAME": "广东俏美人化妆品实业有限公司", "PRODUCT_SN": "粤妆20160809", "CITY_CODE": null, "XK_COMPLETE_DATE": {"date": 30, "day": 2, "hours": 0, "minutes": 0, "month": 2, "nanos": 0, "seconds": 0, "time": 1617033600000, "timezoneOffset": -480, "year": 121}, "XK_DATE": "2026-03-29", "QF_MANAGER_NAME": "广东省药品监督管理局", "BUSINESS_LICENSE_NUMBER": "91440514279747426X", "XC_DATE": "2021-03-30", "NUM_": 92}, {"ID": "7a0d291dcad044a49fc24826ed058909", "EPS_NAME": "广州市雅资达化妆品有限公司", "PRODUCT_SN": "粤妆20160656", "CITY_CODE": null, "XK_COMPLETE_DATE": {"date": 30, "day": 2, "hours": 0, "minutes": 0, "month": 2, "nanos": 0, "seconds": 0, "time": 1617033600000, "timezoneOffset": -480, "year": 121}, "XK_DATE": "2021-08-28", "QF_MANAGER_NAME": "广东省药品监督管理局", "BUSINESS_LICENSE_NUMBER": "91440111788942158U", "XC_DATE": "2021-03-30", "NUM_": 93}, {"ID": "41e3eb00afff433e86ce670bb200dc5f", "EPS_NAME": "广州润博化妆品有限公司", "PRODUCT_SN": "粤妆20160587", "CITY_CODE": null, "XK_COMPLETE_DATE": {"date": 30, "day": 2, "hours": 0, "minutes": 0, "month": 2, "nanos": 0, "seconds": 0, "time": 1617033600000, "timezoneOffset": -480, "year": 121}, "XK_DATE": "2021-08-18", "QF_MANAGER_NAME": "广东省药品监督管理局", "BUSINESS_LICENSE_NUMBER": "91440113799443872J", "XC_DATE": "2021-03-30", "NUM_": 94}, {"ID": "98c3642b8e9241bcafbf3a2ce2a12979", "EPS_NAME": "广州市华侬化妆品有限公司", "PRODUCT_SN": "粤妆20160523", "CITY_CODE": null, "XK_COMPLETE_DATE": {"date": 30, "day": 2, "hours": 0, "minutes": 0, "month": 2, "nanos": 0, "seconds": 0, "time": 1617033600000, "timezoneOffset": -480, "year": 121}, "XK_DATE": "2026-03-29", "QF_MANAGER_NAME": "广东省药品监督管理局", "BUSINESS_LICENSE_NUMBER": "914401117910473300", "XC_DATE": "2021-03-30", "NUM_": 95}, {"ID": "c97df0fb984e4fb3b283886e274eb3bb", "EPS_NAME": "广州领衔生物科技有限公司", "PRODUCT_SN": "粤妆20160437", "CITY_CODE": null, "XK_COMPLETE_DATE": {"date": 30, "day": 2, "hours": 0, "minutes": 0, "month": 2, "nanos": 0, "seconds": 0, "time": 1617033600000, "timezoneOffset": -480, "year": 121}, "XK_DATE": "2026-03-29", "QF_MANAGER_NAME": "广东省药品监督管理局", "BUSINESS_LICENSE_NUMBER": "91440116304692720J", "XC_DATE": "2021-03-30", "NUM_": 96}, {"ID": "29fa5b1bc8904764a5fd7b7f6dadf9d8", "EPS_NAME": "广州宝洁有限公司", "PRODUCT_SN": "粤妆20160024", "CITY_CODE": null, "XK_COMPLETE_DATE": {"date": 30, "day": 2, "hours": 0, "minutes": 0, "month": 2, "nanos": 0, "seconds": 0, "time": 1617033600000, "timezoneOffset": -480, "year": 121}, "XK_DATE": "2026-03-29", "QF_MANAGER_NAME": "广东省药品监督管理局", "BUSINESS_LICENSE_NUMBER": "91440101618404218N", "XC_DATE": "2021-03-30", "NUM_": 97}, {"ID": "e69c51118d184714acebc52283cd350f", "EPS_NAME": "厦门芳雪蘭化妆品有限公司", "PRODUCT_SN": "闽妆20160035", "CITY_CODE": "136", "XK_COMPLETE_DATE": {"date": 30, "day": 2, "hours": 0, "minutes": 0, "month": 2, "nanos": 0, "seconds": 0, "time": 1617033600000, "timezoneOffset": -480, "year": 121}, "XK_DATE": "2021-12-28", "QF_MANAGER_NAME": "福建省药品监督管理局", "BUSINESS_LICENSE_NUMBER": "91350212784185874H", "XC_DATE": "2021-03-30", "NUM_": 98}, {"ID": "26be7bd67bc54bc8a82223ebdb506d6f", "EPS_NAME": "广东省古草集生物科技有限公司", "PRODUCT_SN": "粤妆20210089", "CITY_CODE": null, "XK_COMPLETE_DATE": {"date": 29, "day": 1, "hours": 0, "minutes": 0, "month": 2, "nanos": 0, "seconds": 0, "time": 1616947200000, "timezoneOffset": -480, "year": 121}, "XK_DATE": "2026-03-28", "QF_MANAGER_NAME": "广东省药品监督管理局", "BUSINESS_LICENSE_NUMBER": "91440101MA9UU0UU09", "XC_DATE": "2021-03-29", "NUM_": 99}, {"ID": "b71eddb7a3564e1d85214110e276e1d0", "EPS_NAME": "广州品辰生物科技有限公司", "PRODUCT_SN": "粤妆20160839", "CITY_CODE": null, "XK_COMPLETE_DATE": {"date": 29, "day": 1, "hours": 0, "minutes": 0, "month": 2, "nanos": 0, "seconds": 0, "time": 1616947200000, "timezoneOffset": -480, "year": 121}, "XK_DATE": "2026-03-28", "QF_MANAGER_NAME": "广东省药品监督管理局", "BUSINESS_LICENSE_NUMBER": "914401143046922963", "XC_DATE": "2021-03-29", "NUM_": 100}, {"ID": "4cc130291bdc4422a99fe0484add4022", "EPS_NAME": "广州梦婷生物科技有限公司", "PRODUCT_SN": "粤妆20160671", "CITY_CODE": null, "XK_COMPLETE_DATE": {"date": 29, "day": 1, "hours": 0, "minutes": 0, "month": 2, "nanos": 0, "seconds": 0, "time": 1616947200000, "timezoneOffset": -480, "year": 121}, "XK_DATE": "2026-03-28", "QF_MANAGER_NAME": "广东省药品监督管理局", "BUSINESS_LICENSE_NUMBER": "91440111724313838W", "XC_DATE": "2021-03-29", "NUM_": 101}, {"ID": "7bb7938868d6415baee9bb48ffbaa2ef", "EPS_NAME": "无限极（中国）有限公司", "PRODUCT_SN": "粤妆20160586", "CITY_CODE": null, "XK_COMPLETE_DATE": {"date": 29, "day": 1, "hours": 0, "minutes": 0, "month": 2, "nanos": 0, "seconds": 0, "time": 1616947200000, "timezoneOffset": -480, "year": 121}, "XK_DATE": "2026-03-23", "QF_MANAGER_NAME": "广东省药品监督管理局", "BUSINESS_LICENSE_NUMBER": "91440700617435303L", "XC_DATE": "2021-03-29", "NUM_": 102}, {"ID": "c21228a69d69487596641125916a8982", "EPS_NAME": "广州欧舒丹生物科技有限公司", "PRODUCT_SN": "粤妆20160415", "CITY_CODE": null, "XK_COMPLETE_DATE": {"date": 29, "day": 1, "hours": 0, "minutes": 0, "month": 2, "nanos": 0, "seconds": 0, "time": 1616947200000, "timezoneOffset": -480, "year": 121}, "XK_DATE": "2026-03-28", "QF_MANAGER_NAME": "广东省药品监督管理局", "BUSINESS_LICENSE_NUMBER": "91440101320953986A", "XC_DATE": "2021-03-29", "NUM_": 103}, {"ID": "b8c0f92642974349a8dd5a78bca5c343", "EPS_NAME": "洛阳宁邦生物制药有限公司", "PRODUCT_SN": "豫妆20160057", "CITY_CODE": "23", "XK_COMPLETE_DATE": {"date": 29, "day": 1, "hours": 0, "minutes": 0, "month": 2, "nanos": 0, "seconds": 0, "time": 1616947200000, "timezoneOffset": -480, "year": 121}, "XK_DATE": "2021-12-31", "QF_MANAGER_NAME": "河南省药品监督管理局", "BUSINESS_LICENSE_NUMBER": "91410322MA3X6WXK62", "XC_DATE": "2021-03-29", "NUM_": 104}, {"ID": "81c2bb93c44344bbb98832cdbb9bb1ea", "EPS_NAME": "江苏素问化妆品有限公司", "PRODUCT_SN": "苏妆20160016", "CITY_CODE": "86", "XK_COMPLETE_DATE": {"date": 29, "day": 1, "hours": 0, "minutes": 0, "month": 2, "nanos": 0, "seconds": 0, "time": 1616947200000, "timezoneOffset": -480, "year": 121}, "XK_DATE": "2023-07-29", "QF_MANAGER_NAME": "江苏省药品监督管理局", "BUSINESS_LICENSE_NUMBER": "91321016094032184X", "XC_DATE": "2021-03-29", "NUM_": 105}], "orderBy": "createDate", "orderType": "desc", "pageCount": 373, "pageNumber": 7, "pageSize": 15, "property": "", "totalCount": 5590}