{"filesize": "", "keyword": "", "list": [{"ID": "f38da18e38b14494ade9bc7edb0e628a", "EPS_NAME": "厦门蝶丽妃生物科技有限公司", "PRODUCT_SN": "闽妆20180003", "CITY_CODE": "136", "XK_COMPLETE_DATE": {"date": 29, "day": 1, "hours": 0, "minutes": 0, "month": 2, "nanos": 0, "seconds": 0, "time": 1616947200000, "timezoneOffset": -480, "year": 121}, "XK_DATE": "2023-03-05", "QF_MANAGER_NAME": "福建省药品监督管理局", "BUSINESS_LICENSE_NUMBER": "91350212MA2YLJGK3L", "XC_DATE": "2021-03-29", "NUM_": 106}, {"ID": "e4b55e8233bf4dbe8f6e4adb209888cd", "EPS_NAME": "广州凯源日化有限公司", "PRODUCT_SN": "粤妆20210088", "CITY_CODE": null, "XK_COMPLETE_DATE": {"date": 26, "day": 5, "hours": 0, "minutes": 0, "month": 2, "nanos": 0, "seconds": 0, "time": 1616688000000, "timezoneOffset": -480, "year": 121}, "XK_DATE": "2026-03-25", "QF_MANAGER_NAME": "广东省药品监督管理局", "BUSINESS_LICENSE_NUMBER": "91440101MA5D4MHQ06", "XC_DATE": "2021-03-26", "NUM_": 107}, {"ID": "327b7ce0c2214b6ea502f5cb00c0d1a9", "EPS_NAME": "广东爱车小屋电子商务科技有限公司石排分公司", "PRODUCT_SN": "粤妆20210087", "CITY_CODE": null, "XK_COMPLETE_DATE": {"date": 26, "day": 5, "hours": 0, "minutes": 0, "month": 2, "nanos": 0, "seconds": 0, "time": 1616688000000, "timezoneOffset": -480, "year": 121}, "XK_DATE": "2026-03-25", "QF_MANAGER_NAME": "广东省药品监督管理局", "BUSINESS_LICENSE_NUMBER": "91441900MA4ULU0082", "XC_DATE": "2021-03-26", "NUM_": 108}, {"ID": "c3ef921d85084fcb90ae11ad336ff1fa", "EPS_NAME": "汕头市玛莱莉化妆品有限公司", "PRODUCT_SN": "粤妆20210083", "CITY_CODE": null, "XK_COMPLETE_DATE": {"date": 26, "day": 5, "hours": 0, "minutes": 0, "month": 2, "nanos": 0, "seconds": 0, "time": 1616688000000, "timezoneOffset": -480, "year": 121}, "XK_DATE": "2026-03-25", "QF_MANAGER_NAME": "广东省药品监督管理局", "BUSINESS_LICENSE_NUMBER": "91440513MA54JR6Y3A", "XC_DATE": "2021-03-26", "NUM_": 109}, {"ID": "37c6bfc8451f4b2398136c55720b58bb", "EPS_NAME": "广州小正月生物科技有限公司", "PRODUCT_SN": "粤妆20210008", "CITY_CODE": null, "XK_COMPLETE_DATE": {"date": 26, "day": 5, "hours": 0, "minutes": 0, "month": 2, "nanos": 0, "seconds": 0, "time": 1616688000000, "timezoneOffset": -480, "year": 121}, "XK_DATE": "2026-01-10", "QF_MANAGER_NAME": "广东省药品监督管理局", "BUSINESS_LICENSE_NUMBER": "91440101MA9UMQBK5L", "XC_DATE": "2021-03-26", "NUM_": 110}, {"ID": "087d58ea33244753b9416f9439d33de3", "EPS_NAME": "广州储美化妆品有限公司", "PRODUCT_SN": "粤妆20170547", "CITY_CODE": null, "XK_COMPLETE_DATE": {"date": 26, "day": 5, "hours": 0, "minutes": 0, "month": 2, "nanos": 0, "seconds": 0, "time": 1616688000000, "timezoneOffset": -480, "year": 121}, "XK_DATE": "2022-10-19", "QF_MANAGER_NAME": "广东省药品监督管理局", "BUSINESS_LICENSE_NUMBER": "91440101MA59HCMA1T", "XC_DATE": "2021-03-26", "NUM_": 111}, {"ID": "668b5e4b07824b22b900079cbc0bfe9a", "EPS_NAME": "广州雪雅化妆品有限公司", "PRODUCT_SN": "粤妆20161132", "CITY_CODE": null, "XK_COMPLETE_DATE": {"date": 26, "day": 5, "hours": 0, "minutes": 0, "month": 2, "nanos": 0, "seconds": 0, "time": 1616688000000, "timezoneOffset": -480, "year": 121}, "XK_DATE": "2021-11-10", "QF_MANAGER_NAME": "广东省药品监督管理局", "BUSINESS_LICENSE_NUMBER": "91440111739724891P", "XC_DATE": "2021-03-26", "NUM_": 112}, {"ID": "f5e9e7f78ae54187b75bafe16e0f74b6", "EPS_NAME": "广州蔻丝恩化妆品科技有限公司", "PRODUCT_SN": "粤妆20160973", "CITY_CODE": null, "XK_COMPLETE_DATE": {"date": 26, "day": 5, "hours": 0, "minutes": 0, "month": 2, "nanos": 0, "seconds": 0, "time": 1616688000000, "timezoneOffset": -480, "year": 121}, "XK_DATE": "2021-10-23", "QF_MANAGER_NAME": "广东省药品监督管理局", "BUSINESS_LICENSE_NUMBER": "914401160943602761", "XC_DATE": "2021-03-26", "NUM_": 113}, {"ID": "f446638d3e5a4a628444da4ef873c6f1", "EPS_NAME": "广州雨蝶化妆品有限公司", "PRODUCT_SN": "粤妆20160465", "CITY_CODE": null, "XK_COMPLETE_DATE": {"date": 26, "day": 5, "hours": 0, "minutes": 0, "month": 2, "nanos": 0, "seconds": 0, "time": 1616688000000, "timezoneOffset": -480, "year": 121}, "XK_DATE": "2026-03-25", "QF_MANAGER_NAME": "广东省药品监督管理局", "BUSINESS_LICENSE_NUMBER": "91440111761940443E", "XC_DATE": "2021-03-26", "NUM_": 114}, {"ID": "615df96bf39f48609e97c24c7d3a94d9", "EPS_NAME": "汕头市博美化妆品有限公司", "PRODUCT_SN": "粤妆20160264", "CITY_CODE": null, "XK_COMPLETE_DATE": {"date": 26, "day": 5, "hours": 0, "minutes": 0, "month": 2, "nanos": 0, "seconds": 0, "time": 1616688000000, "timezoneOffset": -480, "year": 121}, "XK_DATE": "2026-03-25", "QF_MANAGER_NAME": "广东省药品监督管理局", "BUSINESS_LICENSE_NUMBER": "91440514769342675K", "XC_DATE": "2021-03-26", "NUM_": 115}, {"ID": "608bc2225df540a2ac888138d53d312b", "EPS_NAME": "集美化妆品（东莞）有限公司", "PRODUCT_SN": "粤妆20160219", "CITY_CODE": null, "XK_COMPLETE_DATE": {"date": 26, "day": 5, "hours": 0, "minutes": 0, "month": 2, "nanos": 0, "seconds": 0, "time": 1616688000000, "timezoneOffset": -480, "year": 121}, "XK_DATE": "2026-03-25", "QF_MANAGER_NAME": "广东省药品监督管理局", "BUSINESS_LICENSE_NUMBER": "91441900739892262P", "XC_DATE": "2021-03-26", "NUM_": 116}, {"ID": "a6f54a2b827c484184dd6ad7911e2c8d", "EPS_NAME": "广州市白云区茜妃化妆品厂", "PRODUCT_SN": "粤妆20160199", "CITY_CODE": null, "XK_COMPLETE_DATE": {"date": 26, "day": 5, "hours": 0, "minutes": 0, "month": 2, "nanos": 0, "seconds": 0, "time": 1616688000000, "timezoneOffset": -480, "year": 121}, "XK_DATE": "2026-03-25", "QF_MANAGER_NAME": "广东省药品监督管理局", "BUSINESS_LICENSE_NUMBER": "91440101669997762E", "XC_DATE": "2021-03-26", "NUM_": 117}, {"ID": "79495288079b4efdb87d93a89a3ac5cf", "EPS_NAME": "汕头市金雅虹精细化工有限公司", "PRODUCT_SN": "粤妆20160146", "CITY_CODE": null, "XK_COMPLETE_DATE": {"date": 26, "day": 5, "hours": 0, "minutes": 0, "month": 2, "nanos": 0, "seconds": 0, "time": 1616688000000, "timezoneOffset": -480, "year": 121}, "XK_DATE": "2026-03-25", "QF_MANAGER_NAME": "广东省药品监督管理局", "BUSINESS_LICENSE_NUMBER": "91440515617460656L", "XC_DATE": "2021-03-26", "NUM_": 118}, {"ID": "0d6109c01dce4049b0d523f7892fd0e3", "EPS_NAME": "广州睿森生物科技有限公司", "PRODUCT_SN": "粤妆20160072", "CITY_CODE": null, "XK_COMPLETE_DATE": {"date": 26, "day": 5, "hours": 0, "minutes": 0, "month": 2, "nanos": 0, "seconds": 0, "time": 1616688000000, "timezoneOffset": -480, "year": 121}, "XK_DATE": "2026-03-25", "QF_MANAGER_NAME": "广东省药品监督管理局", "BUSINESS_LICENSE_NUMBER": "9144010130467977XW", "XC_DATE": "2021-03-26", "NUM_": 119}, {"ID": "536878abac734332ae06dcb1a3fbd14a", "EPS_NAME": "广东十长生化妆品制造有限公司", "PRODUCT_SN": "粤妆20160023", "CITY_CODE": null, "XK_COMPLETE_DATE": {"date": 26, "day": 5, "hours": 0, "minutes": 0, "month": 2, "nanos": 0, "seconds": 0, "time": 1616688000000, "timezoneOffset": -480, "year": 121}, "XK_DATE": "2023-09-13", "QF_MANAGER_NAME": "广东省药品监督管理局", "BUSINESS_LICENSE_NUMBER": "91441802398100393X", "XC_DATE": "2021-03-26", "NUM_": 120}], "orderBy": "createDate", "orderType": "desc", "pageCount": 373, "pageNumber": 8, "pageSize": 15, "property": "", "totalCount": 5590}