{"filesize": "", "keyword": "", "list": [{"ID": "fc026ffe5f2b48cc86d2b8c85d09066d", "EPS_NAME": "麦吉尔（沈阳）药业有限公司", "PRODUCT_SN": "辽妆20190009", "CITY_CODE": "285", "XK_COMPLETE_DATE": {"date": 26, "day": 5, "hours": 0, "minutes": 0, "month": 2, "nanos": 0, "seconds": 0, "time": 1616688000000, "timezoneOffset": -480, "year": 121}, "XK_DATE": "2024-10-21", "QF_MANAGER_NAME": "辽宁省药品监督管理局", "BUSINESS_LICENSE_NUMBER": "91210103MA0YJQE87C", "XC_DATE": "2021-03-26", "NUM_": 121}, {"ID": "8d906481bebc4b1dac0dc06df37d4fb9", "EPS_NAME": "同康药业科技（广州）有限公司", "PRODUCT_SN": "粤妆20210084", "CITY_CODE": null, "XK_COMPLETE_DATE": {"date": 25, "day": 4, "hours": 0, "minutes": 0, "month": 2, "nanos": 0, "seconds": 0, "time": 1616601600000, "timezoneOffset": -480, "year": 121}, "XK_DATE": "2026-03-24", "QF_MANAGER_NAME": "广东省药品监督管理局", "BUSINESS_LICENSE_NUMBER": "91440101MA9UQENG88", "XC_DATE": "2021-03-25", "NUM_": 122}, {"ID": "b9fa81fe78ee454d97a53ad0350aba7e", "EPS_NAME": "蕉岭佰霖生物科技有限公司", "PRODUCT_SN": "粤妆20200222", "CITY_CODE": null, "XK_COMPLETE_DATE": {"date": 25, "day": 4, "hours": 0, "minutes": 0, "month": 2, "nanos": 0, "seconds": 0, "time": 1616601600000, "timezoneOffset": -480, "year": 121}, "XK_DATE": "2025-11-16", "QF_MANAGER_NAME": "广东省药品监督管理局", "BUSINESS_LICENSE_NUMBER": "91441400075090223R", "XC_DATE": "2021-03-25", "NUM_": 123}, {"ID": "ccf0db7d058342298c42b778e2cbe0d7", "EPS_NAME": "漳州欧丽宝生物科技有限公司", "PRODUCT_SN": "闽妆20210003", "CITY_CODE": "140", "XK_COMPLETE_DATE": {"date": 25, "day": 4, "hours": 0, "minutes": 0, "month": 2, "nanos": 0, "seconds": 0, "time": 1616601600000, "timezoneOffset": -480, "year": 121}, "XK_DATE": "2026-03-24", "QF_MANAGER_NAME": "福建省药品监督管理局", "BUSINESS_LICENSE_NUMBER": "91350681MA34RU2J3H", "XC_DATE": "2021-03-25", "NUM_": 124}, {"ID": "670daa3bed864e029c4a17479314240b", "EPS_NAME": "天津嘉氏堂科技有限公司", "PRODUCT_SN": "津妆20160029", "CITY_CODE": "417", "XK_COMPLETE_DATE": {"date": 25, "day": 4, "hours": 0, "minutes": 0, "month": 2, "nanos": 0, "seconds": 0, "time": 1616601600000, "timezoneOffset": -480, "year": 121}, "XK_DATE": "2021-12-18", "QF_MANAGER_NAME": "天津市药品监督管理局", "BUSINESS_LICENSE_NUMBER": "911201166847378546", "XC_DATE": "2021-03-25", "NUM_": 125}, {"ID": "0f016343bc94448d93cd83c7f6deefbf", "EPS_NAME": "克缇（中国）日用品有限公司", "PRODUCT_SN": "沪妆20160189", "CITY_CODE": null, "XK_COMPLETE_DATE": {"date": 25, "day": 4, "hours": 0, "minutes": 0, "month": 2, "nanos": 0, "seconds": 0, "time": 1616601600000, "timezoneOffset": -480, "year": 121}, "XK_DATE": "2021-12-29", "QF_MANAGER_NAME": "上海市药品监督管理局", "BUSINESS_LICENSE_NUMBER": "91310000607219447R", "XC_DATE": "2021-03-25", "NUM_": 126}, {"ID": "7fd6037580c9486a8f26bf3bca89caa7", "EPS_NAME": "汕头市名欣化妆品有限公司", "PRODUCT_SN": "粤妆20210082", "CITY_CODE": null, "XK_COMPLETE_DATE": {"date": 24, "day": 3, "hours": 0, "minutes": 0, "month": 2, "nanos": 0, "seconds": 0, "time": 1616515200000, "timezoneOffset": -480, "year": 121}, "XK_DATE": "2026-03-23", "QF_MANAGER_NAME": "广东省药品监督管理局", "BUSINESS_LICENSE_NUMBER": "91440513MA55QCP042", "XC_DATE": "2021-03-24", "NUM_": 127}, {"ID": "49b24fe170dd4f469e65f6c5dfbf47fc", "EPS_NAME": "澳宝化妆品（惠州）有限公司", "PRODUCT_SN": "粤妆20210081", "CITY_CODE": null, "XK_COMPLETE_DATE": {"date": 24, "day": 3, "hours": 0, "minutes": 0, "month": 2, "nanos": 0, "seconds": 0, "time": 1616515200000, "timezoneOffset": -480, "year": 121}, "XK_DATE": "2026-03-23", "QF_MANAGER_NAME": "广东省药品监督管理局", "BUSINESS_LICENSE_NUMBER": "914413007977357161", "XC_DATE": "2021-03-24", "NUM_": 128}, {"ID": "1d6f978fb38e45da8edb49c1a01665d6", "EPS_NAME": "汕头市名王日化有限公司", "PRODUCT_SN": "粤妆20161018", "CITY_CODE": null, "XK_COMPLETE_DATE": {"date": 24, "day": 3, "hours": 0, "minutes": 0, "month": 2, "nanos": 0, "seconds": 0, "time": 1616515200000, "timezoneOffset": -480, "year": 121}, "XK_DATE": "2026-03-23", "QF_MANAGER_NAME": "广东省药品监督管理局", "BUSINESS_LICENSE_NUMBER": "914405135724011175", "XC_DATE": "2021-03-24", "NUM_": 129}, {"ID": "4f2d9d2382e4489fa4732a081a9ce24f", "EPS_NAME": "广州市发爵士精细化工有限公司", "PRODUCT_SN": "粤妆20160710", "CITY_CODE": null, "XK_COMPLETE_DATE": {"date": 24, "day": 3, "hours": 0, "minutes": 0, "month": 2, "nanos": 0, "seconds": 0, "time": 1616515200000, "timezoneOffset": -480, "year": 121}, "XK_DATE": "2026-03-23", "QF_MANAGER_NAME": "广东省药品监督管理局", "BUSINESS_LICENSE_NUMBER": "91440111698655833E", "XC_DATE": "2021-03-24", "NUM_": 130}, {"ID": "aecad8d1b81e4af9846cda840115ab22", "EPS_NAME": "广州欧博化妆品有限公司", "PRODUCT_SN": "粤妆20160694", "CITY_CODE": null, "XK_COMPLETE_DATE": {"date": 24, "day": 3, "hours": 0, "minutes": 0, "month": 2, "nanos": 0, "seconds": 0, "time": 1616515200000, "timezoneOffset": -480, "year": 121}, "XK_DATE": "2026-03-23", "QF_MANAGER_NAME": "广东省药品监督管理局", "BUSINESS_LICENSE_NUMBER": "91440111683279601T", "XC_DATE": "2021-03-24", "NUM_": 131}, {"ID": "df7b135f2b5545e8bd250c8e166e7ee5", "EPS_NAME": "广州瑾洋化妆品有限公司", "PRODUCT_SN": "粤妆20160403", "CITY_CODE": null, "XK_COMPLETE_DATE": {"date": 24, "day": 3, "hours": 0, "minutes": 0, "month": 2, "nanos": 0, "seconds": 0, "time": 1616515200000, "timezoneOffset": -480, "year": 121}, "XK_DATE": "2026-03-23", "QF_MANAGER_NAME": "广东省药品监督管理局", "BUSINESS_LICENSE_NUMBER": "914401116699559251", "XC_DATE": "2021-03-24", "NUM_": 132}, {"ID": "d8f7f6e239ff4f4b91702d69f9cfe5d6", "EPS_NAME": "广州科玛化妆品制造有限公司", "PRODUCT_SN": "粤妆20160344", "CITY_CODE": null, "XK_COMPLETE_DATE": {"date": 24, "day": 3, "hours": 0, "minutes": 0, "month": 2, "nanos": 0, "seconds": 0, "time": 1616515200000, "timezoneOffset": -480, "year": 121}, "XK_DATE": "2026-03-23", "QF_MANAGER_NAME": "广东省药品监督管理局", "BUSINESS_LICENSE_NUMBER": "91440101766114378U", "XC_DATE": "2021-03-24", "NUM_": 133}, {"ID": "82360314a4c642c49c3b6d72abf5a829", "EPS_NAME": "惠州兆婷化妆品有限公司", "PRODUCT_SN": "粤妆20160116", "CITY_CODE": null, "XK_COMPLETE_DATE": {"date": 24, "day": 3, "hours": 0, "minutes": 0, "month": 2, "nanos": 0, "seconds": 0, "time": 1616515200000, "timezoneOffset": -480, "year": 121}, "XK_DATE": "2026-05-24", "QF_MANAGER_NAME": "广东省药品监督管理局", "BUSINESS_LICENSE_NUMBER": "914413007684330655", "XC_DATE": "2021-03-24", "NUM_": 134}, {"ID": "a1e46361bb244bd38589127d43f6ecbc", "EPS_NAME": "江苏宝洁有限公司", "PRODUCT_SN": "苏妆20160037", "CITY_CODE": "84", "XK_COMPLETE_DATE": {"date": 24, "day": 3, "hours": 0, "minutes": 0, "month": 2, "nanos": 0, "seconds": 0, "time": 1616515200000, "timezoneOffset": -480, "year": 121}, "XK_DATE": "2026-03-23", "QF_MANAGER_NAME": "江苏省药品监督管理局", "BUSINESS_LICENSE_NUMBER": "91320585560314411A", "XC_DATE": "2021-03-24", "NUM_": 135}], "orderBy": "createDate", "orderType": "desc", "pageCount": 373, "pageNumber": 9, "pageSize": 15, "property": "", "totalCount": 5590}